﻿// EVENT 0069
Name "Skill: Play 291-300"

ChangeVariable(11,11,0,2,1,5)
If(1,100,0,291,0)
 If(1,11,0,1,0)
  ShowMessageFace("madamumbrella_fc1",0,0,2,1)
  ShowMessage("\\n<Sharon>The sun is also nice...")
  ShowMessageFace("",0,0,2,2)
  ShowMessage("Sharon is laying on the ground sunbathing...")
  EndEventProcessing()
  0()
 EndIf()
 If(1,11,0,2,0)
  ShowMessageFace("madamumbrella_fc1",0,0,2,3)
  ShowMessage("\\n<Sharon>This umbrella was specially-made...")
  ShowMessageFace("",0,0,2,4)
  ShowMessage("Sharon is spinning her umbrella.")
  EndEventProcessing()
  0()
 EndIf()
 If(1,11,0,3,0)
  ShowMessageFace("madamumbrella_fc1",2,0,2,5)
  ShowMessage("\\n<Sharon>I'm tired of this uncivilized fighting...")
  ShowMessageFace("",0,0,2,6)
  ShowMessage("Sharon hid somewhere!\n...But nobody tried to find her.")
  EndEventProcessing()
  0()
 EndIf()
 If(1,11,0,4,0)
  ShowMessageFace("madamumbrella_fc1",0,0,2,7)
  ShowMessage("\\n<Sharon>Here, please eat this. It's sweet...")
  ShowMessageFace("",0,0,2,8)
  ShowMessage("Shraon presents a gift!")
  250(bytes(0x04,0x08,0x6f,0x3a,0x0c,0x52,0x50,0x47,0x3a,0x3a,0x53,0x45,0x08,0x3a,0x0a,0x40,0x6e,0x61,0x6d,0x65,0x49,0x22,0x0a,0x49,0x74,0x65,0x6d,0x31,0x06,0x3a,0x06,0x45,0x54,0x3a,0x0b,0x40,0x70,0x69,0x74,0x63,0x68,0x69,0x69,0x3a,0x0c,0x40,0x76,0x6f,0x6c,0x75,0x6d,0x65,0x69,0x55))
  ChangeInventory_Item(421,0,0,1)
  ShowMessageFace("",0,0,2,9)
  ShowMessage("You obtain an \\ii[421]!")
  EndEventProcessing()
  0()
 EndIf()
 If(1,11,0,5,0)
  ShowMessageFace("madamumbrella_fc1",0,0,2,10)
  ShowMessage("\\n<Sharon>You're a nuisance...")
  355("interrupt_skill(2776)")
  EndEventProcessing()
  0()
 EndIf()
 0()
EndIf()
If(1,100,0,292,0)
 If(1,11,0,1,0)
  ShowMessageFace("aradia_fc1",1,0,2,11)
  ShowMessage("\\n<Aradia>Ufufu...")
  355("interrupt_skill(3296)")
  EndEventProcessing()
  0()
 EndIf()
 If(1,11,0,2,0)
  ShowMessageFace("aradia_fc1",0,0,2,12)
  ShowMessage("\\n<Aradia>I need to polish my breasts some more...")
  ShowMessageFace("",0,0,2,13)
  ShowMessage("Aradia is training in secret...")
  EndEventProcessing()
  0()
 EndIf()
 If(1,11,0,3,0)
  ShowMessageFace("aradia_fc1",1,0,2,14)
  ShowMessage("\\n<Aradia>............")
  313(0,292,0,24)
  ShowMessageFace("",0,0,2,15)
  ShowMessage("Aradia is thinking about lewd things...\nAradia has become horny!")
  EndEventProcessing()
  0()
 EndIf()
 If(1,11,0,4,0)
  ShowMessageFace("aradia_fc1",0,0,2,16)
  ShowMessage("\\n<Aradia>I'll give you this...fufufu.")
  ShowMessageFace("",0,0,2,17)
  ShowMessage("Aradia presents a gift!")
  250(bytes(0x04,0x08,0x6f,0x3a,0x0c,0x52,0x50,0x47,0x3a,0x3a,0x53,0x45,0x08,0x3a,0x0a,0x40,0x6e,0x61,0x6d,0x65,0x49,0x22,0x0a,0x49,0x74,0x65,0x6d,0x31,0x06,0x3a,0x06,0x45,0x54,0x3a,0x0b,0x40,0x70,0x69,0x74,0x63,0x68,0x69,0x69,0x3a,0x0c,0x40,0x76,0x6f,0x6c,0x75,0x6d,0x65,0x69,0x55))
  ChangeInventory_Item(342,0,0,1)
  ShowMessageFace("",0,0,2,18)
  ShowMessage("You obtain some \\ii[342]!")
  EndEventProcessing()
  0()
 EndIf()
 If(1,11,0,5,0)
  ShowMessageFace("aradia_fc1",0,0,2,19)
  ShowMessage("\\n<Aradia>Breast magic...")
  355("interrupt_skill(1542)")
  EndEventProcessing()
  0()
 EndIf()
 0()
EndIf()
If(1,100,0,293,0)
 If(1,11,0,1,0)
  ShowMessageFace("candy_fc1",1,0,2,20)
  ShowMessage("\\n<Candy>Munch...munch...")
  ShowMessageFace("",0,0,2,21)
  ShowMessage("Candy is eating some food she stole...")
  EndEventProcessing()
  0()
 EndIf()
 If(1,11,0,2,0)
  ShowMessageFace("candy_fc1",1,0,2,22)
  ShowMessage("\\n<Candy>Munch...munch...")
  ShowMessageFace("",0,0,2,23)
  ShowMessage("Candy is eating her own hair...")
  EndEventProcessing()
  0()
 EndIf()
 If(1,11,0,3,0)
  ShowMessageFace("candy_fc1",3,0,2,24)
  ShowMessage("\\n<Candy>*snore*")
  313(0,293,0,11)
  ShowMessageFace("",0,0,2,25)
  ShowMessage("Candy is sleeping...")
  EndEventProcessing()
  0()
 EndIf()
 If(1,11,0,4,0)
  ShowMessageFace("candy_fc1",1,0,2,26)
  ShowMessage("\\n<Candy>I'll give you this...\nIs it a sign of friendship?")
  ShowMessageFace("",0,0,2,27)
  ShowMessage("Candy presents a gift!")
  250(bytes(0x04,0x08,0x6f,0x3a,0x0c,0x52,0x50,0x47,0x3a,0x3a,0x53,0x45,0x08,0x3a,0x0a,0x40,0x6e,0x61,0x6d,0x65,0x49,0x22,0x0a,0x49,0x74,0x65,0x6d,0x31,0x06,0x3a,0x06,0x45,0x54,0x3a,0x0b,0x40,0x70,0x69,0x74,0x63,0x68,0x69,0x69,0x3a,0x0c,0x40,0x76,0x6f,0x6c,0x75,0x6d,0x65,0x69,0x55))
  ChangeInventory_Item(417,0,0,1)
  ShowMessageFace("",0,0,2,28)
  ShowMessage("You obtain some \\ii[417]!")
  EndEventProcessing()
  0()
 EndIf()
 If(1,11,0,5,0)
  ShowMessageFace("candy_fc1",1,0,2,29)
  ShowMessage("\\n<Candy>Crush!")
  355("interrupt_skill(2993)")
  EndEventProcessing()
  0()
 EndIf()
 0()
EndIf()
If(1,100,0,294,0)
 If(1,11,0,1,0)
  ShowMessageFace("emily_fc1",2,0,2,30)
  ShowMessage("\\n<Emily>I'll become an idol! ♪")
  ShowMessageFace("",0,0,2,31)
  ShowMessage("Emily made a bold declaration!\n...But no one was listening to her.")
  EndEventProcessing()
  0()
 EndIf()
 If(1,11,0,2,0)
  ShowMessageFace("emily_fc1",2,0,2,32)
  ShowMessage("\\n<Emily>Sparkle☆")
  355("interrupt_skill(2081)")
  EndEventProcessing()
  0()
 EndIf()
 If(1,11,0,3,0)
  ShowMessageFace("emily_fc1",2,0,2,33)
  ShowMessage("\\n<Emily>Ahaha...♪")
  ShowMessageFace("",0,0,2,34)
  ShowMessage("Emily is dancing and singing happily...")
  EndEventProcessing()
  0()
 EndIf()
 If(1,11,0,4,0)
  ShowMessageFace("emily_fc1",1,0,2,35)
  ShowMessage("\\n<Emily>You can have this.")
  ShowMessageFace("",0,0,2,36)
  ShowMessage("Emily presents a gift!")
  250(bytes(0x04,0x08,0x6f,0x3a,0x0c,0x52,0x50,0x47,0x3a,0x3a,0x53,0x45,0x08,0x3a,0x0a,0x40,0x6e,0x61,0x6d,0x65,0x49,0x22,0x0a,0x49,0x74,0x65,0x6d,0x31,0x06,0x3a,0x06,0x45,0x54,0x3a,0x0b,0x40,0x70,0x69,0x74,0x63,0x68,0x69,0x69,0x3a,0x0c,0x40,0x76,0x6f,0x6c,0x75,0x6d,0x65,0x69,0x55))
  ChangeInventory_Item(337,0,0,1)
  ShowMessageFace("",0,0,2,37)
  ShowMessage("You obtain some \\ii[337]!")
  EndEventProcessing()
  0()
 EndIf()
 If(1,11,0,5,0)
  ShowMessageFace("emily_fc1",1,0,2,38)
  ShowMessage("\\n<Emily>Coooome! ♪")
  355("interrupt_skill(2789)")
  EndEventProcessing()
  0()
 EndIf()
 0()
EndIf()
If(1,100,0,295,0)
 If(1,11,0,1,0)
  ShowMessageFace("cassandra_fc1",5,0,2,39)
  ShowMessage("\\n<Cassandra>Ufufufu...")
  ShowMessageFace("",0,0,2,40)
  ShowMessage("Cassandra is giggling...")
  EndEventProcessing()
  0()
 EndIf()
 If(1,11,0,2,0)
  ShowMessageFace("cassandra_fc1",5,0,2,41)
  ShowMessage("\\n<Cassandra>Ufufufu...")
  ShowMessageFace("",0,0,2,42)
  ShowMessage("Cassandra is dancing and singing happily...")
  EndEventProcessing()
  0()
 EndIf()
 If(1,11,0,3,0)
  ShowMessageFace("cassandra_fc1",5,0,2,43)
  ShowMessage("\\n<Cassandra>I will become the next Monster Lord!")
  ShowMessageFace("",0,0,2,44)
  ShowMessage("Cassandra made a bold declaration!\n...But no one was listening to her.")
  EndEventProcessing()
  0()
 EndIf()
 If(1,11,0,4,0)
  ShowMessageFace("cassandra_fc1",5,0,2,45)
  ShowMessage("\\n<Cassandra>Please have this...")
  ShowMessageFace("",0,0,2,46)
  ShowMessage("Cassandra presents a gift!")
  250(bytes(0x04,0x08,0x6f,0x3a,0x0c,0x52,0x50,0x47,0x3a,0x3a,0x53,0x45,0x08,0x3a,0x0a,0x40,0x6e,0x61,0x6d,0x65,0x49,0x22,0x0a,0x49,0x74,0x65,0x6d,0x31,0x06,0x3a,0x06,0x45,0x54,0x3a,0x0b,0x40,0x70,0x69,0x74,0x63,0x68,0x69,0x69,0x3a,0x0c,0x40,0x76,0x6f,0x6c,0x75,0x6d,0x65,0x69,0x55))
  ChangeInventory_Item(398,0,0,1)
  ShowMessageFace("",0,0,2,47)
  ShowMessage("You obtain some \\ii[398]!")
  EndEventProcessing()
  0()
 EndIf()
 If(1,11,0,5,0)
  ShowMessageFace("cassandra_fc1",5,0,2,48)
  ShowMessage("\\n<Cassandra>I shall dissolve everyone...")
  355("interrupt_skill(2647)")
  EndEventProcessing()
  0()
 EndIf()
 0()
EndIf()
If(1,100,0,297,0)
 If(1,11,0,1,0)
  ShowMessageFace("basilisk_fc1",0,0,2,49)
  ShowMessage("\\n<Basilin>Birds are really just some kind of lizard...")
  ShowMessageFace("",0,0,2,50)
  ShowMessage("Basilin is complaining to herself...")
  EndEventProcessing()
  0()
 EndIf()
 If(1,11,0,2,0)
  ShowMessageFace("basilisk_fc1",0,0,2,51)
  ShowMessage("\\n<Basilin>Shaaa!!")
  355("interrupt_skill(3312)")
  EndEventProcessing()
  0()
 EndIf()
 If(1,11,0,3,0)
  ShowMessageFace("basilisk_fc1",0,0,2,52)
  ShowMessage("\\n<Basilin>I'm hungry...*munch munch*.")
  ShowMessageFace("",0,0,2,53)
  ShowMessage("Basilin is eating some food she stole...")
  EndEventProcessing()
  0()
 EndIf()
 If(1,11,0,4,0)
  ShowMessageFace("basilisk_fc1",0,0,2,54)
  ShowMessage("\\n<Basilin>I'll give you this... It's not mine.")
  ShowMessageFace("",0,0,2,55)
  ShowMessage("Basilin presents a gift!")
  250(bytes(0x04,0x08,0x6f,0x3a,0x0c,0x52,0x50,0x47,0x3a,0x3a,0x53,0x45,0x08,0x3a,0x0a,0x40,0x6e,0x61,0x6d,0x65,0x49,0x22,0x0a,0x49,0x74,0x65,0x6d,0x31,0x06,0x3a,0x06,0x45,0x54,0x3a,0x0b,0x40,0x70,0x69,0x74,0x63,0x68,0x69,0x69,0x3a,0x0c,0x40,0x76,0x6f,0x6c,0x75,0x6d,0x65,0x69,0x55))
  ChangeInventory_Item(330,0,0,1)
  ShowMessageFace("",0,0,2,56)
  ShowMessage("You obtain a \\ii[330]!")
  EndEventProcessing()
  0()
 EndIf()
 If(1,11,0,5,0)
  ShowMessageFace("basilisk_fc1",0,0,2,57)
  ShowMessage("\\n<Basilin>Hmph, turn to stone...")
  355("interrupt_skill(2556)")
  EndEventProcessing()
  0()
 EndIf()
 0()
EndIf()
If(1,100,0,298,0)
 If(1,11,0,1,0)
  ShowMessageFace("dragon_fc1",0,0,2,58)
  ShowMessage("\\n<Grande>Oooooh...!!")
  355("interrupt_skill(2698)")
  EndEventProcessing()
  0()
 EndIf()
 If(1,11,0,2,0)
  ShowMessageFace("dragon_fc1",0,0,2,59)
  ShowMessage("\\n<Grande>............")
  ShowMessageFace("",0,0,2,60)
  ShowMessage("Grande makes a sidelong glance...\nHowever, it appeared to be more like a glare!")
  EndEventProcessing()
  0()
 EndIf()
 If(1,11,0,3,0)
  ShowMessageFace("dragon_fc1",0,0,2,61)
  ShowMessage("\\n<Grande>A little sleep...")
  313(0,298,0,11)
  ShowMessageFace("",0,0,2,62)
  ShowMessage("Grande fell asleep...")
  EndEventProcessing()
  0()
 EndIf()
 If(1,11,0,4,0)
  ShowMessageFace("dragon_fc1",0,0,2,63)
  ShowMessage("\\n<Grande>This is fine weather...")
  ShowMessageFace("",0,0,2,64)
  ShowMessage("Grande is laying on the ground sunbathing...")
  EndEventProcessing()
  0()
 EndIf()
 If(1,11,0,5,0)
  ShowMessageFace("dragon_fc1",0,0,2,65)
  ShowMessage("\\n<Grande>Haaa...!")
  355("interrupt_skill(3070)")
  EndEventProcessing()
  0()
 EndIf()
 0()
EndIf()
If(1,100,0,299,0)
 If(1,11,0,1,0)
  ShowMessageFace("gelatinous_fc1",0,0,2,66)
  ShowMessage("\\n<Marge>Purupurupuru...♪")
  ShowMessageFace("",0,0,2,67)
  ShowMessage("Marge is jiggling...")
  EndEventProcessing()
  0()
 EndIf()
 If(1,11,0,2,0)
  ShowMessageFace("gelatinous_fc1",0,0,2,68)
  ShowMessage("\\n<Marge>Go for it, everyone!")
  355("interrupt_skill(3300)")
  EndEventProcessing()
  0()
 EndIf()
 If(1,11,0,3,0)
  ShowMessageFace("gelatinous_fc1",1,0,2,69)
  ShowMessage("\\n<Marge>Ahahaha...♪")
  ShowMessageFace("",0,0,2,70)
  ShowMessage("Marge is laughing happily!")
  EndEventProcessing()
  0()
 EndIf()
 If(1,11,0,4,0)
  ShowMessageFace("gelatinous_fc1",0,0,2,71)
  ShowMessage("\\n<Marge>My cube is really tasty. ♪")
  ShowMessageFace("",0,0,2,72)
  ShowMessage("Marge presents a gift!")
  250(bytes(0x04,0x08,0x6f,0x3a,0x0c,0x52,0x50,0x47,0x3a,0x3a,0x53,0x45,0x08,0x3a,0x0a,0x40,0x6e,0x61,0x6d,0x65,0x49,0x22,0x0a,0x49,0x74,0x65,0x6d,0x31,0x06,0x3a,0x06,0x45,0x54,0x3a,0x0b,0x40,0x70,0x69,0x74,0x63,0x68,0x69,0x69,0x3a,0x0c,0x40,0x76,0x6f,0x6c,0x75,0x6d,0x65,0x69,0x55))
  ChangeInventory_Item(422,0,0,1)
  ShowMessageFace("",0,0,2,73)
  ShowMessage("You obtain some \\ii[422]!")
  EndEventProcessing()
  0()
 EndIf()
 If(1,11,0,5,0)
  ShowMessageFace("gelatinous_fc1",0,0,2,74)
  ShowMessage("\\n<Marge>Sticky cuuube!")
  355("interrupt_skill(2651)")
  EndEventProcessing()
  0()
 EndIf()
 0()
EndIf()
If(1,100,0,300,0)
 If(1,11,0,1,0)
  ShowMessageFace("youki_fc1",0,0,2,75)
  ShowMessage("\\n<Kureha>Doryaa! Doryaa!")
  ShowMessageFace("",0,0,2,76)
  ShowMessage("Kureha is practicing swinging her weapon...")
  EndEventProcessing()
  0()
 EndIf()
 If(1,11,0,2,0)
  ShowMessageFace("youki_fc1",0,0,2,77)
  ShowMessage("\\n<Kureha>Hmph!!")
  355("interrupt_skill(3294)")
  EndEventProcessing()
  0()
 EndIf()
 If(1,11,0,3,0)
  ShowMessageFace("youki_fc1",0,0,2,78)
  ShowMessage("\\n<Kureha>Oooooh!!")
  355("interrupt_skill(3292)")
  EndEventProcessing()
  0()
 EndIf()
 If(1,11,0,4,0)
  ShowMessageFace("youki_fc1",0,0,2,79)
  ShowMessage("\\n<Kureha>Here, eat it!")
  ShowMessageFace("",0,0,2,80)
  ShowMessage("Kureha presents a gift!")
  250(bytes(0x04,0x08,0x6f,0x3a,0x0c,0x52,0x50,0x47,0x3a,0x3a,0x53,0x45,0x08,0x3a,0x0a,0x40,0x6e,0x61,0x6d,0x65,0x49,0x22,0x0a,0x49,0x74,0x65,0x6d,0x31,0x06,0x3a,0x06,0x45,0x54,0x3a,0x0b,0x40,0x70,0x69,0x74,0x63,0x68,0x69,0x69,0x3a,0x0c,0x40,0x76,0x6f,0x6c,0x75,0x6d,0x65,0x69,0x55))
  ChangeInventory_Item(371,0,0,1)
  ShowMessageFace("",0,0,2,81)
  ShowMessage("You obtain a \\ii[371]!")
  EndEventProcessing()
  0()
 EndIf()
 If(1,11,0,5,0)
  ShowMessageFace("youki_fc1",0,0,2,82)
  ShowMessage("\\n<Kureha>Doryaa! Doryaa!")
  355("interrupt_skill(3291)")
  EndEventProcessing()
  0()
 EndIf()
 0()
EndIf()
0()
