// EVENT 4626
Name "Onahole Girl"

If(0,25,1)
 221()
 PictureClear(5)
 PictureClear(6)
 ShowMessageFace("",0,0,2,0)
 ShowMessage("......")
 242(2)
 Wait(120)
 241(bytes(0x04,0x08,0x6f,0x3a,0x0d,0x52,0x50,0x47,0x3a,0x3a,0x42,0x47,0x4d,0x08,0x3a,0x0a,0x40,0x6e,0x61,0x6d,0x65,0x49,0x22,0x0c,0x63,0x61,0x73,0x74,0x6c,0x65,0x36,0x06,0x3a,0x06,0x45,0x54,0x3a,0x0c,0x40,0x76,0x6f,0x6c,0x75,0x6d,0x65,0x69,0x69,0x3a,0x0b,0x40,0x70,0x69,0x74,0x63,0x68,0x69,0x69))
 EndEventProcessing()
 0()
EndIf()
PictureDisplay(5,"80_onaho_st01",0,0,0,0,100,100,255,0)
ShowMessageFace("onaho_fc1",0,0,2,1)
ShowMessage("\\n<Naho>You want to use my onahole...?")
ShowMessageFace("",0,0,2,2)
ShowMessage("\\n<Luka>P-please...")
ShowMessageFace("",0,0,2,3)
ShowMessage("Naho holds me from behind.")
ShowMessage("I feel on my back a sensation as if solid mucus was touching me.")
ShowMessageFace("onaho_fc1",0,0,2,4)
ShowMessage("\\n<Naho>")
ShowMessage("Well then, I will squeeze out your semen. ♪")
ShowMessage("Ufufu, you wanted to do this, right?")
ShowMessageFace("",0,0,2,6)
ShowMessage("\\n<Luka>Aaah...")
ShowMessageFace("onaho_fc1",0,0,2,7)
ShowMessage("\\n<Naho>Your penis, I'll make it feel really good...\nCome lots in my onahole. ♪")
241(bytes(0x04,0x08,0x6f,0x3a,0x0d,0x52,0x50,0x47,0x3a,0x3a,0x42,0x47,0x4d,0x08,0x3a,0x0a,0x40,0x6e,0x61,0x6d,0x65,0x49,0x22,0x09,0x65,0x72,0x6f,0x31,0x06,0x3a,0x06,0x45,0x54,0x3a,0x0c,0x40,0x76,0x6f,0x6c,0x75,0x6d,0x65,0x69,0x69,0x3a,0x0b,0x40,0x70,0x69,0x74,0x63,0x68,0x69,0x69))
245(bytes(0x04,0x08,0x6f,0x3a,0x0d,0x52,0x50,0x47,0x3a,0x3a,0x42,0x47,0x53,0x08,0x3a,0x0a,0x40,0x6e,0x61,0x6d,0x65,0x49,0x22,0x1e,0x6d,0x6f,0x6e,0x5f,0x68,0x73,0x65,0x61,0x6e,0x30,0x36,0x5f,0x69,0x6e,0x6e,0x65,0x72,0x77,0x6f,0x72,0x6b,0x73,0x5f,0x61,0x36,0x06,0x3a,0x06,0x45,0x54,0x3a,0x0c,0x40,0x76,0x6f,0x6c,0x75,0x6d,0x65,0x69,0x55,0x3a,0x0b,0x40,0x70,0x69,0x74,0x63,0x68,0x69,0x69))
PictureDisplay(5,"ev_onaho_ha1",0,0,0,0,100,100,0,0)
PictureMove(5,null,0,0,0,0,100,100,255,0,30,true)
ShowMessageFace("",0,0,2,8)
ShowMessage("\\n<Luka>Aaah...!")
ShowMessageFace("",0,0,2,9)
ShowMessage("My penis is inserted inside her onahole.")
ShowMessage("A crazy tightness envelops my glans.")
ShowMessageFace("",0,0,2,10)
ShowMessage("The inside is lined with small folds.")
ShowMessage("They're intertwined with each other and my penis divides them as it goes deeper.")
ShowMessageFace("",0,0,2,11)
ShowMessage("Like that, my penis sinks all the way to the back of her onahole...")
ShowMessage("From the tip to the root, I'm enveloped in tightness.")
ShowMessageFace("",0,0,2,12)
ShowMessage("\\n<Luka>Nnngh...So soft...")
ShowMessageFace("onaho_fc1",0,0,2,13)
ShowMessage("\\n<Naho>Well then, let me check the size and shape of your penis.\nI'll measure the length and girth of your penis among other things...")
ShowMessageFace("",0,0,2,14)
ShowMessage("Naho slowly moves her finger.")
ShowMessage("My penis is stimulated by her onahole...")
ShowMessageFace("onaho_fc1",0,0,2,15)
ShowMessage("\\n<Naho>Measuring the elasticity of your skin, and diameter of all parts...\nI'll be done in a minute so please be patient~♪")
ShowMessageFace("",0,0,2,16)
ShowMessage("\\n<Luka>Aaah...Why, measuring...")
ShowMessageFace("onaho_fc1",0,0,2,17)
ShowMessage("\\n<Naho>Since I am a slime, I can freely change the shape of my onahole.\nI just want to prepare an onahole that's best suited for you.")
ShowMessageFace("onaho_fc1",0,0,2,18)
ShowMessage("\\n<Naho>Thus I have to carefully check your penis beforehand...\nMeasurement of size and shape complete, next is sensitivity level. ♪")
ShowMessageFace("",0,0,2,19)
ShowMessage("\\n<Luka>D-don't... Unnngh...!")
ShowMessageFace("",0,0,2,20)
ShowMessage("Naho moves her finger up and down.")
ShowMessage("My glans is rubbed by her soft folds...")
ShowMessageFace("onaho_fc1",0,0,2,21)
ShowMessage("\\n<Naho>I'll check where you're most sensitive, where it feels the best.\nIt's necessary to make the perfect onahole for you...")
ShowMessageFace("",0,0,2,22)
ShowMessage("\\n<Luka>That's...Hnnngh...!")
ShowMessageFace("onaho_fc1",0,0,2,23)
ShowMessage("\\n<Naho>Ufufu, it seems like the tip of the glans is where it feels best.\nThen I'll make it so it feels good when I pull back. ♪")
ShowMessageFace("",0,0,2,24)
ShowMessage("She moves the onahole up and down and I can feel greater pleasure when she pulls it up.")
ShowMessage("Her folds rub against my glans more pleasantly when pulling out...")
ShowMessageFace("onaho_fc1",0,0,2,25)
ShowMessage("\\n<Naho>Also, the feeling underneath.\nI'll make it so that is strokes your urethral opening. ♪")
ShowMessageFace("",0,0,2,26)
ShowMessage("\\n<Luka>Stop...Nnngh...")
ShowMessageFace("",0,0,2,27)
ShowMessage("An additional stimulation to my back muscle and urethral opening attacks me.")
ShowMessage("The feeling of her folds make my waist tremble.")
ShowMessageFace("",0,0,2,28)
ShowMessage("The gentle feeling of her folds makes my waist go numb.")
ShowMessage("If this stimulation keeps up, I really won't be able to hold back anymore...")
ShowMessageFace("onaho_fc1",0,0,2,29)
ShowMessage("\\n<Naho>Adjust this to massage the center of the shaft...\nWhat? Don't tell me, you're coming already?")
ShowMessageFace("",0,0,2,30)
ShowMessage("\\n<Luka>I'm coming...Nnngh...")
ShowMessageFace("onaho_fc1",0,0,2,31)
ShowMessage("\\n<Naho>Well, you can let it out now if you can't take it anymore.\nMany men come during the sensitivity measurement...♪")
ShowMessageFace("",0,0,2,32)
ShowMessage("While saying that, the Onahole Girl keeps stimulating each and every part of my penis.")
ShowMessage("She tightens around my shaft and entangles my glans with her folds.")
ShowMessageFace("onaho_fc1",0,0,2,33)
ShowMessage("\\n<Naho>The stimulation on the surface of the glans is better if it moves more...\n...Ah, you're almost there...")
ShowMessageFace("",0,0,2,34)
ShowMessage("\\n<Luka>C-coming...Aaaah...!!")
ShowMessageFace("",0,0,2,35)
ShowMessage("I entrust myself to the pleasure that attacks my glans.")
ShowMessage("Feeling the sense of release coming from my waist, my penis starts pulsating...")
RunCommonEvent(104)
PictureDisplay(5,"ev_onaho_ha2",0,0,0,0,100,100,255,0)
RunCommonEvent(105)
ShowMessageFace("",0,0,2,36)
ShowMessage("\\n<Luka>Nnngh...")
ShowMessageFace("",0,0,2,37)
ShowMessage("And, I come to a tragic finish.")
ShowMessage("My semen shoots inside Naho's finger.")
ShowMessageFace("onaho_fc1",0,0,2,38)
ShowMessage("\\n<Naho>...Yes, one dose of semen collected.\nThe sensitivity measurement of your penis is almost complete as well...♪")
PictureDisplay(5,"ev_onaho_ha3",0,0,0,0,100,100,255,0)
ShowMessageFace("onaho_fc1",0,0,2,39)
ShowMessage("\\n<Naho>Based on the data acquired, I will make a custom onahole.\nThe onahole tailored specifically for you will feel really good...♪")
ShowMessageFace("",0,0,2,40)
ShowMessage("\\n<Luka>Wh-what is...this...")
ShowMessageFace("",0,0,2,41)
ShowMessage("The shape of her finger changes instantly.")
ShowMessage("The position of the folds and internal structure changes rapidly...")
ShowMessageFace("onaho_fc1",0,0,2,42)
ShowMessage("\\n<Naho>Yes, success. ♪\nA specially made onahole, designed to make you taste heaven. ♪")
ShowMessageFace("",0,0,2,43)
ShowMessage("\\n<Luka>Ah, aaaah...!")
ShowMessageFace("",0,0,2,44)
ShowMessage("My penis is wrapped in a different sensation than before.")
ShowMessage("It's a perfect fit for my penis.")
ShowMessageFace("",0,0,2,45)
ShowMessage("And the carefully arranged folds...")
ShowMessage("They're specially designed to stimulate my penis.")
ShowMessageFace("onaho_fc1",0,0,2,46)
ShowMessage("\\n<Naho>This onahole knows all your weak spots.\nNow please taste plenty of pleasure. ♪")
ShowMessageFace("",0,0,2,47)
ShowMessage("Naho starts moving her finger up and down!")
ShowMessageFace("",0,0,2,48)
ShowMessage("\\n<Luka>Ah, Auuuu!!")
ShowMessageFace("",0,0,2,49)
ShowMessage("In the next moment, my vision goes pure white.")
ShowMessage("The stimulation from the folds and the tightness are heavenly.")
ShowMessageFace("",0,0,2,50)
ShowMessage("The entire length of my shaft is massaged and squeezed all the way down to the base...")
ShowMessage("And the stimulation on my glans is really intense.")
ShowMessageFace("",0,0,2,51)
ShowMessage("\\n<Luka>A-amazing...This is...\nAaaaaah!!")
ShowMessageFace("onaho_fc1",0,0,2,52)
ShowMessage("\\n<Naho>Ufufu, does my specially made onahole feel good?\nYou absolutely cannot resist this...♪")
ShowMessageFace("",0,0,2,53)
ShowMessage("Her folds lined up on the walls greet my glans.")
ShowMessage("They give a strong pleasure as they rub the glans and the neck of my penis.")
ShowMessageFace("",0,0,2,54)
ShowMessage("Both my back muscle and my urethral opening are stimulated as the soft folds knead my penis...")
ShowMessage("My male instincts quickly surrender to the pleasure.")
ShowMessageFace("",0,0,2,55)
ShowMessage("\\n<Luka>This is...I'm going to come...")
ShowMessageFace("",0,0,2,56)
ShowMessage("Unable to resist the pleasure attacking my glans, I surrender to it...")
RunCommonEvent(104)
PictureDisplay(5,"ev_onaho_ha4",0,0,0,0,100,100,255,0)
RunCommonEvent(105)
ShowMessageFace("",0,0,2,57)
ShowMessage("\\n<Luka>Ah, aaah...")
ShowMessageFace("",0,0,2,58)
ShowMessage("I come to another pitifully fast finish.")
ShowMessage("Once the stimulation started, I had no choice but to come...")
ShowMessageFace("onaho_fc1",0,0,2,59)
ShowMessage("\\n<Naho>Ufufu, you let it out...\nIt cannot be helped since this onahole was specifically tailored for your penis.")
ShowMessageFace("onaho_fc1",0,0,2,60)
ShowMessage("\\n<Naho>Hora hora, I need to collect more semen.\nEjaculate in the onahole as many times as you'd like. ♪")
ShowMessageFace("",0,0,2,61)
ShowMessage("\\n<Luka>Ngh... Aaaah...!")
ShowMessageFace("",0,0,2,62)
ShowMessage("Naho mercilessly moves her finger.")
ShowMessage("Every time the onahole moves up and down, the inner walls stimulate my penis as soon as it enters.")
ShowMessageFace("onaho_fc1",0,0,2,63)
ShowMessage("\\n<Naho>Fufu, how is it...?")
ShowMessageFace("",0,0,2,64)
ShowMessage("On top of that, Naho bends her finger...")
ShowMessage("The inner wall changes and forms a different structure than before.")
ShowMessageFace("",0,0,2,65)
ShowMessage("The unique tightness and feeling that the neck of my penis is bended...")
ShowMessageFace("",0,0,2,66)
ShowMessage("\\n<Luka>N-noooo... Aaaah...!")
RunCommonEvent(104)
RunCommonEvent(105)
ShowMessageFace("",0,0,2,67)
ShowMessage("I can't endure this crazy pleasure and come.")
ShowMessage("A large amount of semen flows inside the onahole...")
ShowMessageFace("onaho_fc1",0,0,2,68)
ShowMessage("\\n<Naho>Ufufu, you came already...♪\nWasn't that a little too soon?")
ShowMessageFace("onaho_fc1",0,0,2,69)
ShowMessage("\\n<Naho>Right, so if I do this...\nYou'll come in no time...♪")
ShowMessageFace("",0,0,2,70)
ShowMessage("Naho bends her finger.")
ShowMessage("Every time the onahole tilts, my glans is crushed.")
ShowMessageFace("",0,0,2,71)
ShowMessage("Every time my glans is crushed the folds intertwine, providing further stimulation...")
ShowMessage("The pleasure I feel is heavenly.")
ShowMessageFace("",0,0,2,72)
ShowMessage("\\n<Luka>A-amazing...Ah, aaaah...!")
RunCommonEvent(104)
RunCommonEvent(105)
ShowMessageFace("onaho_fc1",0,0,2,73)
ShowMessage("\\n<Naho>Ufufu, he came again. ♪")
ShowMessageFace("",0,0,2,74)
ShowMessage("I ejaculate again while being played with the onahole.")
ShowMessage("I can't resist the stimulation given by the onahole specially designed for me.")
ShowMessageFace("",0,0,2,75)
ShowMessage("The semen I shot out will probably used for experiments...")
ShowMessage("Even though I'm in such a pathetic situation, I can't hold myself back from ejaculating.")
ShowMessageFace("onaho_fc1",0,0,2,76)
ShowMessage("\\n<Naho>Hora hora, let out more...♪\nFufu, does this also feel good?")
ShowMessageFace("",0,0,2,77)
ShowMessage("\\n<Luka>Ahii...! Aaaah...!!")
RunCommonEvent(104)
RunCommonEvent(105)
ShowMessageFace("onaho_fc1",0,0,2,78)
ShowMessage("\\n<Naho>Hoo~ra, how about this?\nIf I stimulate your back muscle, will you come even faster...?")
ShowMessageFace("",0,0,2,79)
ShowMessage("\\n<Luka>Hyaaaa!!")
RunCommonEvent(104)
RunCommonEvent(105)
221()
PictureClear(5)
246(2)
ShowMessageFace("",0,0,2,80)
ShowMessage("I was forced to ejaculate over and over, having my semen squeezed out.")
ShowMessage("After losing count of how many times I came, I finally lose consciousness.")
ShowMessageFace("",0,0,2,81)
ShowMessage("......")
242(2)
Wait(120)
241(bytes(0x04,0x08,0x6f,0x3a,0x0d,0x52,0x50,0x47,0x3a,0x3a,0x42,0x47,0x4d,0x08,0x3a,0x0a,0x40,0x6e,0x61,0x6d,0x65,0x49,0x22,0x0c,0x63,0x61,0x73,0x74,0x6c,0x65,0x36,0x06,0x3a,0x06,0x45,0x54,0x3a,0x0c,0x40,0x76,0x6f,0x6c,0x75,0x6d,0x65,0x69,0x69,0x3a,0x0b,0x40,0x70,0x69,0x74,0x63,0x68,0x69,0x69))
0()
