// EVENT 4052
Name "Sonya 2"

If(0,25,1)
 221()
 PictureClear(5)
 PictureClear(6)
 ShowMessageFace("",0,0,2,0)
 ShowMessage("......")
 242(2)
 Wait(120)
 241(bytes(0x04,0x08,0x6f,0x3a,0x0d,0x52,0x50,0x47,0x3a,0x3a,0x42,0x47,0x4d,0x08,0x3a,0x0a,0x40,0x6e,0x61,0x6d,0x65,0x49,0x22,0x0c,0x63,0x61,0x73,0x74,0x6c,0x65,0x36,0x06,0x3a,0x06,0x45,0x54,0x3a,0x0c,0x40,0x76,0x6f,0x6c,0x75,0x6d,0x65,0x69,0x69,0x3a,0x0b,0x40,0x70,0x69,0x74,0x63,0x68,0x69,0x69))
 EndEventProcessing()
 0()
EndIf()
PictureDisplay(5,"80_sonia_m1_st08",0,0,0,0,100,100,255,0)
ShowMessageFace("sonia_fc1",0,0,2,1)
ShowMessage("\\n<Sonya>Hmm? Luka, what's wrong?")
ShowMessageFace("",0,0,2,2)
ShowMessage("\\n<Luka>Sonya, you know...")
ShowMessageFace("sonia_fc1",3,0,2,3)
ShowMessage("\\n<Sonya>Oh, yeah... I get it. Why don't you come to my room, then?")
ShowMessageFace("",0,0,2,4)
ShowMessage("Thus, I'm lead to Sonya's room.")
221()
PictureDisplay(1,"bg195",0,0,0,0,100,100,255,0)
PictureDisplay(5,"ev_sonia_hb01",0,0,0,0,100,100,255,0)
222()
241(bytes(0x04,0x08,0x6f,0x3a,0x0d,0x52,0x50,0x47,0x3a,0x3a,0x42,0x47,0x4d,0x08,0x3a,0x0a,0x40,0x6e,0x61,0x6d,0x65,0x49,0x22,0x09,0x65,0x72,0x6f,0x31,0x06,0x3a,0x06,0x45,0x54,0x3a,0x0c,0x40,0x76,0x6f,0x6c,0x75,0x6d,0x65,0x69,0x69,0x3a,0x0b,0x40,0x70,0x69,0x74,0x63,0x68,0x69,0x69))
ShowMessageFace("sonia_fc1",2,0,2,5)
ShowMessage("\\n<Sonya>Geez... how are you still covered in skin? Luka, didn't I tell you to do some exercises to fix this?")
ShowMessageFace("",0,0,2,6)
ShowMessage("\\n<Luka>Ah, Ohhh...")
ShowMessageFace("",0,0,2,7)
ShowMessage("The moment I enter her room, Sonya pulls my dick out and puts it in her mouth. She pulls away at the excess skin and plays with it on her lips...")
ShowMessageFace("sonia_fc1",2,0,2,8)
ShowMessage("\\n<Sonya>You didn't even pull the skin back before coming to me. Sigh, I guess I'll have to play with it then. ♪")
245(bytes(0x04,0x08,0x6f,0x3a,0x0d,0x52,0x50,0x47,0x3a,0x3a,0x42,0x47,0x53,0x08,0x3a,0x0a,0x40,0x6e,0x61,0x6d,0x65,0x49,0x22,0x10,0x6d,0x6f,0x6e,0x5f,0x68,0x76,0x6f,0x69,0x63,0x65,0x32,0x06,0x3a,0x06,0x45,0x54,0x3a,0x0c,0x40,0x76,0x6f,0x6c,0x75,0x6d,0x65,0x69,0x55,0x3a,0x0b,0x40,0x70,0x69,0x74,0x63,0x68,0x69,0x69))
PictureDisplay(5,"ev_sonia_hb02",0,0,0,0,100,100,255,0)
ShowMessageFace("sonia_fc1",2,0,2,9)
ShowMessage("\\n<Sonya>Mmmn... *lick*")
ShowMessageFace("",0,0,2,10)
ShowMessage("The tip of Sonya's tongue slips under the skin, licking the sensitive part of my glans.")
ShowMessageFace("",0,0,2,11)
ShowMessage("\\n<Luka>A-Ahh!")
ShowMessageFace("sonia_fc1",2,0,2,12)
ShowMessage("\\n<Sonya>It feels good when I twist my tongue around in here when you're still covered in foreskin, doesn't it?")
ShowMessageFace("sonia_fc1",2,0,2,13)
ShowMessage("\\n<Sonya>Ahh...lalala...")
PictureDisplay(5,"ev_sonia_hb03",0,0,0,0,100,100,255,0)
ShowMessageFace("",0,0,2,14)
ShowMessage("Her tongue delves in deeper, soaking every inch of my tip as she licks me from all sides underneath the foreskin.")
ShowMessageFace("",0,0,2,15)
ShowMessage("The sensation of her tongue creeping around is ticklish, but pleasant. Soon, I begin to feel overwhelmed and can't resist much longer...")
ShowMessageFace("",0,0,2,16)
ShowMessage("\\n<Luka>Oh... W-Whoa...")
ShowMessageFace("sonia_fc1",2,0,2,17)
ShowMessage("\\n<Sonya>Juu... Just a bit more... Luka, it smells inside...")
ShowMessageFace("sonia_fc1",2,0,2,18)
ShowMessage("\\n<Sonya>I'm very brave to clean this with just my tongue... *lick* *lick*")
ShowMessageFace("",0,0,2,19)
ShowMessage("\\n<Luka>Sonya, I didn't ask you to do that...")
PictureDisplay(5,"ev_sonia_hb04",0,0,0,0,100,100,255,0)
ShowMessageFace("sonia_fc1",2,0,2,20)
ShowMessage("\\n<Sonya>What, are you trying to blame me for this? Ahhh... *lick* *slurrrrp*")
ShowMessageFace("",0,0,2,21)
ShowMessage("\\n<Luka>Ah! Ayaaaa...")
ShowMessageFace("",0,0,2,22)
ShowMessage("Sonya wiggles her tongue under my foreskin. Saliva builds up and covers my penis, and I shudder from the pleasure.")
ShowMessageFace("sonia_fc1",2,0,2,23)
ShowMessage("\\n<Sonya>I'm going to make you come inside your own foreskin as punishment for talking back to me.")
ShowMessageFace("sonia_fc1",2,0,2,24)
ShowMessage("\\n<Sonya>*lick* *lick* *slurp*")
ShowMessageFace("",0,0,2,25)
ShowMessage("\\n<Luka>This is... Ah-Ayah...")
ShowMessageFace("",0,0,2,26)
ShowMessage("Her tongue rides along the tip again and again. The feeling of her tongue under the skin gives me a unique sensation of pleasure.")
ShowMessageFace("",0,0,2,27)
ShowMessage("She's avoiding peeling back the skin, and deliberately torturing the head underneath. Her technique is quickly sending me towards the edge.")
ShowMessageFace("",0,0,2,28)
ShowMessage("\\n<Luka>Sonya! I'll come if you keep going!")
ShowMessageFace("sonia_fc1",2,0,2,29)
ShowMessage("\\n<Sonya>Mmmngh... Hurry up and come then!")
ShowMessageFace("sonia_fc1",2,0,2,30)
ShowMessage("\\n<Sonya>Pour it out under your skin in shame... *lick* *lick*")
ShowMessageFace("",0,0,2,31)
ShowMessage("\\n<Luka>Ah, no! A-ahhh!")
ShowMessageFace("",0,0,2,32)
ShowMessage("She rubs her tongue over the undersides and into my urethra. That pushes me over the edge. It's too good to hold back any longer!")
RunCommonEvent(104)
PictureDisplay(5,"ev_sonia_hb05",0,0,0,0,100,100,255,0)
RunCommonEvent(105)
ShowMessageFace("sonia_fc1",2,0,2,33)
ShowMessage("\\n<Sonya>Hm-Mmmm...")
ShowMessageFace("",0,0,2,34)
ShowMessage("My penis pulsates as the semen forces its way from under the foreskin and covers her tongue and lips.")
ShowMessageFace("",0,0,2,35)
ShowMessage("A humiliating amount of semen is stuck under the skin, though.")
PictureDisplay(5,"ev_sonia_hb06",0,0,0,0,100,100,255,0)
ShowMessageFace("sonia_fc1",2,0,2,36)
ShowMessage("\\n<Sonya>Haha, I made you come with the skin still on... Hey Luka, aren't you embarrassed?")
ShowMessageFace("sonia_fc1",2,0,2,37)
ShowMessage("\\n<Sonya>Coming inside your own skin in front of your childhood friend. That's so sad! ♪")
ShowMessageFace("",0,0,2,38)
ShowMessage("\\n<Luka>......")
ShowMessageFace("sonia_fc1",2,0,2,39)
ShowMessage("\\n<Sonya>Hora, come out and play, Mr. Turtle... This time I'll get you at the source!")
ShowMessageFace("",0,0,2,40)
ShowMessage("\\n<Luka>Aaah...")
ShowMessageFace("",0,0,2,41)
ShowMessage("Sonya forces back the remaining skin. Now, I'm completely exposed to my childhood friend...")
ShowMessageFace("sonia_fc1",2,0,2,42)
ShowMessage("\\n<Sonya>There we go, all off. Hello there, little guy. ♪\nSo, now that I've got you completely uncovered...")
ShowMessageFace("",0,0,2,43)
ShowMessage("\\n<Luka>Wha- there's more?")
ShowMessageFace("sonia_fc1",2,0,2,44)
ShowMessage("\\n<Sonya>Of course. I must suck it until the last drop comes out. If your semen builds up too much, it's easier for the monster girls to seduce you...")
ShowMessageFace("sonia_fc1",1,0,2,45)
ShowMessage("\\n<Sonya>Don't get me wrong, though. I'm not doing this to make you feel good. All I'm doing is taking care of your extra semen for you...")
ShowMessageFace("",0,0,2,46)
ShowMessage("\\n<Luka>Y-you're crazy...")
ShowMessageFace("sonia_fc1",2,0,2,47)
ShowMessage("\\n<Sonya>Are you ready then? Well, here I go...")
PictureDisplay(5,"ev_sonia_hb07",0,0,0,0,100,100,255,0)
ShowMessageFace("sonia_fc1",2,0,2,48)
ShowMessage("\\n<Sonya>Mmmn... Ahh. ♪")
ShowMessageFace("",0,0,2,49)
ShowMessage("Sonya catches the exposed tip in her mouth. No, it's more like she sucked it in.")
ShowMessageFace("",0,0,2,50)
ShowMessage("\\n<Luka>Ah, aaah!")
ShowMessageFace("sonia_fc1",2,0,2,51)
ShowMessage("\\n<Sonya>Mmmn... fufufu ♪\nAre you more sensitive since you just came?")
ShowMessageFace("sonia_fc1",2,0,2,52)
ShowMessage("\\n<Sonya>Is this too much? Should I slow down? Well... slowly then... slowly...")
ShowMessageFace("",0,0,2,53)
ShowMessage("Her lips, soft and wet with saliva, move back and forth slowly.")
ShowMessageFace("",0,0,2,54)
ShowMessage("She covers my cock in warm, wet saliva. The gentle sliding motion of her lips feels amazing.")
ShowMessageFace("",0,0,2,55)
ShowMessage("\\n<Luka>O-oh...")
ShowMessageFace("sonia_fc1",2,0,2,56)
ShowMessage("\\n<Sonya>Taking it slow feels good, doesn't it? I've become an expert at pleasing your dick.")
ShowMessageFace("sonia_fc1",2,0,2,57)
ShowMessage("\\n<Sonya>But you won't get to enjoy this for too much longer... Are you ready for me to make you come again?")
PictureDisplay(5,"ev_sonia_hb08",0,0,0,0,100,100,255,0)
ShowMessageFace("sonia_fc1",2,0,2,58)
ShowMessage("\\n<Sonya>Mmmn... Sssspst... Chp.... Nmmmph...")
ShowMessageFace("",0,0,2,59)
ShowMessage("\\n<Luka>A-aahh...!")
ShowMessageFace("",0,0,2,60)
ShowMessage("She uses her cheeks and mouth to form a suction over my penis. Meanwhile, her tongue dances around the head, swirling her saliva around it...")
ShowMessageFace("sonia_fc1",2,0,2,61)
ShowMessage("\\n<Sonya>Mmmmchp, ssspppst... I'm good, aren't I?")
ShowMessageFace("sonia_fc1",2,0,2,62)
ShowMessage("\\n<Sonya>So, how does this make you feel? My lips and tongue are all over your dick...")
ShowMessageFace("sonia_fc1",2,0,2,63)
ShowMessage("\\n<Sonya>Mmmn... Sssspst... Chp....")
ShowMessageFace("",0,0,2,64)
ShowMessage("\\n<Luka>A-a-aah! A-amazing!")
ShowMessageFace("",0,0,2,65)
ShowMessage("With each sweet stroke, my entire penis is exposed to her oral stimulation. Her warm, sticky blowjob is enough to make me surrender to her--")
ShowMessageFace("sonia_fc1",2,0,2,66)
ShowMessage("\\n<Sonya>Ahaha, Luka, you'd die if you could see the look on your face right now. Should I go ahead and make you look even more pitiful?")
ShowMessageFace("",0,0,2,67)
ShowMessage("\\n<Luka>Eh...?")
PictureDisplay(5,"ev_sonia_hb09",0,0,0,0,100,100,255,0)
ShowMessageFace("sonia_fc1",2,0,2,68)
ShowMessage("\\n<Sonya>*suuuuck*")
ShowMessageFace("",0,0,2,69)
ShowMessage("\\n<Luka>Ah... Aaaaahh!")
ShowMessageFace("",0,0,2,70)
ShowMessage("Sonya suddenly begins sucking hard on the tip! Her lips are wrapped among my manhood as she attempts to suck it dry.")
ShowMessageFace("",0,0,2,71)
ShowMessage("Her intense vacuum-like sucking on my glans causes me to writhe involuntarily as I get closer to coming.")
ShowMessageFace("sonia_fc1",2,0,2,72)
ShowMessage("\\n<Sonya>Haha, instant results! ♪\nThere's no way your tip can withstand this.")
ShowMessageFace("sonia_fc1",2,0,2,73)
ShowMessage("\\n<Sonya>This is my newest technique. I call it Turtle Head Torture...♪ Now let me taste your cum...")
ShowMessageFace("sonia_fc1",2,0,2,74)
ShowMessage("\\n<Sonya>Mmmmchp, ssspppst!")
ShowMessageFace("",0,0,2,75)
ShowMessage("\\n<Luka>H-ah. A-Aaaah!")
ShowMessageFace("",0,0,2,76)
ShowMessage("The intense suction continues, as if she's trying to suck the semen directly out of my balls by force...")
ShowMessageFace("sonia_fc1",2,0,2,77)
ShowMessage("\\n<Sonya>Sssspst... How much longer? You can't endure this, can you? I already learned you don't last very long...")
ShowMessageFace("sonia_fc1",2,0,2,78)
ShowMessage("\\n<Sonya>Hora, come! Chp... chhpppp!!")
ShowMessageFace("",0,0,2,79)
ShowMessage("\\n<Luka>N-no.... Y-Yes, I'm coming!")
ShowMessageFace("",0,0,2,80)
ShowMessage("The pressure suddenly increases, and my semen is sucked out...")
RunCommonEvent(104)
PictureDisplay(5,"ev_sonia_hb10",0,0,0,0,100,100,255,0)
RunCommonEvent(105)
ShowMessageFace("",0,0,2,81)
ShowMessage("\\n<Luka>Aaah...")
ShowMessageFace("",0,0,2,82)
ShowMessage("I finally shoot out a load, succumbing to Sonya's sucking power.")
ShowMessageFace("sonia_fc1",2,0,2,83)
ShowMessage("\\n<Sonya>Hm-hmmp...♪\nLook, you completely filled my mouth! ♪")
ShowMessageFace("",0,0,2,84)
ShowMessage("Even though semen hangs from her nose and mouth, Sonya doesn't release my pulsating member. On the contrary...")
ShowMessageFace("sonia_fc1",2,0,2,85)
ShowMessage("\\n<Sonya>Like I said, we must thoroughly extract all of your semen, Luka....")
PictureDisplay(5,"ev_sonia_hb11",0,0,0,0,100,100,255,0)
ShowMessageFace("sonia_fc1",2,0,2,86)
ShowMessage("\\n<Sonya>It's time to really get serious!\nMmmnchp, ssspsst!!")
ShowMessageFace("",0,0,2,87)
ShowMessage("\\n<Luka>A-Aaaaaah!")
ShowMessageFace("",0,0,2,88)
ShowMessage("Sonya renews her sucking with great force. It's a testament to her training and lung capacity that she can even suck this hard...")
ShowMessageFace("",0,0,2,89)
ShowMessage("Considering how sensitive I still am right after coming, she's torturing me with her intense stimulation.")
ShowMessageFace("",0,0,2,90)
ShowMessage("\\n<Luka>H-hey, stop! Aya! A-Ahhhh!")
ShowMessageFace("sonia_fc1",2,0,2,91)
ShowMessage("\\n<Sonya>Mmmmngh, ssspst, mmmchp!!")
ShowMessageFace("",0,0,2,92)
ShowMessage("With it already weakened from multiple ejaculations, her vacuum pressure heaps further abuse on my penis.")
ShowMessageFace("",0,0,2,93)
ShowMessage("\\n<Luka>A-Aah! I'm gonna come again! I'm g-gonna!")
ShowMessageFace("sonia_fc1",2,0,2,94)
ShowMessage("\\n<Sonya>Mmmm... *suuuuck*!")
RunCommonEvent(104)
PictureDisplay(5,"ev_sonia_hb13",0,0,0,0,100,100,255,0)
RunCommonEvent(105)
ShowMessageFace("",0,0,2,95)
ShowMessage("My semen erupts as Sonya continues to suck. An unbelievable amount of it rushes into her mouth.")
ShowMessageFace("sonia_fc1",2,0,2,96)
ShowMessage("\\n<Sonya>Mmmmmmngh! Too... too much...\nSsspsst *gulp* *gulp*...")
ShowMessageFace("",0,0,2,97)
ShowMessage("\\n<Luka>Huaaaaa... That's what happens when you suck so hard.")
ShowMessageFace("sonia_fc1",2,0,2,98)
ShowMessage("\\n<Sonya>Mmmmchp *gulp* *gulp*.")
ShowMessageFace("",0,0,2,99)
ShowMessage("As I'm still coming, Sonya licks it all up into her mouth - and then swallows.")
PictureDisplay(5,"ev_sonia_hb14",0,0,0,0,100,100,255,0)
ShowMessageFace("sonia_fc1",2,0,2,100)
ShowMessage("\\n<Sonya>Fufufu, how was it? Did you give me all of it??")
ShowMessageFace("",0,0,2,101)
ShowMessage("\\n<Luka>I can't come anymore...")
ShowMessageFace("sonia_fc1",2,0,2,102)
ShowMessage("\\n<Sonya>Really? Well, let me make sure...")
PictureDisplay(5,"ev_sonia_hb15",0,0,0,0,100,100,255,0)
ShowMessageFace("",0,0,2,103)
ShowMessage("\\n<Luka>Wha-? Ah-ahhh!")
ShowMessageFace("sonia_fc1",2,0,2,104)
ShowMessage("\\n<Sonya>Mmmmchp, ssspppst!")
ShowMessageFace("",0,0,2,105)
ShowMessage("Suddenly, she resumes her intense sucking assault as if attempting to deliver the finishing blow to my already exhausted manhood!")
ShowMessageFace("",0,0,2,106)
ShowMessage("\\n<Luka>Huah! Why are you still going...")
ShowMessageFace("sonia_fc1",2,0,2,107)
ShowMessage("\\n<Sonya>I told you I have to get all the semen, Luka. I have to check if there is any more left... Mmmchp...")
ShowMessageFace("sonia_fc1",2,0,2,108)
ShowMessage("\\n<Sonya>Sssspst... Mmmmspsst!!")
ShowMessageFace("",0,0,2,109)
ShowMessage("Her ruthless suction continues, somehow feeling even stronger than before. Her mouth thoroughly and ruthlessly wears me down.")
ShowMessageFace("",0,0,2,110)
ShowMessage("\\n<Luka>Ah... Ayah!")
RunCommonEvent(104)
PictureDisplay(5,"ev_sonia_hb16",0,0,0,0,100,100,255,0)
RunCommonEvent(105)
ShowMessageFace("",0,0,2,111)
ShowMessage("She forces me to come again... Now I've lost count at how many times it's been. My semen leaks out of Sonya's mouth.")
ShowMessageFace("sonia_fc1",2,0,2,112)
ShowMessage("\\n<Sonya>Mmmmngh... So there was more left! Sssspst, mmmmchp!")
ShowMessageFace("",0,0,2,113)
ShowMessage("\\n<Luka>Aaaah! Hauu!")
ShowMessageFace("",0,0,2,114)
ShowMessage("I writhe under the stimulation as she sucks out the remaining liquid. With one final, drawn-out suck on my urethra, she finally releases me from her mouth.")
PictureDisplay(5,"ev_sonia_hb17",0,0,0,0,100,100,255,0)
ShowMessageFace("sonia_fc1",2,0,2,115)
ShowMessage("\\n<Sonya>Fufufu, I sucked out every last drop for you! ♪\nNow you'll be able to avoid doing anything naughty, right?")
ShowMessageFace("",0,0,2,116)
ShowMessage("\\n<Luka>......")
ShowMessageFace("",0,0,2,117)
ShowMessage("The penile abuse exhausted both my mind and body. I'm dead tired, the exact opposite of Sonya who appears highly satisfied.")
PictureDisplay(5,"ev_sonia_hb18",0,0,0,0,100,100,255,0)
ShowMessageFace("sonia_fc1",2,0,2,118)
ShowMessage("\\n<Sonya>Hora... Luka, you had so much semen saved up. What would have happened if I hadn't gotten it out?")
ShowMessageFace("",0,0,2,119)
ShowMessage("Sonya sticks out her tongue and shows me the milky white substance that coats her mouth and lips.")
ShowMessageFace("sonia_fc1",2,0,2,120)
ShowMessage("\\n<Sonya>You should thank me for helping you deal with this, you know.\nMmm *gulp*.")
PictureDisplay(5,"ev_sonia_hb19",0,0,0,0,100,100,255,0)
ShowMessageFace("",0,0,2,121)
ShowMessage("Sonya closes her mouth and swallows the remaining semen in her mouth then licks off the remaining mess from the tip of my penis.")
ShowMessageFace("sonia_fc1",2,0,2,122)
ShowMessage("\\n<Sonya>Here, I'll put the skin back in place... That's it for today. If you build up any more semen, come tell me so I can take care of it!")
ShowMessageFace("",0,0,2,123)
ShowMessage("\\n<Luka>......")
ShowMessageFace("",0,0,2,124)
ShowMessage("I'm so weak from the experience that I can barely stand. Should I actually trust my childhood friend with my cock again after this...?")
221()
PictureClear(5)
246(2)
ShowMessageFace("",0,0,2,125)
ShowMessage("......")
242(2)
Wait(120)
241(bytes(0x04,0x08,0x6f,0x3a,0x0d,0x52,0x50,0x47,0x3a,0x3a,0x42,0x47,0x4d,0x08,0x3a,0x0a,0x40,0x6e,0x61,0x6d,0x65,0x49,0x22,0x0c,0x63,0x61,0x73,0x74,0x6c,0x65,0x36,0x06,0x3a,0x06,0x45,0x54,0x3a,0x0c,0x40,0x76,0x6f,0x6c,0x75,0x6d,0x65,0x69,0x69,0x3a,0x0b,0x40,0x70,0x69,0x74,0x63,0x68,0x69,0x69))
0()
