﻿// EVENT 0629
Name "Event: Mandragora"

ChangeSwitch(73,73,0)
If(1,129,0,0,0)
 ShowMessageFace("mdg_fc1",0,0,2,1)
 ShowMessage("\\n<Mandragora>There must be a reason for us to meet here by chance. I'll teach you my signature move, \"Mandragora Scream\".")
 ShowMessageFace("mdg_fc1",0,0,2,2)
 ShowMessage("\\n<Mandragora>However, this is a [Plant] skill...\nSo it'll be useless unless you can use them.")
 ShowChoices(strings("Receive lesson","No thanks"),0)
 IfPlayerPicksChoice(0,"伝授してもらう")
  ShowMessageFace("",0,0,2,3)
  ShowMessage("Who will learn Mandragora Scream?")
  DefineLabel("選択")
  355("names = party_members.collect{|m|m.name}")
  655("unlimited_choices(11, names)")
  655("actor = party_members[$game_variables[11]]")
  655("$game_variables[10] = actor ? actor.id : 0")
  If(1,10,0,0,0)
   ChangeSwitch(73,73,1)
   EndEventProcessing()
   0()
  EndIf()
  If(12,"actor_skill_have?(v(10),2930)")
   ShowMessageFace("",0,0,2,4)
   ShowMessage("That character already knows Mandragora Scream...")
   JumpToLabel("選択")
   0()
  EndIf()
  ChangeVariable(129,129,0,0,1)
  318(1,10,0,2930)
  250(bytes(0x04,0x08,0x6f,0x3a,0x0c,0x52,0x50,0x47,0x3a,0x3a,0x53,0x45,0x08,0x3a,0x0a,0x40,0x6e,0x61,0x6d,0x65,0x49,0x22,0x0a,0x49,0x74,0x65,0x6d,0x31,0x06,0x3a,0x06,0x45,0x54,0x3a,0x0b,0x40,0x70,0x69,0x74,0x63,0x68,0x69,0x69,0x3a,0x0c,0x40,0x76,0x6f,0x6c,0x75,0x6d,0x65,0x69,0x55))
  ShowMessageFace("",0,0,2,5)
  ShowMessage("You learned \\I[3355]\\C[1]Mandragora Scream\\C[0]!")
  ChangeSwitch(73,73,1)
  EndEventProcessing()
  0()
 IfPlayerPicksChoice(1,"必要ない")
  ShowMessageFace("mdg_fc1",2,0,2,6)
  ShowMessage("\\n<Mandragora>")
  ShowMessage("I ya a a a a a a ! ! !")
  250(bytes(0x04,0x08,0x6f,0x3a,0x0c,0x52,0x50,0x47,0x3a,0x3a,0x53,0x45,0x08,0x3a,0x0a,0x40,0x6e,0x61,0x6d,0x65,0x49,0x22,0x0e,0x50,0x61,0x72,0x61,0x6c,0x79,0x7a,0x65,0x33,0x06,0x3a,0x06,0x45,0x54,0x3a,0x0b,0x40,0x70,0x69,0x74,0x63,0x68,0x69,0x69,0x3a,0x0c,0x40,0x76,0x6f,0x6c,0x75,0x6d,0x65,0x69,0x55))
  313(0,1,0,12)
  ShowMessageFace("",0,0,2,7)
  ShowMessage("Luka has been paralyzed!")
  ChangeSwitch(73,73,1)
  EndEventProcessing()
  0()
 404()
 0()
EndIf()
If(1,129,0,1,0)
 ShowMessageFace("mdg_fc1",0,0,2,8)
 ShowMessage("\\n<Mandragora>That's all for today.\nI'd like to bury myself soon...")
 ChangeSwitch(73,73,1)
 EndEventProcessing()
 0()
EndIf()
0()
