// EVENT 2027
Name "Seduction: Harpy Sisters"

If(0,25,1)
 EndEventProcessing()
 0()
EndIf()
355("$game_troop.lose_event_id = 3027")
ChangeVariable(26,26,0,3,3,1,4)
ChangeVariable(26,26,4,0,10)
ShowMessageFace("hapy_bc_fc1",2,0,2,1)
ShowMessage("\\n<Older Harpy>Please don't bully Pii any more...")
ShowMessageFace("hapy_bc_fc1",2,0,2,2)
ShowMessage("\\n<Younger Harpy>Big sis...")
ShowMessageFace("hapy_bc_fc1",2,0,2,3)
ShowMessage("\\n<Older Harpy>Whatever happens to me...\nPlease don't lay a hand on Pii... Please?")
ShowMessageFace("",0,0,2,4)
ShowMessage("The older harpy sister gives up.")
ShowMessage("She spreads her legs, exposing herself...")
ChangeSwitch(98,98,0)
ChangeSwitch(96,96,0)
ShowChoices(strings("Ignore her","Give in to temptation"),1)
IfPlayerPicksChoice(0,"Ignore her")
 ShowMessageFace("",0,0,2,5)
 ShowMessage("Luka resists her temptation!")
 RunCommonEvent(1999)
 EndEventProcessing()
 0()
IfPlayerPicksChoice(1,"誘惑に乗る")
 0()
404()
ShowMessageFace("",0,0,2,6)
ShowMessage("Invited, Luka brings his penis to her entrance!")
ShowMessageFace("hapy_bc_fc1",4,0,2,7)
ShowMessage("\\n<Older Harpy>Ahaha, I caught you. ♪")
ChangeVariable(26,26,3,0,3)
250(bytes(0x04,0x08,0x6f,0x3a,0x0c,0x52,0x50,0x47,0x3a,0x3a,0x53,0x45,0x08,0x3a,0x0a,0x40,0x6e,0x61,0x6d,0x65,0x49,0x22,0x11,0x6d,0x6f,0x6e,0x5f,0x65,0x72,0x6f,0x5f,0x70,0x79,0x75,0x31,0x06,0x3a,0x06,0x45,0x54,0x3a,0x0b,0x40,0x70,0x69,0x74,0x63,0x68,0x69,0x69,0x3a,0x0c,0x40,0x76,0x6f,0x6c,0x75,0x6d,0x65,0x69,0x69))
PictureDisplay(5,"ev_hapy_bc_ct11",0,0,0,0,100,100,255,0)
311(0,1,1,1,26,true)
ShowMessageFace("",0,0,2,8)
ShowMessage("The older sister quickly reverses the position, and presses Luka down!")
ShowMessage("Stuck inside her, Luka is being raped!\\D")
ShowMessage("Luka takes \\V[26] damage!")
ChangeVariable(27,27,0,3,3,1,2)
If(1,27,0,0,0)
 JumpToLabel("射精1")
 0()
EndIf()
ShowMessageFace("",0,0,2,9)
ShowMessage("\\n<Luka>N-no...!")
ShowMessageFace("hapy_bc_fc1",5,0,2,10)
ShowMessage("\\n<Younger Harpy>He must be really stupid to be tricked by big sis...")
ShowMessageFace("hapy_bc_fc1",4,0,2,11)
ShowMessage("\\n<Older Harpy>Fufu, he can't help it.\nI'll still make it feel good for him though.")
250(bytes(0x04,0x08,0x6f,0x3a,0x0c,0x52,0x50,0x47,0x3a,0x3a,0x53,0x45,0x08,0x3a,0x0a,0x40,0x6e,0x61,0x6d,0x65,0x49,0x22,0x11,0x6d,0x6f,0x6e,0x5f,0x65,0x72,0x6f,0x5f,0x70,0x79,0x75,0x31,0x06,0x3a,0x06,0x45,0x54,0x3a,0x0b,0x40,0x70,0x69,0x74,0x63,0x68,0x69,0x69,0x3a,0x0c,0x40,0x76,0x6f,0x6c,0x75,0x6d,0x65,0x69,0x69))
PictureDisplay(5,"ev_hapy_bc_ct12",0,0,0,0,100,100,255,0)
311(0,1,1,1,26,true)
ShowMessageFace("",0,0,2,12)
ShowMessage("The older sister starts moving up and down in a piston movement!")
ShowMessage("Her soft vagina forces pleasure into Luka!\\D")
ShowMessage("Luka takes \\V[26] damage!")
ChangeVariable(27,27,0,3,3,1,2)
If(1,27,0,0,0)
 JumpToLabel("射精2")
 0()
EndIf()
ShowMessageFace("hapy_bc_fc1",4,0,2,13)
ShowMessage("\\n<Older Harpy>Well? Is it good?\nFeel free to come inside...♪")
250(bytes(0x04,0x08,0x6f,0x3a,0x0c,0x52,0x50,0x47,0x3a,0x3a,0x53,0x45,0x08,0x3a,0x0a,0x40,0x6e,0x61,0x6d,0x65,0x49,0x22,0x11,0x6d,0x6f,0x6e,0x5f,0x65,0x72,0x6f,0x5f,0x70,0x79,0x75,0x31,0x06,0x3a,0x06,0x45,0x54,0x3a,0x0b,0x40,0x70,0x69,0x74,0x63,0x68,0x69,0x69,0x3a,0x0c,0x40,0x76,0x6f,0x6c,0x75,0x6d,0x65,0x69,0x69))
311(0,1,1,1,26,true)
ShowMessageFace("",0,0,2,14)
ShowMessage("The older sister bounces up and down!")
ShowMessage("Every motion brings unbearable pleasure!\\D")
ShowMessage("Luka takes \\V[26] damage!")
ChangeVariable(27,27,0,3,3,1,2)
If(1,27,0,0,0)
 JumpToLabel("射精2")
 0()
EndIf()
ShowMessageFace("hapy_bc_fc1",4,0,2,15)
ShowMessage("\\n<Older Harpy>Hora, you're going to come soon, right?\nPii, make sure to watch carefully. ♪")
ShowMessageFace("hapy_bc_fc1",5,0,2,16)
ShowMessage("\\n<Younger Harpy>*Stare*")
250(bytes(0x04,0x08,0x6f,0x3a,0x0c,0x52,0x50,0x47,0x3a,0x3a,0x53,0x45,0x08,0x3a,0x0a,0x40,0x6e,0x61,0x6d,0x65,0x49,0x22,0x11,0x6d,0x6f,0x6e,0x5f,0x65,0x72,0x6f,0x5f,0x70,0x79,0x75,0x31,0x06,0x3a,0x06,0x45,0x54,0x3a,0x0b,0x40,0x70,0x69,0x74,0x63,0x68,0x69,0x69,0x3a,0x0c,0x40,0x76,0x6f,0x6c,0x75,0x6d,0x65,0x69,0x69))
311(0,1,1,1,26,true)
ShowMessageFace("",0,0,2,17)
ShowMessage("The older harpy grinds her waist back and forth!")
ShowMessage("The bumps inside of her stimulate Luka!\\D")
ShowMessage("Luka takes \\V[26] damage!")
ChangeVariable(27,27,0,3,3,1,2)
If(1,27,0,0,0)
 JumpToLabel("射精2")
 0()
EndIf()
DefineLabel("射精1")
ShowMessageFace("",0,0,2,18)
ShowMessage("\\n<Luka>Ah...I'm coming...!")
RunCommonEvent(104)
PictureDisplay(5,"ev_hapy_bc_ct13",0,0,0,0,100,100,255,0)
RunCommonEvent(105)
ShowMessageFace("",0,0,2,19)
ShowMessage("The moment of insertion, Luka reaches climax!")
ShowMessage("His semen pours into her.")
ShowMessageFace("hapy_bc_fc1",4,0,2,20)
ShowMessage("\\n<Older Harpy>Arere? You already came?")
ShowMessageFace("hapy_bc_fc1",6,0,2,21)
ShowMessage("\\n<Younger Harpy>Ahaha, oh my gosh that was sooo fast!")
RunCommonEvent(2000)
EndEventProcessing()
DefineLabel("射精2")
ShowMessageFace("",0,0,2,22)
ShowMessage("\\n<Luka>Don't... I'm coming...")
RunCommonEvent(104)
PictureDisplay(5,"ev_hapy_bc_ct13",0,0,0,0,100,100,255,0)
RunCommonEvent(105)
ShowMessageFace("",0,0,2,23)
ShowMessage("Luka succumbs to the older harpy's movements.")
ShowMessage("His semen pours into her vagina.")
ShowMessageFace("hapy_bc_fc1",4,0,2,24)
ShowMessage("\\n<Older Harpy>Ufufu, he came...")
ShowMessageFace("hapy_bc_fc1",6,0,2,25)
ShowMessage("\\n<Younger Harpy>He's coming so much, he must have enjoyed it...")
RunCommonEvent(2000)
EndEventProcessing()
0()
