﻿// EVENT 0067
Name "Skill: Play 271-280"

ChangeVariable(11,11,0,2,1,5)
If(1,100,0,271,0)
 If(1,11,0,1,0)
  ShowMessageFace("scyllad_fc1",0,0,2,1)
  ShowMessage("\\n<Miriam>*rustle rustle*♪")
  ShowMessageFace("",0,0,2,2)
  ShowMessage("Miriam's legs are fidgeting around...")
  EndEventProcessing()
  0()
 EndIf()
 If(1,11,0,2,0)
  ShowMessageFace("scyllad_fc1",0,0,2,3)
  ShowMessage("\\n<Miriam>Ei-yaaa!")
  355("interrupt_skill(2776)")
  EndEventProcessing()
  0()
 EndIf()
 If(1,11,0,3,0)
  ShowMessageFace("scyllad_fc1",2,0,2,4)
  ShowMessage("\\n<Miriam>Guhuuu...")
  ShowMessageFace("",0,0,2,5)
  ShowMessage("Miriam is pretending to cry!\n...But no one paid any attention.")
  EndEventProcessing()
  0()
 EndIf()
 If(1,11,0,4,0)
  ShowMessageFace("scyllad_fc1",0,0,2,6)
  ShowMessage("\\n<Miriam>I caught this...")
  ShowMessageFace("",0,0,2,7)
  ShowMessage("Miriam presents a gift!")
  250(bytes(0x04,0x08,0x6f,0x3a,0x0c,0x52,0x50,0x47,0x3a,0x3a,0x53,0x45,0x08,0x3a,0x0a,0x40,0x6e,0x61,0x6d,0x65,0x49,0x22,0x0a,0x49,0x74,0x65,0x6d,0x31,0x06,0x3a,0x06,0x45,0x54,0x3a,0x0b,0x40,0x70,0x69,0x74,0x63,0x68,0x69,0x69,0x3a,0x0c,0x40,0x76,0x6f,0x6c,0x75,0x6d,0x65,0x69,0x55))
  ChangeInventory_Item(448,0,0,1)
  ShowMessageFace("",0,0,2,8)
  ShowMessage("You obtain a \\ii[448]!")
  EndEventProcessing()
  0()
 EndIf()
 If(1,11,0,5,0)
  ShowMessageFace("scyllad_fc1",0,0,2,9)
  ShowMessage("\\n<Miriam>Ufufufufufufufufufufufu...")
  355("interrupt_skill(3295)")
  EndEventProcessing()
  0()
 EndIf()
 0()
EndIf()
If(1,100,0,272,0)
 If(1,11,0,1,0)
  ShowMessageFace("seiren_fc1",0,0,2,10)
  ShowMessage("\\n<Leene>Be enchanted by my song of love...♪")
  355("interrupt_skill(2079)")
  EndEventProcessing()
  0()
 EndIf()
 If(1,11,0,2,0)
  ShowMessageFace("seiren_fc1",0,0,2,11)
  ShowMessage("\\n<Leene>No one can understand this song at all...")
  ShowMessageFace("",0,0,2,12)
  ShowMessage("Leene is complaining to herself...")
  EndEventProcessing()
  0()
 EndIf()
 If(1,11,0,3,0)
  ShowMessageFace("seiren_fc1",0,0,2,13)
  ShowMessage("\\n<Leene>I'll be quiet for a while...")
  313(0,272,0,9)
  ShowMessageFace("",0,0,2,14)
  ShowMessage("Leene became silent...")
  EndEventProcessing()
  0()
 EndIf()
 If(1,11,0,4,0)
  ShowMessageFace("seiren_fc1",0,0,2,15)
  ShowMessage("\\n<Leene>Hmmhmmhmmmm...♪")
  ShowMessageFace("",0,0,2,16)
  ShowMessage("Leene is humming a song...")
  EndEventProcessing()
  0()
 EndIf()
 If(1,11,0,5,0)
  ShowMessageFace("seiren_fc1",0,0,2,17)
  ShowMessage("\\n<Leene>Become fascinated by my song of seduction...♪")
  355("interrupt_skill(2104)")
  EndEventProcessing()
  0()
 EndIf()
 0()
EndIf()
If(1,100,0,273,0)
 If(1,11,0,1,0)
  ShowMessageFace("sango_fc1",0,0,2,18)
  ShowMessage("\\n<Sango>............")
  ShowMessageFace("",0,0,2,19)
  ShowMessage("Sango is being silent...")
  EndEventProcessing()
  0()
 EndIf()
 If(1,11,0,2,0)
  ShowMessageFace("sango_fc1",0,0,2,20)
  ShowMessage("\\n<Sango>............")
  ShowMessageFace("",0,0,2,21)
  ShowMessage("Sango is smiling!\n...Or you think she is.")
  EndEventProcessing()
  0()
 EndIf()
 If(1,11,0,3,0)
  ShowMessageFace("sango_fc1",0,0,2,22)
  ShowMessage("\\n<Sango>............")
  313(0,273,0,11)
  ShowMessageFace("",0,0,2,23)
  ShowMessage("Sango appears to have fallen asleep...")
  EndEventProcessing()
  0()
 EndIf()
 If(1,11,0,4,0)
  ShowMessageFace("sango_fc1",0,0,2,24)
  ShowMessage("\\n<Sango>............")
  355("interrupt_skill(3086)")
  EndEventProcessing()
  0()
 EndIf()
 If(1,11,0,5,0)
  ShowMessageFace("sango_fc1",0,0,2,25)
  ShowMessage("\\n<Sango>............")
  355("interrupt_skill(3089)")
  EndEventProcessing()
  0()
 EndIf()
 0()
EndIf()
If(1,100,0,274,0)
 If(1,11,0,1,0)
  ShowMessageFace("hitode_fc1",0,0,2,26)
  ShowMessage("\\n<Asta>I've been hungry for a few years...\n...*munch munch*")
  ShowMessageFace("",0,0,2,27)
  ShowMessage("Asta is eating some food she stole...")
  EndEventProcessing()
  0()
 EndIf()
 If(1,11,0,2,0)
  ShowMessageFace("hitode_fc1",0,0,2,28)
  ShowMessage("\\n<Asta>Starfish dance...♪")
  ShowMessageFace("",0,0,2,29)
  ShowMessage("Asta is dancing and singing happily...")
  EndEventProcessing()
  0()
 EndIf()
 If(1,11,0,3,0)
  ShowMessageFace("hitode_fc1",0,0,2,30)
  ShowMessage("*rolling*...")
  ShowMessageFace("",0,0,2,31)
  ShowMessage("Asta is rolling around...")
  EndEventProcessing()
  0()
 EndIf()
 If(1,11,0,4,0)
  ShowMessageFace("hitode_fc1",0,0,2,32)
  ShowMessage("\\n<Asta>Here, please eat this.")
  ShowMessageFace("",0,0,2,33)
  ShowMessage("Asta presents a gift!")
  250(bytes(0x04,0x08,0x6f,0x3a,0x0c,0x52,0x50,0x47,0x3a,0x3a,0x53,0x45,0x08,0x3a,0x0a,0x40,0x6e,0x61,0x6d,0x65,0x49,0x22,0x0a,0x49,0x74,0x65,0x6d,0x31,0x06,0x3a,0x06,0x45,0x54,0x3a,0x0b,0x40,0x70,0x69,0x74,0x63,0x68,0x69,0x69,0x3a,0x0c,0x40,0x76,0x6f,0x6c,0x75,0x6d,0x65,0x69,0x55))
  ChangeInventory_Item(322,0,0,1)
  ShowMessageFace("",0,0,2,34)
  ShowMessage("You obtain a \\ii[322]!")
  EndEventProcessing()
  0()
 EndIf()
 If(1,11,0,5,0)
  ShowMessageFace("hitode_fc1",0,0,2,35)
  ShowMessage("\\n<Asta>The stomach juice of a starfish...!")
  355("interrupt_skill(2645)")
  EndEventProcessing()
  0()
 EndIf()
 0()
EndIf()
If(1,100,0,275,0)
 If(1,11,0,1,0)
  ShowMessageFace("beelzebub_fc1",0,0,2,36)
  ShowMessage("\\n<Barbarella>I'm getting hungry...")
  ShowMessageFace("",0,0,2,37)
  ShowMessage("Barbarella is eating some food she stole...")
  EndEventProcessing()
  0()
 EndIf()
 If(1,11,0,2,0)
  ShowMessageFace("beelzebub_fc1",2,0,2,38)
  ShowMessage("\\n<Barbarella>Come to think of it, there was some milk I was about to drink before I was sealed...\n...Eww, what is this stench...?!")
  355("interrupt_skill(3304)")
  EndEventProcessing()
  0()
 EndIf()
 If(1,11,0,3,0)
  ShowMessageFace("beelzebub_fc1",0,0,2,39)
  ShowMessage("\\n<Barbarella>Hey, do your best.")
  ShowMessageFace("",0,0,2,40)
  ShowMessage("Barbarella is cheering for everyone!\n...But nobody heard her.")
  EndEventProcessing()
  0()
 EndIf()
 If(1,11,0,4,0)
  ShowMessageFace("beelzebub_fc1",0,0,2,41)
  ShowMessage("\\n<Barbarella>I'll give you this...")
  ShowMessageFace("",0,0,2,42)
  ShowMessage("Barbarella presents a gift!")
  250(bytes(0x04,0x08,0x6f,0x3a,0x0c,0x52,0x50,0x47,0x3a,0x3a,0x53,0x45,0x08,0x3a,0x0a,0x40,0x6e,0x61,0x6d,0x65,0x49,0x22,0x0a,0x49,0x74,0x65,0x6d,0x31,0x06,0x3a,0x06,0x45,0x54,0x3a,0x0b,0x40,0x70,0x69,0x74,0x63,0x68,0x69,0x69,0x3a,0x0c,0x40,0x76,0x6f,0x6c,0x75,0x6d,0x65,0x69,0x55))
  ChangeInventory_Item(340,0,0,1)
  ShowMessageFace("",0,0,2,43)
  ShowMessage("You obtain a \\ii[340]!")
  EndEventProcessing()
  0()
 EndIf()
 If(1,11,0,5,0)
  ShowMessageFace("beelzebub_fc1",0,0,2,44)
  ShowMessage("\\n<Barbarella>Be blown away...")
  355("interrupt_skill(2859)")
  EndEventProcessing()
  0()
 EndIf()
 0()
EndIf()
If(1,100,0,276,0)
 If(1,11,0,1,0)
  ShowMessageFace("beelzebub_fc2",0,0,2,45)
  ShowMessage("\\n<Striga>It's only have a little, if you'll excuse me...*munch munch*")
  ShowMessageFace("",0,0,2,46)
  ShowMessage("Striga is eating some food she stole...")
  EndEventProcessing()
  0()
 EndIf()
 If(1,11,0,2,0)
  ShowMessageFace("beelzebub_fc2",0,0,2,47)
  ShowMessage("\\n<Striga>Let's enjoy ourselves once in a while...♪")
  ShowMessageFace("",0,0,2,48)
  ShowMessage("Striga is dancing and singing happily...")
  EndEventProcessing()
  0()
 EndIf()
 If(1,11,0,3,0)
  ShowMessageFace("beelzebub_fc2",0,0,2,49)
  ShowMessage("\\n<Striga>I was forbidden from playing with these...")
  355("interrupt_skill(3295)")
  EndEventProcessing()
  0()
 EndIf()
 If(1,11,0,4,0)
  ShowMessageFace("beelzebub_fc2",0,0,2,50)
  ShowMessage("\\n<Striga>Let me give you this...")
  ShowMessageFace("",0,0,2,51)
  ShowMessage("Striga presents a gift!")
  250(bytes(0x04,0x08,0x6f,0x3a,0x0c,0x52,0x50,0x47,0x3a,0x3a,0x53,0x45,0x08,0x3a,0x0a,0x40,0x6e,0x61,0x6d,0x65,0x49,0x22,0x0a,0x49,0x74,0x65,0x6d,0x31,0x06,0x3a,0x06,0x45,0x54,0x3a,0x0b,0x40,0x70,0x69,0x74,0x63,0x68,0x69,0x69,0x3a,0x0c,0x40,0x76,0x6f,0x6c,0x75,0x6d,0x65,0x69,0x55))
  ChangeInventory_Item(341,0,0,1)
  ShowMessageFace("",0,0,2,52)
  ShowMessage("You obtain some \\ii[341]!")
  EndEventProcessing()
  0()
 EndIf()
 If(1,11,0,5,0)
  ShowMessageFace("beelzebub_fc2",0,0,2,53)
  ShowMessage("\\n<Striga>Ufufufu...")
  355("interrupt_skill(2859)")
  EndEventProcessing()
  0()
 EndIf()
 0()
EndIf()
If(1,100,0,277,0)
 If(1,11,0,1,0)
  ShowMessageFace("beelzebub_fc3",0,0,2,54)
  ShowMessage("\\n<Media>I feel hungry...")
  ShowMessageFace("",0,0,2,55)
  ShowMessage("Media is eating some food she stole...")
  EndEventProcessing()
  0()
 EndIf()
 If(1,11,0,2,0)
  ShowMessageFace("beelzebub_fc3",1,0,2,56)
  ShowMessage("\\n<Media>The power of imagination is infinite...")
  ShowMessageFace("",0,0,2,57)
  ShowMessage("Media is doodling on the ground...")
  EndEventProcessing()
  0()
 EndIf()
 If(1,11,0,3,0)
  ShowMessageFace("beelzebub_fc3",2,0,2,58)
  ShowMessage("\\n<Media>Good night...")
  313(0,277,0,11)
  ShowMessageFace("",0,0,2,59)
  ShowMessage("Media fell asleep...")
  EndEventProcessing()
  0()
 EndIf()
 If(1,11,0,4,0)
  ShowMessageFace("beelzebub_fc3",1,0,2,60)
  ShowMessage("\\n<Media>I'll give you this...")
  ShowMessageFace("",0,0,2,61)
  ShowMessage("Media presents a gift!")
  250(bytes(0x04,0x08,0x6f,0x3a,0x0c,0x52,0x50,0x47,0x3a,0x3a,0x53,0x45,0x08,0x3a,0x0a,0x40,0x6e,0x61,0x6d,0x65,0x49,0x22,0x0a,0x49,0x74,0x65,0x6d,0x31,0x06,0x3a,0x06,0x45,0x54,0x3a,0x0b,0x40,0x70,0x69,0x74,0x63,0x68,0x69,0x69,0x3a,0x0c,0x40,0x76,0x6f,0x6c,0x75,0x6d,0x65,0x69,0x55))
  ChangeInventory_Item(408,0,0,1)
  ShowMessageFace("",0,0,2,62)
  ShowMessage("You obtain a \\ii[408]!")
  EndEventProcessing()
  0()
 EndIf()
 If(1,11,0,5,0)
  ShowMessageFace("beelzebub_fc3",0,0,2,63)
  ShowMessage("\\n<Media>Go away...")
  355("interrupt_skill(2859)")
  EndEventProcessing()
  0()
 EndIf()
 0()
EndIf()
If(1,100,0,278,0)
 If(1,11,0,1,0)
  ShowMessageFace("arkjelly_fc1",0,0,2,64)
  ShowMessage("\\n<Samansa>Floating...")
  ShowMessageFace("",0,0,2,65)
  ShowMessage("Samansa is floating around...")
  EndEventProcessing()
  0()
 EndIf()
 If(1,11,0,2,0)
  ShowMessageFace("arkjelly_fc1",0,0,2,66)
  ShowMessage("\\n<Samansa>Fuzzy...")
  ShowMessageFace("",0,0,2,67)
  ShowMessage("Samansa is in a daze...")
  EndEventProcessing()
  0()
 EndIf()
 If(1,11,0,3,0)
  ShowMessageFace("arkjelly_fc1",0,0,2,68)
  ShowMessage("\\n<Samansa>Bzzt...")
  355("interrupt_skill(3308)")
  0()
 EndIf()
 If(1,11,0,4,0)
  ShowMessageFace("arkjelly_fc1",0,0,2,69)
  ShowMessage("\\n<Samansa>Give...")
  ShowMessageFace("",0,0,2,70)
  ShowMessage("Samansa presents a gift!")
  250(bytes(0x04,0x08,0x6f,0x3a,0x0c,0x52,0x50,0x47,0x3a,0x3a,0x53,0x45,0x08,0x3a,0x0a,0x40,0x6e,0x61,0x6d,0x65,0x49,0x22,0x0a,0x49,0x74,0x65,0x6d,0x31,0x06,0x3a,0x06,0x45,0x54,0x3a,0x0b,0x40,0x70,0x69,0x74,0x63,0x68,0x69,0x69,0x3a,0x0c,0x40,0x76,0x6f,0x6c,0x75,0x6d,0x65,0x69,0x55))
  ChangeInventory_Item(322,0,0,1)
  ShowMessageFace("",0,0,2,71)
  ShowMessage("You obtain a \\ii[322]!")
  EndEventProcessing()
  0()
 EndIf()
 If(1,11,0,5,0)
  ShowMessageFace("arkjelly_fc1",0,0,2,72)
  ShowMessage("\\n<Samansa>Whish whish...")
  355("interrupt_skill(2789)")
  EndEventProcessing()
  0()
 EndIf()
 0()
EndIf()
If(1,100,0,279,0)
 If(1,11,0,1,0)
  ShowMessageFace("e_scylla_fc1",0,0,2,73)
  ShowMessage("\\n<Ooma>Spread...")
  355("interrupt_skill(2816)")
  EndEventProcessing()
  0()
 EndIf()
 If(1,11,0,2,0)
  ShowMessageFace("e_scylla_fc1",0,0,2,74)
  ShowMessage("\\n<Ooma>Fufu...")
  355("interrupt_skill(3296)")
  EndEventProcessing()
  0()
 EndIf()
 If(1,11,0,3,0)
  ShowMessageFace("e_scylla_fc1",0,0,2,75)
  ShowMessage("\\n<Ooma>Fufu...")
  ShowMessageFace("",0,0,2,76)
  ShowMessage("Ooma is grinning...")
  EndEventProcessing()
  0()
 EndIf()
 If(1,11,0,4,0)
  ShowMessageFace("e_scylla_fc1",1,0,2,77)
  ShowMessage("\\n<Ooma>Let's get excited...!")
  ShowMessageFace("",0,0,2,78)
  ShowMessage("Ooma is dancing and singing happily...")
  EndEventProcessing()
  0()
 EndIf()
 If(1,11,0,5,0)
  ShowMessageFace("e_scylla_fc1",1,0,2,79)
  ShowMessage("\\n<Ooma>Out of my way...!")
  355("interrupt_skill(2776)")
  EndEventProcessing()
  0()
 EndIf()
 0()
EndIf()
If(1,100,0,280,0)
 If(1,11,0,1,0)
  ShowMessageFace("poseidones_fc1",0,0,2,80)
  ShowMessage("\\n<Poseidoness>My brethren of the sea are deeply troubled by my harshness...")
  ShowMessageFace("",0,0,2,81)
  ShowMessage("Poseidoness is complaining to herself...")
  EndEventProcessing()
  0()
 EndIf()
 If(1,11,0,2,0)
  ShowMessageFace("poseidones_fc1",0,0,2,82)
  ShowMessage("\\n<Poseidoness>The Queen of the Northern Seas shall bring order to this battle!")
  ShowMessageFace("",0,0,2,83)
  ShowMessage("Poseidoness tries to stop the fight!\nBut no one is listening...")
  EndEventProcessing()
  0()
 EndIf()
 If(1,11,0,3,0)
  ShowMessageFace("poseidones_fc1",0,0,2,84)
  ShowMessage("\\n<Poseidoness>Hmph!!")
  355("interrupt_skill(3294)")
  EndEventProcessing()
  0()
 EndIf()
 If(1,11,0,4,0)
  ShowMessageFace("poseidones_fc1",0,0,2,85)
  ShowMessage("\\n<Poseidoness>There is plenty of seafood.\nMore than half of it is taken from my body...")
  ShowMessageFace("",0,0,2,86)
  ShowMessage("Poseidoness presents a gift!")
  250(bytes(0x04,0x08,0x6f,0x3a,0x0c,0x52,0x50,0x47,0x3a,0x3a,0x53,0x45,0x08,0x3a,0x0a,0x40,0x6e,0x61,0x6d,0x65,0x49,0x22,0x0a,0x49,0x74,0x65,0x6d,0x31,0x06,0x3a,0x06,0x45,0x54,0x3a,0x0b,0x40,0x70,0x69,0x74,0x63,0x68,0x69,0x69,0x3a,0x0c,0x40,0x76,0x6f,0x6c,0x75,0x6d,0x65,0x69,0x55))
  ChangeInventory_Item(367,0,0,1)
  ShowMessageFace("",0,0,2,87)
  ShowMessage("You obtain some \\ii[367]!")
  EndEventProcessing()
  0()
 EndIf()
 If(1,11,0,5,0)
  ShowMessageFace("poseidones_fc1",0,0,2,88)
  ShowMessage("\\n<Poseidoness>Haaaah!!")
  355("interrupt_skill(2776)")
  EndEventProcessing()
  0()
 EndIf()
 0()
EndIf()
0()
