// EVENT 4276
Name "Fairy 1"

If(0,25,1)
 221()
 PictureClear(5)
 PictureClear(6)
 ShowMessageFace("",0,0,2,0)
 ShowMessage("......")
 242(2)
 Wait(120)
 241(bytes(0x04,0x08,0x6f,0x3a,0x0d,0x52,0x50,0x47,0x3a,0x3a,0x42,0x47,0x4d,0x08,0x3a,0x0a,0x40,0x6e,0x61,0x6d,0x65,0x49,0x22,0x0c,0x63,0x61,0x73,0x74,0x6c,0x65,0x36,0x06,0x3a,0x06,0x45,0x54,0x3a,0x0c,0x40,0x76,0x6f,0x6c,0x75,0x6d,0x65,0x69,0x69,0x3a,0x0b,0x40,0x70,0x69,0x74,0x63,0x68,0x69,0x69))
 EndEventProcessing()
 0()
EndIf()
PictureDisplay(5,"80_fairy_st03",0,0,0,0,100,100,255,0)
ShowMessageFace("fairy_fc1",2,0,2,1)
ShowMessage("\\n<Fell>Eh? You want to play with me?")
ShowMessageFace("",0,0,2,2)
ShowMessage("\\n<Luka>Y...Yes... Please...")
PictureDisplay(5,"80_fairy_st02",0,0,0,0,100,100,255,0)
ShowMessageFace("fairy_fc1",1,0,2,3)
ShowMessage("\\n<Fell>Ok, then let's play a lot. ♪")
ShowMessageFace("",0,0,2,4)
ShowMessage("I follow her to her room...")
221()
PictureDisplay(1,"bg195",0,0,0,0,100,100,255,0)
PictureDisplay(5,"80_fairy_st02",0,0,0,0,100,100,255,0)
222()
241(bytes(0x04,0x08,0x6f,0x3a,0x0d,0x52,0x50,0x47,0x3a,0x3a,0x42,0x47,0x4d,0x08,0x3a,0x0a,0x40,0x6e,0x61,0x6d,0x65,0x49,0x22,0x09,0x65,0x72,0x6f,0x31,0x06,0x3a,0x06,0x45,0x54,0x3a,0x0c,0x40,0x76,0x6f,0x6c,0x75,0x6d,0x65,0x69,0x69,0x3a,0x0b,0x40,0x70,0x69,0x74,0x63,0x68,0x69,0x69))
ShowMessageFace("fairy_fc1",1,0,2,5)
ShowMessage("\\n<Fell>Ehehe... Let's play with flowers. ♪")
ShowMessageFace("",0,0,2,6)
ShowMessage("Fell flies toward my crotch.")
ShowMessage("She brings a strange flower to my penis, dripping liquid.")
ShowMessageFace("",0,0,2,7)
ShowMessage("The strange golden liquid drips from the petals of the flower.")
ShowMessage("As I focus on the flower, all I can imagine is what it might feel like.")
ShowMessageFace("fairy_fc1",1,0,2,8)
ShowMessage("\\n<Fell>It's always fun to play with penises with this flower.\nWhite pee always comes out after...")
ShowMessageFace("",0,0,2,9)
ShowMessage("\\n<Luka>L-let's not do that.\nNot a flower, let's do something else...")
ShowMessageFace("",0,0,2,10)
ShowMessage("Even if I say no with my voice, my body can't...")
245(bytes(0x04,0x08,0x6f,0x3a,0x0d,0x52,0x50,0x47,0x3a,0x3a,0x42,0x47,0x53,0x08,0x3a,0x0a,0x40,0x6e,0x61,0x6d,0x65,0x49,0x22,0x1a,0x6d,0x6f,0x6e,0x5f,0x68,0x73,0x65,0x61,0x6e,0x32,0x30,0x5f,0x74,0x65,0x6e,0x74,0x61,0x63,0x6c,0x65,0x31,0x06,0x3a,0x06,0x45,0x54,0x3a,0x0c,0x40,0x76,0x6f,0x6c,0x75,0x6d,0x65,0x69,0x55,0x3a,0x0b,0x40,0x70,0x69,0x74,0x63,0x68,0x69,0x69))
PictureDisplay(6,"ev_fairy_ct01",0,0,0,0,100,100,255,0)
ShowMessageFace("",0,0,2,11)
ShowMessage("The petals wrap around my penis!")
ShowMessageFace("",0,0,2,12)
ShowMessage("\\n<Luka>Ahh!!")
ShowMessageFace("",0,0,2,13)
ShowMessage("The flower's petals vibrate and move as if it was a living creature.")
ShowMessageFace("",0,0,2,14)
ShowMessage("Wrapped inside the mouth of the flower, a peculiar pleasure attacks me.")
ShowMessageFace("",0,0,2,15)
ShowMessage("Somehow, the flower tightens down over the tip of my penis.")
ShowMessage("Finally, the petals have completely wrapped around every inch of my penis.")
ShowMessageFace("fairy_fc1",1,0,2,16)
ShowMessage("\\n<Fell>Hehehe...\nThe flower says it loves your penis.")
ShowMessageFace("fairy_fc1",1,0,2,17)
ShowMessage("\\n<Fell>But it likes the white liquid that comes out even more.\nIt looked like you liked to let out the liquid too!")
ShowMessageFace("",0,0,2,18)
ShowMessage("\\n<Luka>Auuu...")
ShowMessageFace("",0,0,2,19)
ShowMessage("Honey starts to flow out from the flower, making my penis sticky.")
ShowMessageFace("",0,0,2,20)
ShowMessage("In addition, each petal of the flower starts to slowly move back and forth.")
ShowMessage("The sticky petals massage and stroke my penis as the flower tightens around me.")
ShowMessageFace("",0,0,2,21)
ShowMessage("\\n<Luka>Aaa... This flower... Incredible...")
ShowMessageFace("",0,0,2,22)
ShowMessage("This flower evolved to force men to ejaculate for some reason...")
ShowMessageFace("",0,0,2,23)
ShowMessage("The petals wrap around me and gently massage me.")
ShowMessage("The sticky honey covers every inch of my penis as the friction between my penis and the soft petals increases.")
ShowMessageFace("",0,0,2,24)
ShowMessage("As the pleasure attacks me, I feel my waist start to go numb.")
ShowMessage("Slowly giving in to the pleasure, I feel my pre-come start to leak out.")
ShowMessageFace("",0,0,2,25)
ShowMessage("\\n<Luka>No! Stop this...!")
ShowMessageFace("",0,0,2,26)
ShowMessage("I somehow manage to hold back the desire to release.")
ShowMessage("I can't allow this strange flower to absorb my semen...")
ShowMessageFace("",0,0,2,27)
ShowMessage("\\n<Luka>Get it off... Auuuu...")
ShowMessageFace("",0,0,2,28)
ShowMessage("But it's too late.")
ShowMessage("The stimulation that this flower forces on a man won't allow them to resist.")
ShowMessageFace("fairy_fc1",1,0,2,29)
ShowMessage("\\n<Fell>It's pointless to resist!\nThere isn't a single man alive that can endure this flower!")
ShowMessageFace("",0,0,2,30)
ShowMessage("\\n<Luka>Auuuu!")
ShowMessageFace("",0,0,2,31)
ShowMessage("Even though I know it's useless, my body writhes as I use the last of my strength to hold on.")
ShowMessage("Being forced to feel this good by some strange flower...!")
ShowMessageFace("fairy_fc1",1,0,2,32)
ShowMessage("\\n<Fell>Hehehe... Your penis is twitching.\nThe flower wants your white pee!")
ShowMessageFace("",0,0,2,33)
ShowMessage("\\n<Luka>Ahhh!!")
ShowMessageFace("",0,0,2,34)
ShowMessage("Despite my best effort, I can't take it any longer.")
ShowMessage("As the pleasure races through my body like electricity, I give in to desire as the orgasm explodes throughout my body.")
RunCommonEvent(104)
PictureDisplay(6,"ev_fairy_ct02",0,0,0,0,100,100,255,0)
RunCommonEvent(105)
ShowMessageFace("fairy_fc1",1,0,2,35)
ShowMessage("\\n<Fell>Hehe. The flower is sucking it all up.")
ShowMessageFace("",0,0,2,36)
ShowMessage("\\n<Luka>Ahhh...")
ShowMessageFace("",0,0,2,37)
ShowMessage("As my semen gushes out into the flower, it slowly absorbs it.")
ShowMessage("My semen is just like fertilizer for this flower...")
ShowMessageFace("fairy_fc1",1,0,2,38)
ShowMessage("\\n<Fell>Haha... Let out more!")
ShowMessageFace("",0,0,2,39)
ShowMessage("Fell keeps the flower on my penis as she happily frolics around.")
ShowMessageFace("",0,0,2,40)
ShowMessage("\\n<Luka>Auuu...")
ShowMessageFace("",0,0,2,41)
ShowMessage("Disgrace fills me as Fell toys with me by raping me with a flower.")
ShowMessageFace("",0,0,2,42)
ShowMessage("But slowly pushing aside that humiliation is the strange pleasure from the flower.")
ShowMessage("As those two feelings mix in my body, all I can do is pitifully writhe on the floor.")
ShowMessageFace("",0,0,2,43)
ShowMessage("\\n<Luka>Ah... Ahhh!")
ShowMessageFace("fairy_fc1",1,0,2,44)
ShowMessage("\\n<Fell>Hehehe... Isn't it fun?\nLet's play even more!")
245(bytes(0x04,0x08,0x6f,0x3a,0x0d,0x52,0x50,0x47,0x3a,0x3a,0x42,0x47,0x53,0x08,0x3a,0x0a,0x40,0x6e,0x61,0x6d,0x65,0x49,0x22,0x1a,0x6d,0x6f,0x6e,0x5f,0x68,0x73,0x65,0x61,0x6e,0x32,0x31,0x5f,0x74,0x65,0x6e,0x74,0x61,0x63,0x6c,0x65,0x32,0x06,0x3a,0x06,0x45,0x54,0x3a,0x0c,0x40,0x76,0x6f,0x6c,0x75,0x6d,0x65,0x69,0x55,0x3a,0x0b,0x40,0x70,0x69,0x74,0x63,0x68,0x69,0x69))
ShowMessageFace("",0,0,2,45)
ShowMessage("The petals around my penis get even tighter.")
ShowMessage("From the base of my penis up to the tip, the soft petals gently move and stroke me.")
ShowMessageFace("",0,0,2,46)
ShowMessage("I'm no longer able to deny the pleasure this Succubus Flower can bring me...")
ShowMessageFace("",0,0,2,47)
ShowMessage("\\n<Luka>Ah... I'm coming!")
RunCommonEvent(104)
RunCommonEvent(105)
ShowMessageFace("",0,0,2,48)
ShowMessage("The flower wrapped around my penis sucks up all the semen as I shoot it out.")
ShowMessageFace("",0,0,2,49)
ShowMessage("I'm only feeling this pleasure so that the flower can feed...")
ShowMessage("Fell giggles at me as I pant after my orgasm.")
ShowMessageFace("",0,0,2,50)
ShowMessage("Trampling on the real purpose for a man's penis, I'm just a toy to her.")
ShowMessage("Too weak to escape, I can't do anything but accept this...")
ShowMessageFace("fairy_fc1",1,0,2,51)
ShowMessage("\\n<Fell>Hehehe... Let's play even more!")
ShowMessageFace("",0,0,2,52)
ShowMessage("\\n<Luka>Stop already... Ahhh!!")
RunCommonEvent(104)
RunCommonEvent(105)
ShowMessageFace("",0,0,2,53)
ShowMessage("My penis is only a toy to amuse the Fairy...")
ShowMessage("Using this flower to play with me, it will continue to suck up all of my semen...")
221()
PictureClear(6)
PictureClear(5)
246(2)
ShowMessageFace("",0,0,2,54)
ShowMessage("Like that, Fell toyed with me.")
ShowMessage("Treating my penis like a toy, she teases me.")
ShowMessageFace("",0,0,2,55)
ShowMessage("I was no more than a toy to explore her innocent curiosity.")
ShowMessage("I eventually leave her room, barely able to stand up.")
ShowMessageFace("",0,0,2,56)
ShowMessage("..................")
242(2)
Wait(120)
241(bytes(0x04,0x08,0x6f,0x3a,0x0d,0x52,0x50,0x47,0x3a,0x3a,0x42,0x47,0x4d,0x08,0x3a,0x0a,0x40,0x6e,0x61,0x6d,0x65,0x49,0x22,0x0c,0x63,0x61,0x73,0x74,0x6c,0x65,0x36,0x06,0x3a,0x06,0x45,0x54,0x3a,0x0c,0x40,0x76,0x6f,0x6c,0x75,0x6d,0x65,0x69,0x69,0x3a,0x0b,0x40,0x70,0x69,0x74,0x63,0x68,0x69,0x69))
0()
