﻿// EVENT 7084
Name "Elissa: Victory"

PictureDisplay(5,"80_mob_elf1_st01",0,0,0,0,100,100,255,0)
PictureClear(6)
ShowMessageFace("mob_elf1_fc1",0,0,2,1)
ShowMessage("\\n<Elissa>...You didn't come.\nI lost...")
250(bytes(0x04,0x08,0x6f,0x3a,0x0c,0x52,0x50,0x47,0x3a,0x3a,0x53,0x45,0x08,0x3a,0x0a,0x40,0x6e,0x61,0x6d,0x65,0x49,0x22,0x0d,0x6d,0x6f,0x6e,0x5f,0x6c,0x76,0x75,0x70,0x06,0x3a,0x06,0x45,0x54,0x3a,0x0b,0x40,0x70,0x69,0x74,0x63,0x68,0x69,0x69,0x3a,0x0c,0x40,0x76,0x6f,0x6c,0x75,0x6d,0x65,0x69,0x69))
ChangeSwitch(98,98,1)
ChangeSwitch(96,96,1)
ShowMessageFace("",0,0,2,2)
ShowMessage("Luka emerged from the battle fuck victorious!")
If(1,809,0,2,1)
 ShowMessageFace("mob_elf1_fc1",0,0,2,3)
 ShowMessage("\\n<Elissa>But, no prizes are left.\nI already gave you one...")
 0()
Else()
 ShowMessageFace("mob_elf1_fc1",0,0,2,4)
 ShowMessage("\\n<Elissa>All right, you win the prize.\nYou can always use bow and arrow skills with this.")
 250(bytes(0x04,0x08,0x6f,0x3a,0x0c,0x52,0x50,0x47,0x3a,0x3a,0x53,0x45,0x08,0x3a,0x0a,0x40,0x6e,0x61,0x6d,0x65,0x49,0x22,0x0a,0x49,0x74,0x65,0x6d,0x31,0x06,0x3a,0x06,0x45,0x54,0x3a,0x0b,0x40,0x70,0x69,0x74,0x63,0x68,0x69,0x69,0x3a,0x0c,0x40,0x76,0x6f,0x6c,0x75,0x6d,0x65,0x69,0x55))
 ChangeInventoryArmor(1636,0,0,1,false)
 ChangeVariable(809,809,0,0,2)
 RunCommonEvent(6999)
 0()
EndIf()
ShowMessageFace("mob_elf1_fc1",0,0,2,5)
ShowMessage("\\n<Elissa>I'll get my revenge, so come back again.\nI'll make you come next time...")
If(0,2331,1)
 PictureClear(5)
 281(1)
 TeleportPlayer(0,35,20,30,2,0)
 216(0)
 0()
EndIf()
EndEventProcessing()
0()
