// EVENT 2005
Name "Seduction: Imp"

If(0,25,1)
 EndEventProcessing()
 0()
EndIf()
355("$game_troop.lose_event_id = 3005")
ChangeVariable(26,26,0,3,3,1,4)
ChangeVariable(26,26,4,0,10)
ShowMessageFace("inp_fc1",2,0,2,1)
ShowMessage("\\n<Imp>Ueehh!! He's gonna kill me!")
ShowMessageFace("inp_fc1",0,0,2,2)
ShowMessage("\\n<Imp>I'll give you a paizuri, so let me go... okay?\nI'll sandwich your dick between my ample breasts...")
ChangeSwitch(98,98,0)
ChangeSwitch(96,96,0)
ShowChoices(strings("Ignore her","I want a paizuri"),1)
IfPlayerPicksChoice(0,"Ignore her")
 ShowMessageFace("",0,0,2,3)
 ShowMessage("Luka resists her temptation!")
 RunCommonEvent(1999)
 EndEventProcessing()
 0()
IfPlayerPicksChoice(1,"パイズリしてもらう")
 0()
404()
ShowMessageFace("inp_fc1",1,0,2,4)
ShowMessage("\\n<Imp>Ahaha! You really are a little kid.\nYou want to sink yourself into my boobs... ♪")
ShowMessageFace("inp_fc1",1,0,2,5)
ShowMessage("\\n<Imp>Well then, I'll give you a paizuri, as promised. ♪")
250(bytes(0x04,0x08,0x6f,0x3a,0x0c,0x52,0x50,0x47,0x3a,0x3a,0x53,0x45,0x08,0x3a,0x0a,0x40,0x6e,0x61,0x6d,0x65,0x49,0x22,0x14,0x6d,0x6f,0x6e,0x5f,0x65,0x72,0x6f,0x5f,0x70,0x61,0x69,0x7a,0x75,0x72,0x69,0x06,0x3a,0x06,0x45,0x54,0x3a,0x0b,0x40,0x70,0x69,0x74,0x63,0x68,0x69,0x69,0x3a,0x0c,0x40,0x76,0x6f,0x6c,0x75,0x6d,0x65,0x69,0x69))
311(0,1,1,1,26,true)
PictureDisplay(5,"ev_inp_ct01",0,0,0,0,100,100,255,0)
ShowMessageFace("",0,0,2,6)
ShowMessage("The Imp puts Luka's penis between her breasts!")
ShowMessage("It's getting warmly and gently pressured from both sides!\\D")
ShowMessage("Luka takes \\V[26] damage!")
ChangeVariable(27,27,0,3,3,1,2)
If(1,27,0,0,0)
 JumpToLabel("射精1")
 0()
EndIf()
250(bytes(0x04,0x08,0x6f,0x3a,0x0c,0x52,0x50,0x47,0x3a,0x3a,0x53,0x45,0x08,0x3a,0x0a,0x40,0x6e,0x61,0x6d,0x65,0x49,0x22,0x14,0x6d,0x6f,0x6e,0x5f,0x65,0x72,0x6f,0x5f,0x70,0x61,0x69,0x7a,0x75,0x72,0x69,0x06,0x3a,0x06,0x45,0x54,0x3a,0x0b,0x40,0x70,0x69,0x74,0x63,0x68,0x69,0x69,0x3a,0x0c,0x40,0x76,0x6f,0x6c,0x75,0x6d,0x65,0x69,0x69))
311(0,1,1,1,26,true)
ShowMessageFace("",0,0,2,7)
ShowMessage("Tucked between her plump breasts, Luka's penis revels in the elastic sensation!\\D")
ShowMessage("Luka takes \\V[26] damage!")
ChangeVariable(27,27,0,3,3,1,2)
If(1,27,0,0,0)
 JumpToLabel("射精1")
 0()
EndIf()
ShowMessageFace("inp_fc1",1,0,2,8)
ShowMessage("\\n<Imp>My boobs are soft, right...? ♪\nShould I press them more?")
ShowMessageFace("inp_fc1",1,0,2,9)
ShowMessage("\\n<Imp>You want to be squeezed inside my cleavage, right?\nIf you behave, I'll hug you real tight...♪")
ShowChoices(strings("Resist her temptation","Let her continue"),1)
IfPlayerPicksChoice(0,"Resist her temptation")
 ShowMessageFace("",0,0,2,10)
 ShowMessage("Luka resists her temptation and gets away from the Imp!")
 RunCommonEvent(1999)
 EndEventProcessing()
 0()
IfPlayerPicksChoice(1,"なすがまま")
 ShowMessageFace("",0,0,2,11)
 ShowMessage("Luka lets her squeeze him more...")
 0()
404()
ShowMessageFace("inp_fc1",1,0,2,12)
ShowMessage("\\n<Imp>That's it, don't resist.\nAfter all, if you do, you won't get to taste my paizuri...")
ShowMessageFace("inp_fc1",1,0,2,13)
ShowMessage("\\n<Imp>As you wish, I'll really tighten around you. ♪\nI'll let your penis experience a really soft feeling...♪")
250(bytes(0x04,0x08,0x6f,0x3a,0x0c,0x52,0x50,0x47,0x3a,0x3a,0x53,0x45,0x08,0x3a,0x0a,0x40,0x6e,0x61,0x6d,0x65,0x49,0x22,0x14,0x6d,0x6f,0x6e,0x5f,0x65,0x72,0x6f,0x5f,0x70,0x61,0x69,0x7a,0x75,0x72,0x69,0x06,0x3a,0x06,0x45,0x54,0x3a,0x0b,0x40,0x70,0x69,0x74,0x63,0x68,0x69,0x69,0x3a,0x0c,0x40,0x76,0x6f,0x6c,0x75,0x6d,0x65,0x69,0x69))
311(0,1,1,1,26,true)
ShowMessageFace("",0,0,2,14)
ShowMessage("Luka's penis is getting squeezed in the Imp's cleavage!")
ShowMessage("A soft feeling envelops Luka as even more pressure is applied!\\D")
ShowMessage("Luka takes \\V[26] damage!")
ChangeVariable(27,27,0,3,3,1,2)
If(1,27,0,0,0)
 JumpToLabel("射精1")
 0()
EndIf()
250(bytes(0x04,0x08,0x6f,0x3a,0x0c,0x52,0x50,0x47,0x3a,0x3a,0x53,0x45,0x08,0x3a,0x0a,0x40,0x6e,0x61,0x6d,0x65,0x49,0x22,0x14,0x6d,0x6f,0x6e,0x5f,0x65,0x72,0x6f,0x5f,0x70,0x61,0x69,0x7a,0x75,0x72,0x69,0x06,0x3a,0x06,0x45,0x54,0x3a,0x0b,0x40,0x70,0x69,0x74,0x63,0x68,0x69,0x69,0x3a,0x0c,0x40,0x76,0x6f,0x6c,0x75,0x6d,0x65,0x69,0x69))
311(0,1,1,1,26,true)
ShowMessageFace("",0,0,2,15)
ShowMessage("Luka's penis is captivated by the compressed, crushing feeling!\\D")
ShowMessage("Luka takes \\V[26] damage!")
ChangeVariable(27,27,0,3,3,1,2)
If(1,27,0,0,0)
 JumpToLabel("射精1")
 0()
EndIf()
ShowMessageFace("inp_fc1",1,0,2,16)
ShowMessage("\\n<Imp>Ehehe! Isn't it a heavenly sensation?\nDon't worry, I can service you even more!")
ShowMessageFace("inp_fc1",1,0,2,17)
ShowMessage("\\n<Imp>Going up and down, up, down...\nWhile your dick's sandwiched, squish, squish...")
ShowMessageFace("inp_fc1",1,0,2,18)
ShowMessage("\\n<Imp>That's what you want, right, little hero...?\nNow, let me do all the work...♪")
ShowChoices(strings("Resist her temptation","Let her continue"),1)
IfPlayerPicksChoice(0,"Resist her temptation")
 ShowMessageFace("",0,0,2,19)
 ShowMessage("Luka resists her temptation and gets away from the Imp!")
 RunCommonEvent(1999)
 EndEventProcessing()
 0()
IfPlayerPicksChoice(1,"なすがまま")
 ShowMessageFace("",0,0,2,20)
 ShowMessage("Luka relaxes...")
 0()
404()
ShowMessageFace("inp_fc1",1,0,2,21)
ShowMessage("\\n<Imp>Fufu! Not resisting?\nYou just want me to do more paizuri now, right?")
ShowMessageFace("inp_fc1",1,0,2,22)
ShowMessage("\\n<Imp>As a special service, I'll make you feel a lot better...\nSo, stay like this and let go, okay? ♪")
250(bytes(0x04,0x08,0x6f,0x3a,0x0c,0x52,0x50,0x47,0x3a,0x3a,0x53,0x45,0x08,0x3a,0x0a,0x40,0x6e,0x61,0x6d,0x65,0x49,0x22,0x14,0x6d,0x6f,0x6e,0x5f,0x65,0x72,0x6f,0x5f,0x70,0x61,0x69,0x7a,0x75,0x72,0x69,0x06,0x3a,0x06,0x45,0x54,0x3a,0x0b,0x40,0x70,0x69,0x74,0x63,0x68,0x69,0x69,0x3a,0x0c,0x40,0x76,0x6f,0x6c,0x75,0x6d,0x65,0x69,0x69))
311(0,1,1,1,26,true)
ShowMessageFace("",0,0,2,23)
ShowMessage("While sandwiching Luka's penis, the Imp stretches her breasts!")
ShowMessage("Her soft chest caresses Luka's dick and gives him mind-melting pleasure!\\D")
ShowMessage("Luka takes \\V[26] damage!")
ChangeVariable(27,27,0,3,3,1,2)
If(1,27,0,0,0)
 JumpToLabel("射精1")
 0()
EndIf()
250(bytes(0x04,0x08,0x6f,0x3a,0x0c,0x52,0x50,0x47,0x3a,0x3a,0x53,0x45,0x08,0x3a,0x0a,0x40,0x6e,0x61,0x6d,0x65,0x49,0x22,0x14,0x6d,0x6f,0x6e,0x5f,0x65,0x72,0x6f,0x5f,0x70,0x61,0x69,0x7a,0x75,0x72,0x69,0x06,0x3a,0x06,0x45,0x54,0x3a,0x0b,0x40,0x70,0x69,0x74,0x63,0x68,0x69,0x69,0x3a,0x0c,0x40,0x76,0x6f,0x6c,0x75,0x6d,0x65,0x69,0x69))
311(0,1,1,1,26,true)
ShowMessageFace("",0,0,2,24)
ShowMessage("While moving both her breasts, the Imp crushes Luka's penis between them!")
ShowMessage("Her chest squeezes Luka's penis, firmly constricting it!\\D")
ShowMessage("Luka takes \\V[26] damage!")
ChangeVariable(27,27,0,3,3,1,2)
If(1,27,0,0,0)
 JumpToLabel("射精1")
 0()
EndIf()
ShowMessageFace("inp_fc1",1,0,2,25)
ShowMessage("\\n<Imp>Ahaha! Feels good, right?\nYou'll come soon, won't you?")
ShowMessageFace("inp_fc1",1,0,2,26)
ShowMessage("\\n<Imp>Hey... do you want me to keep squeezing your dick between my boobs until you come?\nYou want to spurt it out while you're stuck between my breasts, right?")
ShowMessageFace("inp_fc1",1,0,2,27)
ShowMessage("\\n<Imp>It's fine... I'll make you come anyway. ♪\nIf you let me, I'll guide you to heaven...♪")
ShowChoices(strings("Resist her temptation","Let her continue"),1)
IfPlayerPicksChoice(0,"Resist her temptation")
 ShowMessageFace("",0,0,2,28)
 ShowMessage("Luka resists her temptation and gets away from the Imp!")
 RunCommonEvent(1999)
 EndEventProcessing()
 0()
IfPlayerPicksChoice(1,"なすがまま")
 ShowMessageFace("",0,0,2,29)
 ShowMessage("Luka wants her to make him come...")
 0()
404()
ShowMessageFace("inp_fc1",1,0,2,30)
ShowMessage("\\n<Imp>Fufu! You'll let me make you come?\nThen I'll make you spurt with my paizuri... ♪")
250(bytes(0x04,0x08,0x6f,0x3a,0x0c,0x52,0x50,0x47,0x3a,0x3a,0x53,0x45,0x08,0x3a,0x0a,0x40,0x6e,0x61,0x6d,0x65,0x49,0x22,0x14,0x6d,0x6f,0x6e,0x5f,0x65,0x72,0x6f,0x5f,0x70,0x61,0x69,0x7a,0x75,0x72,0x69,0x06,0x3a,0x06,0x45,0x54,0x3a,0x0b,0x40,0x70,0x69,0x74,0x63,0x68,0x69,0x69,0x3a,0x0c,0x40,0x76,0x6f,0x6c,0x75,0x6d,0x65,0x69,0x69))
311(0,1,1,1,26,true)
ShowMessageFace("",0,0,2,31)
ShowMessage("Using her breasts' weight, the Imp firmly sandwiches Luka's penis in her cleavage!\\D")
ShowMessage("Luka takes \\V[26] damage!")
ChangeVariable(27,27,0,3,3,1,2)
If(1,27,0,0,0)
 JumpToLabel("射精1")
 0()
EndIf()
250(bytes(0x04,0x08,0x6f,0x3a,0x0c,0x52,0x50,0x47,0x3a,0x3a,0x53,0x45,0x08,0x3a,0x0a,0x40,0x6e,0x61,0x6d,0x65,0x49,0x22,0x14,0x6d,0x6f,0x6e,0x5f,0x65,0x72,0x6f,0x5f,0x70,0x61,0x69,0x7a,0x75,0x72,0x69,0x06,0x3a,0x06,0x45,0x54,0x3a,0x0b,0x40,0x70,0x69,0x74,0x63,0x68,0x69,0x69,0x3a,0x0c,0x40,0x76,0x6f,0x6c,0x75,0x6d,0x65,0x69,0x69))
311(0,1,1,1,26,true)
ShowMessageFace("",0,0,2,32)
ShowMessage("Alternating between her left and right breast, the Imp presses herself against Luka's dick!\\D")
ShowMessage("Luka takes \\V[26] damage!")
ChangeVariable(27,27,0,3,3,1,2)
If(1,27,0,0,0)
 JumpToLabel("射精1")
 0()
EndIf()
ShowMessageFace("inp_fc1",1,0,2,33)
ShowMessage("\\n<Imp>Ahaha! You're coming in my cleavage!\nHow shameful of you to get toyed with by a low-class demon like me... little hero. ♪")
ShowMessageFace("inp_fc1",1,0,2,34)
ShowMessage("\\n<Imp>Hoora... Cooome! ♪")
250(bytes(0x04,0x08,0x6f,0x3a,0x0c,0x52,0x50,0x47,0x3a,0x3a,0x53,0x45,0x08,0x3a,0x0a,0x40,0x6e,0x61,0x6d,0x65,0x49,0x22,0x14,0x6d,0x6f,0x6e,0x5f,0x65,0x72,0x6f,0x5f,0x70,0x61,0x69,0x7a,0x75,0x72,0x69,0x06,0x3a,0x06,0x45,0x54,0x3a,0x0b,0x40,0x70,0x69,0x74,0x63,0x68,0x69,0x69,0x3a,0x0c,0x40,0x76,0x6f,0x6c,0x75,0x6d,0x65,0x69,0x69))
311(0,1,1,1,26,true)
ShowMessageFace("",0,0,2,35)
ShowMessage("The Imp presses Luka's penis tightly between her breasts!")
ShowMessage("She firmly drags it up and down!\\D")
ShowMessage("Luka takes \\V[26] damage!")
ChangeVariable(27,27,0,3,3,1,2)
If(1,27,0,0,0)
 JumpToLabel("射精1")
 0()
EndIf()
250(bytes(0x04,0x08,0x6f,0x3a,0x0c,0x52,0x50,0x47,0x3a,0x3a,0x53,0x45,0x08,0x3a,0x0a,0x40,0x6e,0x61,0x6d,0x65,0x49,0x22,0x14,0x6d,0x6f,0x6e,0x5f,0x65,0x72,0x6f,0x5f,0x70,0x61,0x69,0x7a,0x75,0x72,0x69,0x06,0x3a,0x06,0x45,0x54,0x3a,0x0b,0x40,0x70,0x69,0x74,0x63,0x68,0x69,0x69,0x3a,0x0c,0x40,0x76,0x6f,0x6c,0x75,0x6d,0x65,0x69,0x69))
311(0,1,1,1,26,true)
ShowMessageFace("",0,0,2,36)
ShowMessage("Luka's penis is expertly trapped by the Imp's chest!")
ShowMessage("The pressing stimulation makes him feel like he's melting!\\D")
ShowMessage("Luka takes \\V[26] damage!")
ChangeVariable(27,27,0,3,3,1,2)
If(1,27,0,0,0)
 JumpToLabel("射精1")
 0()
EndIf()
DefineLabel("射精1")
ShowMessageFace("",0,0,2,37)
ShowMessage("\\n<Luka>Fwaah... It's coming out...")
RunCommonEvent(104)
PictureDisplay(5,"ev_inp_ct02",0,0,0,0,100,100,255,0)
RunCommonEvent(105)
ShowMessageFace("",0,0,2,38)
ShowMessage("Unable to endure the paizuri, Luka spurts out his sperm into the Imp's cleavage.")
ShowMessage("Her voluptuous breasts are getting dirtied by his semen.")
ShowMessageFace("inp_fc1",1,0,2,39)
ShowMessage("\\n<Imp>Ahaha! Your dick's twitching in my cleavaaage! ♪\nAren't you ashamed of letting out so much, little hero...? ♪")
RunCommonEvent(2000)
EndEventProcessing()
0()
