// EVENT 4426
Name "Little Bug"

If(0,25,1)
 221()
 PictureClear(5)
 PictureClear(6)
 ShowMessageFace("",0,0,2,0)
 ShowMessage("......")
 242(2)
 Wait(120)
 241(bytes(0x04,0x08,0x6f,0x3a,0x0d,0x52,0x50,0x47,0x3a,0x3a,0x42,0x47,0x4d,0x08,0x3a,0x0a,0x40,0x6e,0x61,0x6d,0x65,0x49,0x22,0x0c,0x63,0x61,0x73,0x74,0x6c,0x65,0x36,0x06,0x3a,0x06,0x45,0x54,0x3a,0x0c,0x40,0x76,0x6f,0x6c,0x75,0x6d,0x65,0x69,0x69,0x3a,0x0b,0x40,0x70,0x69,0x74,0x63,0x68,0x69,0x69))
 EndEventProcessing()
 0()
EndIf()
PictureDisplay(5,"80_littlebug_st02",0,0,0,0,100,100,255,0)
ShowMessageFace("littlebug_fc1",0,0,2,1)
ShowMessage("\\n<Lippy>You want me to pleasure you?")
ShowMessageFace("",0,0,2,2)
ShowMessage("\\n<Luka>P-please...")
ShowMessageFace("littlebug_fc1",0,0,2,3)
ShowMessage("\\n<Lippy>Okay, I'll make you my latest prey!")
241(bytes(0x04,0x08,0x6f,0x3a,0x0d,0x52,0x50,0x47,0x3a,0x3a,0x42,0x47,0x4d,0x08,0x3a,0x0a,0x40,0x6e,0x61,0x6d,0x65,0x49,0x22,0x09,0x65,0x72,0x6f,0x31,0x06,0x3a,0x06,0x45,0x54,0x3a,0x0c,0x40,0x76,0x6f,0x6c,0x75,0x6d,0x65,0x69,0x69,0x3a,0x0b,0x40,0x70,0x69,0x74,0x63,0x68,0x69,0x69))
PictureDisplay(5,"ev_littlebug_ha01",0,0,0,0,100,100,0,0)
PictureMove(5,null,0,0,0,0,100,100,255,0,30,true)
ShowMessageFace("",0,0,2,4)
ShowMessage("Lippy wraps my arms and legs with sticky webbing while ripping off my clothes. Before long, she has me bound with my legs splayed out.")
ShowMessageFace("littlebug_fc1",1,0,2,5)
ShowMessage("\\n<Lippy>Haha, don't you look great now?\nYou're all tied up with your weak spot fully exposed!")
ShowMessageFace("littlebug_fc1",1,0,2,6)
ShowMessage("\\n<Lippy>Your dick is already so big and hard too...\nI won't keep you waiting. It's mating time!")
PictureDisplay(5,"ev_littlebug_ha02",0,0,0,0,100,100,255,0)
ShowMessageFace("",0,0,2,7)
ShowMessage("The tip of Lippy's abdomen opens with a slimy, wet pop.\nNo way, she's going to stick my penis in there?")
ShowMessageFace("",0,0,2,8)
ShowMessage("\\n<Luka>Umm, maybe we shouldn't m-mate...")
ShowMessageFace("littlebug_fc1",1,0,2,9)
ShowMessage("\\n<Lippy>Haha, don't worry!\nI'm reeeeeeally good at this.")
ShowMessageFace("littlebug_fc1",1,0,2,10)
ShowMessage("\\n<Lippy>I've raped lots and lots of lost humans. ♪\nI'll squeeze your dick in here juuuuuust fine!")
PictureDisplay(5,"ev_littlebug_ha03",0,0,0,0,100,100,255,0)
ShowMessageFace("",0,0,2,11)
ShowMessage("Lipppy rubs the spongy flesh of her reproductive orifice against the tip of my penis, coating it in a thin layer of viscous fluid.")
ShowMessageFace("",0,0,2,12)
ShowMessage("\\n<Luka>Aaah... Don't...")
ShowMessageFace("",0,0,2,13)
ShowMessage("Overcome with the disgust of mating with an insect monster, I frantically try to get away.")
ShowMessageFace("",0,0,2,14)
ShowMessage("But the sticky threads binding my arms and legs are tough and prevent me from struggling. The only movement I managed to accomplish was shaking my waist.")
ShowMessageFace("littlebug_fc1",1,0,2,15)
ShowMessage("\\n<Lippy>Hahaha, you're that grossed out?\nInsect pussy is the best, though. You'll be gushing out every sperm you have in no time.")
ShowMessageFace("",0,0,2,16)
ShowMessage("\\n<Luka>Ah, aaah...")
ShowMessageFace("",0,0,2,17)
ShowMessage("Lippy's reproductive orifice hovers directly over my penis and opens wider, as if getting ready to swallow me whole.")
PictureDisplay(5,"ev_littlebug_ha04",0,0,0,0,100,100,255,0)
245(bytes(0x04,0x08,0x6f,0x3a,0x0d,0x52,0x50,0x47,0x3a,0x3a,0x42,0x47,0x53,0x08,0x3a,0x0a,0x40,0x6e,0x61,0x6d,0x65,0x49,0x22,0x17,0x6d,0x6f,0x6e,0x5f,0x68,0x73,0x65,0x61,0x6e,0x31,0x36,0x5f,0x6b,0x79,0x75,0x69,0x6e,0x33,0x06,0x3a,0x06,0x45,0x54,0x3a,0x0c,0x40,0x76,0x6f,0x6c,0x75,0x6d,0x65,0x69,0x55,0x3a,0x0b,0x40,0x70,0x69,0x74,0x63,0x68,0x69,0x69))
ShowMessageFace("",0,0,2,18)
ShowMessage("After what feels like ages, her insect genitalia drops and covers my glans!")
ShowMessageFace("",0,0,2,19)
ShowMessage("\\n<Luka>Oh man... Ah, aaaah...!")
ShowMessageFace("",0,0,2,20)
ShowMessage("I can feel her insides twisting and turning as they tightly squeeze my head. There isn't a single spot that isn't touching her warm, slimy flesh.")
ShowMessageFace("littlebug_fc1",1,0,2,21)
ShowMessage("\\n<Lippy>Ahaha, I got you inside!\nHave you gotten over the shock and realized it yet? You're mating with an insect pussy!")
ShowMessageFace("",0,0,2,22)
ShowMessage("\\n<Luka>N-no... Unnngh...")
ShowMessageFace("",0,0,2,23)
ShowMessage("My whole body shivers in disgust at being forced to copulate with something so completely different from another human.")
ShowMessageFace("littlebug_fc1",1,0,2,24)
ShowMessage("\\n<Lippy>What, still scared?\nYeah, human men tend to hate it at first...")
ShowMessageFace("littlebug_fc1",1,0,2,25)
ShowMessage("\\n<Lippy>But once I do this...!")
PictureDisplay(5,"ev_littlebug_ha05",0,0,0,0,100,100,255,0)
ShowMessageFace("",0,0,2,26)
ShowMessage("Lippy drives her abdomen up and down like a piston, vigorously stroking my penis inside her slick hole!")
ShowMessageFace("",0,0,2,27)
ShowMessage("\\n<Luka>Ah... Aaaah!!")
ShowMessageFace("",0,0,2,28)
ShowMessage("Her canal is lined with tiny bumps and creases that press into my flesh with every stroke.")
ShowMessageFace("",0,0,2,29)
ShowMessage("The sensation of her creases dragging along the underside of my head is especially stimulating, and the feelings of revulsion I had are quickly being overwritten by pleasure.")
ShowMessageFace("",0,0,2,30)
ShowMessage("\\n<Luka>Stop, stop... Aaah...")
PictureDisplay(5,"ev_littlebug_ha06",0,0,0,0,100,100,255,0)
ShowMessageFace("littlebug_fc1",1,0,2,31)
ShowMessage("\\n<Lippy>My mating technique is the best, isn't it? I haven't raped a man who didn't come screaming in ecstasy when I did this!")
ShowMessageFace("littlebug_fc1",1,0,2,32)
ShowMessage("\\n<Lippy>Getting stuck in and pumped by a completely different species until you shoot out your sperm... That's gotta be miserable for you guys!")
PictureDisplay(5,"ev_littlebug_ha07",0,0,0,0,100,100,255,0)
ShowMessageFace("",0,0,2,33)
ShowMessage("\\n<Luka>Hya... Ah, aaaah...!!")
ShowMessageFace("",0,0,2,34)
ShowMessage("Lippy's piston motion keeps getting faster and faster as she strokes my penis inside her reproductive organ, trying to force me to ejaculate.")
ShowMessageFace("",0,0,2,35)
ShowMessage("It's disgusting enough to be mating with this inhuman creature, but it's humiliating to feel such pleasure from her grotesque genitals.")
ShowMessageFace("",0,0,2,36)
ShowMessage("\\n<Luka>Ah, unnngh... Guh...")
ShowMessageFace("littlebug_fc1",1,0,2,37)
ShowMessage("\\n<Lippy>Wait a minute, are you trying to hold it in?\nWell then, let me put all that effort to waste!")
ShowMessageFace("",0,0,2,38)
ShowMessage("Lippy relaxes her abdomen and takes a break from stroking. The second I start to think I've been saved--")
PictureDisplay(5,"ev_littlebug_ha08",0,0,0,0,100,100,255,0)
ShowMessageFace("littlebug_fc1",1,0,2,39)
ShowMessage("\\n<Lippy>Hora, come all the way in!")
ShowMessageFace("",0,0,2,40)
ShowMessage("Her insect hole swallows my entire shaft down to the base in one smooth motion, my head plunging into the deepest reaches of her organ.")
ShowMessageFace("littlebug_fc1",1,0,2,41)
ShowMessage("\\n<Lippy>Hahaha look, I fit every inch of you inside me. ♪\nWe're fully connected now!")
ShowMessageFace("",0,0,2,42)
ShowMessage("\\n<Luka>Aaah... W-why...")
PictureDisplay(5,"ev_littlebug_ha09",0,0,0,0,100,100,255,0)
ShowMessageFace("",0,0,2,43)
ShowMessage("My penis is immersed in sensations that words can hardly describe. It's like her sticky canal is squirming and coiling around every inch of my shaft.")
ShowMessageFace("littlebug_fc1",1,0,2,44)
ShowMessage("\\n<Lippy>Hahaha, how does my insect pussy feel?\nCan you even still speak...?")
ShowMessageFace("littlebug_fc1",1,0,2,45)
ShowMessage("\\n<Lippy>If you come now, you'll spray semen all over my eggs, you know. Are you really going to plaster my eggs with your seed?")
ShowMessageFace("",0,0,2,46)
ShowMessage("\\n<Luka>Ah, aaah...")
ShowMessageFace("",0,0,2,47)
ShowMessage("It's not like I have any hope of resisting at this point. Once I was swallowed up by her insect reproductive organ, I didn't stand a chance of holding it in.")
ShowMessageFace("littlebug_fc1",1,0,2,48)
ShowMessage("\\n<Lippy>Hora, come...\nShoot it all out onto the eggs in my insect pussy.")
ShowMessageFace("littlebug_fc1",1,0,2,49)
ShowMessage("\\n<Lippy>Come, come... Hora, come!\nI want your sperm now! Comecomecomeeeee! ♪")
ShowMessageFace("",0,0,2,50)
ShowMessage("\\n<Luka>M-must not... I can't, but...\nAh, aaah...")
RunCommonEvent(104)
PictureDisplay(5,"ev_littlebug_ha10",0,0,0,0,100,100,255,0)
RunCommonEvent(105)
ShowMessageFace("",0,0,2,51)
ShowMessage("Unable to last any longer, I ejaculate into her.\nAs I come, I can picture in my mind all the eggs stuffed in there--")
ShowMessageFace("littlebug_fc1",1,0,2,52)
ShowMessage("\\n<Lippy>Ahaha, you came! ♪\nYour sperm are gushing out inside me!")
ShowMessageFace("",0,0,2,53)
ShowMessage("\\n<Luka>Aaah... I couldn't do it...")
ShowMessageFace("",0,0,2,54)
ShowMessage("I can feel her alien depths squirming with tiny wet orbs. There's no doubt those are her eggs.")
ShowMessageFace("",0,0,2,55)
ShowMessage("And I'm releasing my sperm all over them--")
PictureDisplay(5,"ev_littlebug_ha12",0,0,0,0,100,100,255,0)
ShowMessageFace("littlebug_fc1",1,0,2,56)
ShowMessage("\\n<Lippy>Sooo, how does it feel?\nFertilizing insect eggs, I mean...")
ShowMessageFace("littlebug_fc1",1,0,2,57)
ShowMessage("\\n<Lippy>Mating felt great, though, didn't it?\nYou shot out so much thick, sticky semen, after all...")
ShowMessageFace("",0,0,2,58)
ShowMessage("\\n<Luka>U-ugh...")
ShowMessageFace("",0,0,2,59)
ShowMessage("My pride as a man is smashed, and I'm left to wallow in the pinnacle of humiliation. I'm so miserable that tears begin to stream down my cheeks--")
ShowMessageFace("littlebug_fc1",1,0,2,60)
ShowMessage("\\n<Lippy>Awww, you're crying...\nThe guys I rape always end up pitiful and crying.")
ShowMessageFace("littlebug_fc1",1,0,2,61)
ShowMessage("\\n<Lippy>But don't worry, I'll comfort you and help you forget all your worries...\nHora, hora! Horaa!")
PictureDisplay(5,"ev_littlebug_ha13",0,0,0,0,100,100,255,0)
ShowMessageFace("",0,0,2,62)
ShowMessage("Lippy begins driving her abdomen up and down again, stroking my penis with an intense piston motion!")
ShowMessageFace("",0,0,2,63)
ShowMessage("\\n<Luka>Ah... Aaaaaah!!")
ShowMessageFace("littlebug_fc1",1,0,2,64)
ShowMessage("\\n<Lippy>Come on, shoot out more of your sperm!\nOnce I suck out most of them, you should quiet down!")
ShowMessageFace("littlebug_fc1",1,0,2,65)
ShowMessage("\\n<Lippy>Plus, I've got lots of eggs, so I'm going to need every drop you've got to fertilize them all!")
ShowMessageFace("",0,0,2,66)
ShowMessage("\\n<Luka>Oh, please no...\nAaaah...!")
PictureDisplay(5,"ev_littlebug_ha14",0,0,0,0,100,100,255,0)
ShowMessageFace("littlebug_fc1",1,0,2,67)
ShowMessage("\\n<Lippy>You keep complaining, but I know you love being raped by an insect! Your dick is feeling wonderful, isn't it?")
ShowMessageFace("littlebug_fc1",1,0,2,68)
ShowMessage("\\n<Lippy>My insect pussy kneading and stroking your cock feels awesome, right!?")
ShowMessageFace("",0,0,2,69)
ShowMessage("\\n<Luka>Of course... not...\nNnngh...")
ShowMessageFace("littlebug_fc1",1,0,2,70)
ShowMessage("\\n<Lippy>Your dick loves being fucked by insect pussy, doesn't it!? Be honest and admit it, then unload another round into me!")
ShowMessageFace("",0,0,2,71)
ShowMessage("\\n<Luka>Aaah... Aaah...")
ShowMessageFace("",0,0,2,72)
ShowMessage("My penis slides along the slimy inner walls of her reproductive organ, the resulting friction hitting me with waves of maddening stimulation on every stroke.")
ShowMessageFace("",0,0,2,73)
ShowMessage("Each time I plunge all the way inside, my glans nuzzles up against her eggs. The queer squirming sensation brings me a repulsive sense of delight.")
ShowMessageFace("littlebug_fc1",1,0,2,74)
ShowMessage("\\n<Lippy>Your reaction sure is interesting...\nIt's the same one dogs have when I rape them!")
ShowMessageFace("",0,0,2,75)
ShowMessage("\\n<Luka>Y-you rape dogs...?")
ShowMessageFace("littlebug_fc1",1,0,2,76)
ShowMessage("\\n<Lippy>My pussy isn't a picky eater.\nI can mate with males of any species!")
ShowMessageFace("",0,0,2,77)
ShowMessage("\\n<Luka>Any species?\nThat's...")
ShowMessageFace("littlebug_fc1",1,0,2,78)
ShowMessage("\\n<Lippy>My reproductive capacity is the highest among monsters. As long as it's got a dick, I can make it ejaculate and impregnate me!")
ShowMessageFace("littlebug_fc1",1,0,2,79)
ShowMessage("\\n<Lippy>It does a good job of pleasuring human cocks too, right? Now hurry up and come!")
ShowMessageFace("",0,0,2,80)
ShowMessage("\\n<Luka>Nnngh...\nI don't want...")
ShowMessageFace("",0,0,2,81)
ShowMessage("I try to resist the urge to ejaculate, but the pleasure from her insect organ overcomes my natural sense of disgust.")
ShowMessageFace("littlebug_fc1",1,0,2,82)
ShowMessage("\\n<Lippy>Hora, you're about to come, aren't you?\nShoot out your semen like every other animal!")
ShowMessageFace("",0,0,2,83)
ShowMessage("\\n<Luka>No...\nAh, aaaah...!!")
ShowMessageFace("",0,0,2,84)
ShowMessage("No matter how hard I protest, my male instincts surrender to her intense piston--")
RunCommonEvent(104)
PictureDisplay(5,"ev_littlebug_ha18",0,0,0,0,100,100,255,0)
RunCommonEvent(105)
ShowMessageFace("",0,0,2,85)
ShowMessage("I inevitably release more semen into her reproductive organ, delivering the sperm that her eggs need to be fertilized.")
ShowMessageFace("littlebug_fc1",1,0,2,86)
ShowMessage("\\n<Lippy>Haha, pew pew! ♪\nYou tried so hard to last, but toooooo baaaaad. ♪")
PictureDisplay(5,"ev_littlebug_ha19",0,0,0,0,100,100,255,0)
ShowMessageFace("littlebug_fc1",1,0,2,87)
ShowMessage("\\n<Lippy>Hora, we've got a lot more mating to do.\nI'll make you come no matter how miserable it makes you. ♪")
ShowMessageFace("",0,0,2,88)
ShowMessage("\\n<Luka>Hya... Aaaah!!")
ShowMessageFace("",0,0,2,89)
ShowMessage("I barely finish ejaculating before she resumes her intense pumping, relentlessly stimulating the pleasure-sensitive areas of my shaft and driving me towards another climax.")
ShowMessageFace("littlebug_fc1",1,0,2,90)
ShowMessage("\\n<Lippy>Hora hora, how do you like this...?\nNo human woman is capable of this speed!")
ShowMessageFace("littlebug_fc1",1,0,2,91)
ShowMessage("\\n<Lippy>Must be nice, getting to fuck an insect hole...\nYou'd normally never get to experience sex this good!")
ShowMessageFace("",0,0,2,92)
ShowMessage("\\n<Luka>Ahii... Aaaah!!")
ShowMessageFace("littlebug_fc1",1,0,2,93)
ShowMessage("\\n<Lippy>I'm not even at my top speed yet!\nHere, I'll let the lining of my insect hole really abuse your dick!")
PictureDisplay(5,"ev_littlebug_ha20",0,0,0,0,100,100,255,0)
ShowMessageFace("",0,0,2,94)
ShowMessage("\\n<Luka>Ah, aaaah!!\nStop, I'm going to go mad!!")
ShowMessageFace("",0,0,2,95)
ShowMessage("The mucous membranes along her inner walls sloppily rub my entire length. My nerves are overloaded with sensation from all sides as if I'm caught up in a tornado of pleasure.")
ShowMessageFace("",0,0,2,96)
ShowMessage("My whole body convulses, and all I can do is scream out--")
ShowMessageFace("littlebug_fc1",1,0,2,97)
ShowMessage("\\n<Lippy>Hora, coming agaaaaaain?\nFlood my pussy with your seed!")
ShowMessageFace("",0,0,2,98)
ShowMessage("\\n<Luka>Ah, aaaah!!")
RunCommonEvent(104)
PictureDisplay(5,"ev_littlebug_ha21",0,0,0,0,100,100,255,0)
RunCommonEvent(105)
ShowMessageFace("",0,0,2,99)
ShowMessage("I release a steady stream of semen into her disgusting insect reproductive organ. Despite that, Lippy doesn't stop pumping me--")
ShowMessageFace("",0,0,2,100)
ShowMessage("\\n<Luka>Stop! I'm really losing my mind!!\nAh, aaaaaah!!")
ShowMessageFace("littlebug_fc1",1,0,2,101)
ShowMessage("\\n<Lippy>Ahaha, lose it then!\nGo crazy with your dick in my insect pussy!")
ShowMessageFace("littlebug_fc1",1,0,2,102)
ShowMessage("\\n<Lippy>I'm going to make you come over and over and squeeze out every last sperm! I'll rape you until your dick withers!")
ShowMessageFace("",0,0,2,103)
ShowMessage("\\n<Luka>Hyaaa!")
RunCommonEvent(104)
PictureDisplay(5,"ev_littlebug_ha22",0,0,0,0,100,100,255,0)
RunCommonEvent(105)
ShowMessageFace("",0,0,2,104)
ShowMessage("Her intense piston leads me to successive ejaculations, but Lippy doesn't let up for a second--")
ShowMessageFace("littlebug_fc1",1,0,2,105)
ShowMessage("\\n<Lippy>Ahaha, mating with humans is so much more fun than dogs! Being able to communicate with the animal you're raping is the best!")
ShowMessageFace("",0,0,2,106)
ShowMessage("\\n<Luka>N-noooo... No more!\nHyaaa!")
RunCommonEvent(104)
RunCommonEvent(105)
ShowMessageFace("littlebug_fc1",1,0,2,107)
ShowMessage("\\n<Lippy>Hora, let me hear you scream louder!\nFill my pussy with sperm while you wail!")
ShowMessageFace("",0,0,2,108)
ShowMessage("\\n<Luka>I can't take anymore... Aaaah!!")
RunCommonEvent(104)
RunCommonEvent(105)
ShowMessageFace("littlebug_fc1",1,0,2,109)
ShowMessage("\\n<Lippy>Not as much that time...\nI guess I better squeeze you tighter then!")
ShowMessageFace("",0,0,2,110)
ShowMessage("\\n<Luka>D-don't... Aaah...")
RunCommonEvent(104)
RunCommonEvent(105)
ShowMessageFace("littlebug_fc1",1,0,2,111)
ShowMessage("\\n<Lippy>Haha, you're getting really weak!\nShould I keep going and kill you?!")
ShowMessageFace("",0,0,2,112)
ShowMessage("\\n<Luka>Nnngh...")
RunCommonEvent(104)
RunCommonEvent(105)
ShowMessageFace("",0,0,2,113)
ShowMessage("She forces me to ejaculate many more times.\nNo matter how much I come, she rapes me over and over--")
ShowMessageFace("",0,0,2,114)
ShowMessage("...and over and over and over--")
221()
PictureClear(5)
246(2)
ShowMessageFace("",0,0,2,115)
ShowMessage("\\n<Luka>......")
ShowMessageFace("",0,0,2,116)
ShowMessage("I'm eventually raped into unconsciousness.\nI wake up the next morning, abandoned alone in a back hallway--")
ShowMessageFace("",0,0,2,117)
ShowMessage("......")
242(2)
Wait(120)
241(bytes(0x04,0x08,0x6f,0x3a,0x0d,0x52,0x50,0x47,0x3a,0x3a,0x42,0x47,0x4d,0x08,0x3a,0x0a,0x40,0x6e,0x61,0x6d,0x65,0x49,0x22,0x0c,0x63,0x61,0x73,0x74,0x6c,0x65,0x36,0x06,0x3a,0x06,0x45,0x54,0x3a,0x0c,0x40,0x76,0x6f,0x6c,0x75,0x6d,0x65,0x69,0x69,0x3a,0x0b,0x40,0x70,0x69,0x74,0x63,0x68,0x69,0x69))
0()
