// EVENT 2180
Name "Seduction: High Minotauros"

355("$game_troop.lose_event_id = 3180")
ChangeVariable(26,26,0,3,3,1,4)
ChangeVariable(26,26,4,0,10)
ShowMessageFace("h_mino_fc1",1,0,2,1)
ShowMessage("\\n<High Minotauros>")
ShowMessage("I'm stuck in a corner.")
ShowMessage("In that case, then...")
355("battler_graphic_hide")
PictureDisplay(5,"ev_h_mino_ha1",0,0,0,0,100,100,255,0)
ShowMessageFace("",0,0,2,2)
ShowMessage("High Minotauros strips off her clothes, and holds Luka!")
ShowMessage("She grabs his penis with her soft palm!")
ShowMessageFace("h_mino_fc1",0,0,2,3)
ShowMessage("\\n<High Minotauros>")
ShowMessage("Be still for a moment.")
ShowMessage("I'll squeeze out your milk like this. ♪")
ChangeSwitch(98,98,0)
ChangeSwitch(96,96,0)
ShowChoices(strings("Struggle","Let her continue"),1)
IfPlayerPicksChoice(0,"もがく")
 ShowMessageFace("",0,0,2,4)
 ShowMessage("But Luka struggles, breaking free!")
 RunCommonEvent(1999)
 EndEventProcessing()
 0()
IfPlayerPicksChoice(1,"なすがまま")
 0()
404()
ShowMessageFace("h_mino_fc1",0,0,2,5)
ShowMessage("\\n<High Minotauros>")
ShowMessage("Fufu, good boy.")
ShowMessage("Then, I'll massage your penis. ♪")
ChangeVariable(26,26,3,0,3)
250(bytes(0x04,0x08,0x6f,0x3a,0x0c,0x52,0x50,0x47,0x3a,0x3a,0x53,0x45,0x08,0x3a,0x0a,0x40,0x6e,0x61,0x6d,0x65,0x49,0x22,0x12,0x6d,0x6f,0x6e,0x5f,0x65,0x72,0x6f,0x5f,0x6b,0x6f,0x6b,0x69,0x31,0x06,0x3a,0x06,0x45,0x54,0x3a,0x0b,0x40,0x70,0x69,0x74,0x63,0x68,0x69,0x69,0x3a,0x0c,0x40,0x76,0x6f,0x6c,0x75,0x6d,0x65,0x69,0x69))
311(0,1,1,1,26,true)
ShowMessageFace("",0,0,2,6)
ShowMessage("High Minotauros slowly strokes Luka!")
ShowMessage("Her soft hand gently caresses him!\\D")
ShowMessage("Luka takes \\V[26] damage!")
ChangeVariable(27,27,0,3,3,1,2)
If(1,27,0,0,0)
 JumpToLabel("射精1")
 0()
EndIf()
ShowMessageFace("h_mino_fc1",0,0,2,7)
ShowMessage("\\n<High Minotauros>")
ShowMessage("I'll squeeze out your milk like this.")
ShowMessage("All you have to do is let me go after...")
250(bytes(0x04,0x08,0x6f,0x3a,0x0c,0x52,0x50,0x47,0x3a,0x3a,0x53,0x45,0x08,0x3a,0x0a,0x40,0x6e,0x61,0x6d,0x65,0x49,0x22,0x12,0x6d,0x6f,0x6e,0x5f,0x65,0x72,0x6f,0x5f,0x6b,0x6f,0x6b,0x69,0x31,0x06,0x3a,0x06,0x45,0x54,0x3a,0x0b,0x40,0x70,0x69,0x74,0x63,0x68,0x69,0x69,0x3a,0x0c,0x40,0x76,0x6f,0x6c,0x75,0x6d,0x65,0x69,0x69))
311(0,1,1,1,26,true)
ShowMessageFace("",0,0,2,8)
ShowMessage("The Minotauros slowly strokes him!")
ShowMessage("Her soft hands lovingly pet his penis!\\D")
ShowMessage("Luka takes \\V[26] damage!")
ChangeVariable(27,27,0,3,3,1,2)
If(1,27,0,0,0)
 JumpToLabel("射精1")
 0()
EndIf()
ShowMessageFace("h_mino_fc1",0,0,2,9)
ShowMessage("\\n<High Minotauros>")
ShowMessage("I'll make you come quickly the first time...")
ShowMessage("So I'll make it a bit stronger now. ♪")
250(bytes(0x04,0x08,0x6f,0x3a,0x0c,0x52,0x50,0x47,0x3a,0x3a,0x53,0x45,0x08,0x3a,0x0a,0x40,0x6e,0x61,0x6d,0x65,0x49,0x22,0x12,0x6d,0x6f,0x6e,0x5f,0x65,0x72,0x6f,0x5f,0x6b,0x6f,0x6b,0x69,0x31,0x06,0x3a,0x06,0x45,0x54,0x3a,0x0b,0x40,0x70,0x69,0x74,0x63,0x68,0x69,0x69,0x3a,0x0c,0x40,0x76,0x6f,0x6c,0x75,0x6d,0x65,0x69,0x69))
311(0,1,1,1,26,true)
ShowMessageFace("",0,0,2,10)
ShowMessage("The Minotauros strengthens her grip as she strokes!")
ShowMessage("The sweet, soft tightness forces pleasure into Luka!\\D")
ShowMessage("Luka takes \\V[26] damage!")
ChangeVariable(27,27,0,3,3,1,2)
If(1,27,0,0,0)
 JumpToLabel("射精1")
 0()
EndIf()
ShowMessageFace("h_mino_fc1",0,0,2,11)
ShowMessage("\\n<High Minotauros>")
ShowMessage("Now for the finish...")
ShowMessage("Please come. ♪")
250(bytes(0x04,0x08,0x6f,0x3a,0x0c,0x52,0x50,0x47,0x3a,0x3a,0x53,0x45,0x08,0x3a,0x0a,0x40,0x6e,0x61,0x6d,0x65,0x49,0x22,0x12,0x6d,0x6f,0x6e,0x5f,0x65,0x72,0x6f,0x5f,0x6b,0x6f,0x6b,0x69,0x31,0x06,0x3a,0x06,0x45,0x54,0x3a,0x0b,0x40,0x70,0x69,0x74,0x63,0x68,0x69,0x69,0x3a,0x0c,0x40,0x76,0x6f,0x6c,0x75,0x6d,0x65,0x69,0x69))
311(0,1,1,1,26,true)
ShowMessageFace("",0,0,2,12)
ShowMessage("Her fingers rub against the neck of Luka's penis!")
ShowMessage("Stroking him up and down, she moves to force him to climax!\\D")
ShowMessage("Luka takes \\V[26] damage!")
ChangeVariable(27,27,0,3,3,1,2)
If(1,27,0,0,0)
 JumpToLabel("射精1")
 0()
EndIf()
DefineLabel("射精1")
ShowMessageFace("",0,0,2,13)
ShowMessage("\\n<Luka>No, I'm coming... Ahhh...")
RunCommonEvent(104)
PictureDisplay(5,"ev_h_mino_ha2",0,0,0,0,100,100,255,0)
RunCommonEvent(105)
PictureDisplay(5,"ev_h_mino_ha3",0,0,0,0,100,100,255,0)
ShowMessageFace("",0,0,2,14)
ShowMessage("Gently stroking me, she forces me to come.")
ShowMessage("It really feels like I was milked...")
ShowMessageFace("h_mino_fc1",0,0,2,15)
ShowMessage("\\n<High Minotauros>")
ShowMessage("Ufufu, good job.")
ShowMessage("You came so much. ♪")
RunCommonEvent(2000)
EndEventProcessing()
0()
