// EVENT 4491
Name "Fairies"

If(0,25,1)
 221()
 PictureClear(5)
 PictureClear(6)
 ShowMessageFace("",0,0,2,0)
 ShowMessage("......")
 242(2)
 Wait(120)
 241(bytes(0x04,0x08,0x6f,0x3a,0x0d,0x52,0x50,0x47,0x3a,0x3a,0x42,0x47,0x4d,0x08,0x3a,0x0a,0x40,0x6e,0x61,0x6d,0x65,0x49,0x22,0x0c,0x63,0x61,0x73,0x74,0x6c,0x65,0x36,0x06,0x3a,0x06,0x45,0x54,0x3a,0x0c,0x40,0x76,0x6f,0x6c,0x75,0x6d,0x65,0x69,0x69,0x3a,0x0b,0x40,0x70,0x69,0x74,0x63,0x68,0x69,0x69))
 EndEventProcessing()
 0()
EndIf()
PictureDisplay(5,"80_fairys_st01",0,0,0,0,100,100,255,0)
ShowMessageFace("fairys_fc1",0,0,2,1)
ShowMessage("\\n<Fairy A>Hey, play with us ♪")
ShowMessageFace("",0,0,2,2)
ShowMessage("\\n<Luka>Okay, okay... What do you want play?")
ShowMessageFace("fairys_fc1",0,0,2,3)
ShowMessage("\\n<Fairy A>Well then... Punish the bad guys!\nBig bro is a bad Hero teased by faries ♪")
ShowMessageFace("fairys_fc2",1,0,2,4)
ShowMessage("\\n<Fairy B>Bad Hero, we will violate you. ♪\nYou cannot move thanks the power of the forest...♪")
ShowMessageFace("",0,0,2,5)
ShowMessage("\\n<Luka>Eh, hold on...Uwaaa!")
241(bytes(0x04,0x08,0x6f,0x3a,0x0d,0x52,0x50,0x47,0x3a,0x3a,0x42,0x47,0x4d,0x08,0x3a,0x0a,0x40,0x6e,0x61,0x6d,0x65,0x49,0x22,0x09,0x65,0x72,0x6f,0x31,0x06,0x3a,0x06,0x45,0x54,0x3a,0x0c,0x40,0x76,0x6f,0x6c,0x75,0x6d,0x65,0x69,0x69,0x3a,0x0b,0x40,0x70,0x69,0x74,0x63,0x68,0x69,0x69))
PictureDisplay(5,"ev_fairys_h1",0,0,0,0,100,100,255,0)
ShowMessageFace("",0,0,2,6)
ShowMessage("Ivy quickly extends from the trees and binds my arms and legs.")
ShowMessage("With my arms and feet stretched out, I can't move my body an inch.")
ShowMessageFace("",0,0,2,7)
ShowMessage("\\n<Luka>What are you doing!?\nThat,you can't do that!")
ShowMessageFace("fairys_fc1",1,0,2,8)
ShowMessage("\\n<Fairy A>Yay! Attack the bad human! ♪")
ShowMessageFace("fairys_fc2",1,0,2,9)
ShowMessage("\\n<Fairy B>Everyone bully him! ♪")
ShowMessageFace("",0,0,2,10)
ShowMessage("\\n<Luka>Ah! Uwaa!")
245(bytes(0x04,0x08,0x6f,0x3a,0x0d,0x52,0x50,0x47,0x3a,0x3a,0x42,0x47,0x53,0x08,0x3a,0x0a,0x40,0x6e,0x61,0x6d,0x65,0x49,0x22,0x1e,0x6d,0x6f,0x6e,0x5f,0x68,0x73,0x65,0x61,0x6e,0x30,0x31,0x5f,0x69,0x6e,0x6e,0x65,0x72,0x77,0x6f,0x72,0x6b,0x73,0x5f,0x61,0x31,0x06,0x3a,0x06,0x45,0x54,0x3a,0x0c,0x40,0x76,0x6f,0x6c,0x75,0x6d,0x65,0x69,0x55,0x3a,0x0b,0x40,0x70,0x69,0x74,0x63,0x68,0x69,0x69))
PictureDisplay(5,"ev_fairys_h2",0,0,0,0,100,100,255,0)
ShowMessageFace("",0,0,2,11)
ShowMessage("The fairies swarm all over my body.")
ShowMessage("With their wings rustling together, they start to cling to my body.")
ShowMessageFace("",0,0,2,12)
ShowMessage("All over my body, fairies are licking, rubbing and stroking random body parts.")
ShowMessage("Bound by the ivy, all I can do is tremble as they attack me all over.")
ShowMessageFace("",0,0,2,13)
ShowMessage("\\n<Luka>Hyaa! Stop!")
ShowMessageFace("fairys_fc3",1,0,2,14)
ShowMessage("\\n<Fairy C>*Lick* ♪")
ShowMessageFace("fairys_fc4",0,0,2,15)
ShowMessage("\\n<Fairy D>I'll give you a kiss! ♪")
ShowMessageFace("",0,0,2,16)
ShowMessage("A fairy kisses me on the lips.")
ShowMessage("After that, she starts to lick me all over my cheeks.")
ShowMessageFace("fairys_fc4",1,0,2,17)
ShowMessage("\\n<Fairy E>I'll bully the bad human's bag! ♪")
ShowMessageFace("",0,0,2,18)
ShowMessage("One of the fairies grabs my scrotum with her tiny hands.")
ShowMessage("She starts to play with them, rubbing my balls on her body.")
ShowMessageFace("",0,0,2,19)
ShowMessage("At the same time, another fairy flies up to my penis.")
ShowMessageFace("fairys_fc4",2,0,2,20)
ShowMessage("\\n<Fairy F>The penis is all squishy! ♪")
108("Ｇ")
ShowMessageFace("fairys_fc2",1,0,2,21)
ShowMessage("\\n<Fairy G>I'll use my butt! ♪")
ShowMessageFace("",0,0,2,22)
ShowMessage("A fairy tightly hugs my penis, and starts to lick it with her small tongue.")
ShowMessageFace("",0,0,2,23)
ShowMessage("At the same time, another fairy starts to rub her ass up and down on the back of my penis.")
ShowMessageFace("",0,0,2,24)
ShowMessage("\\n<Luka>Urhg... Aaah...")
ShowMessageFace("",0,0,2,25)
ShowMessage("The fairies are toying with whatever part of my body looks fun to them.")
ShowMessage("Every movement of their tiny limbs or tongues gives a gentle stimulation.")
ShowMessageFace("",0,0,2,26)
ShowMessage("In particular, their tiny tongues give a pleasant tickling sensation as they lick me.")
ShowMessage("I shiver as the small stimulations attack me over every inch of my body.")
ShowMessageFace("",0,0,2,27)
ShowMessage("As these innocent acting fairies continue to use my body as a toy, the humiliation starts to mix with the pleasure.")
ShowMessageFace("fairys_fc4",2,0,2,28)
ShowMessage("\\n<Fairy F>The penis is twitching! ♪")
ShowMessageFace("",0,0,2,29)
ShowMessage("The fairy hugging my penis starts to squeeze tighter.")
ShowMessage("Whether or not she knows it, she's directly stimulating a man's most sensitive part...")
ShowMessageFace("",0,0,2,30)
ShowMessage("After tightly hugging my penis for a few moments, she sticks out her small tongue and starts to lick it.")
ShowMessageFace("",0,0,2,31)
ShowMessage("The gentle licking brought about a surprisingly powerful sensation.")
ShowMessageFace("",0,0,2,32)
ShowMessage("\\n<Luka>Ah, unnngh...!")
ShowMessageFace("fairys_fc1",0,0,2,33)
ShowMessage("\\n<Fairy A>Ah! Liquid is coming out! ♪")
ShowMessageFace("",0,0,2,34)
ShowMessage("The fairy that was pressing her ass on the back of my penis giggles.")
ShowMessage("The pre-come leaking out drips down and starts to cover her waist in semen.")
ShowMessageFace("",0,0,2,35)
ShowMessage("But the fairy just seems to be amused by that, as she continues to rub her butt up and down.")
ShowMessageFace("fairys_fc1",0,0,2,36)
ShowMessage("\\n<Fairy A>It's sticky! Hehehe! ♪")
ShowMessageFace("",0,0,2,37)
ShowMessage("\\n<Luka>Unnngh...!")
ShowMessageFace("",0,0,2,38)
ShowMessage("She presses her bottom harder into my penis.")
ShowMessage("The moment she pressed down hard on the back muscle, an unexpected shiver ran through my waist.")
ShowMessageFace("",0,0,2,39)
ShowMessage("The desire to ejaculate rises up through my body until it becomes unbearable.")
ShowMessageFace("",0,0,2,40)
ShowMessage("\\n<Luka>Ahh! I'm coming! Ahhh!!")
RunCommonEvent(104)
PictureDisplay(5,"ev_fairys_h3",0,0,0,0,100,100,255,0)
RunCommonEvent(105)
ShowMessageFace("",0,0,2,41)
ShowMessage("Erupting like magma from this position on my back, the semen shoots out and covers the fairies playing with my body.")
PictureDisplay(5,"ev_fairys_h4",0,0,0,0,100,100,255,0)
ShowMessageFace("",0,0,2,42)
ShowMessage("Their small bodies are covered in the proof of my desire.")
ShowMessageFace("fairys_fc1",0,0,2,43)
ShowMessage("\\n<Fairy A>Hehehe... I got covered in the white pee! ♪")
ShowMessageFace("fairys_fc4",2,0,2,44)
ShowMessage("\\n<Fairy F>It's so sticky! ♪")
ShowMessageFace("",0,0,2,45)
ShowMessage("Instead of showing disgust at being covered, the fairies start to laugh and play with the semen covering their bodies.")
ShowMessage("Bound and drained of strength, the fairies are cheerfully frolicking around me.")
ShowMessageFace("fairys_fc1",1,0,2,46)
ShowMessage("\\n<Fairy A>This isn't urine.\nIt's the seed that lets you make babies!")
ShowMessageFace("fairys_fc2",1,0,2,47)
ShowMessage("\\n<Fairy B>Baby seed?\nSo if we cover the ground with it, babies will grow?")
ShowMessageFace("fairys_fc1",1,0,2,48)
ShowMessage("\\n<Fairy A>I... I think so...")
ShowMessageFace("fairys_fc2",1,0,2,49)
ShowMessage("\\n<Fairy B>Then... Let's cover the ground with it!\nOk! We need to get a lot more everyone! ♪")
ShowMessageFace("",0,0,2,50)
ShowMessage("\\n<Luka>Aaaa... Stop...")
ShowMessageFace("",0,0,2,51)
ShowMessage("Completely ignoring my words, the fairies swarm back over my body.")
ShowMessage("With renewed interest, they start toying with my body again.")
ShowMessageFace("fairys_fc1",1,0,2,52)
ShowMessage("\\n<Fairy A>When you squeeze the penis,\nseed comes out.")
ShowMessageFace("fairys_fc2",1,0,2,53)
ShowMessage("\\n<Fairy B>So should I milk him like a cow?\nOk! *Squeeze* *Squeeze* ♪")
ShowMessageFace("",0,0,2,54)
ShowMessage("With her feet at the base of my penis and her arms wrapped around the tip, she presses her tiny breasts into my penis as she milks me by moving her whole body up and down.")
ShowMessageFace("",0,0,2,55)
ShowMessage("\\n<Luka>Ah, Huaaa...")
ShowMessageFace("",0,0,2,56)
ShowMessage("The unique pleasure drains me of the rest of my strength.")
ShowMessageFace("",0,0,2,57)
ShowMessage("With the fairy using her soft body to milk me, all I can do is sigh at the stimulation.")
ShowMessageFace("fairys_fc1",1,0,2,58)
ShowMessage("\\n<Fairy A>Hahaha... I think it's working!")
ShowMessageFace("fairys_fc2",1,0,2,59)
ShowMessage("\\n<Fairy B>Hehehe...\nIt looks like doing it as you'd do it to a cow works.")
ShowMessageFace("fairys_fc2",1,0,2,60)
ShowMessage("\\n<Fairy B>I pride myself in my milking skill! ♪\nI can get the human milk, too! ♪")
ShowMessageFace("",0,0,2,61)
ShowMessage("\\n<Luka>Huaaa...That feels so good...")
ShowMessageFace("",0,0,2,62)
ShowMessage("I let out a pleasure-filled sigh as the fairy uses her entire body to milk me.")
ShowMessage("At the same time, all of the other fairies teasing got even more intense.")
ShowMessageFace("",0,0,2,63)
ShowMessage("The fairy holding my scrotum pushes her face into it and starts to gently nibble at the skin.")
ShowMessageFace("",0,0,2,64)
ShowMessage("As they lick and massage me all over, my head goes white at the overwhelming stimulation.")
ShowMessageFace("",0,0,2,65)
ShowMessage("\\n<Luka>Ah...! I'm going to come again...!")
ShowMessageFace("fairys_fc1",1,0,2,66)
ShowMessage("\\n<Fairy A>Let it out, let it out! ♪")
ShowMessageFace("fairys_fc2",1,0,2,67)
ShowMessage("\\n<Fairy B>Shoot out the baby milk! ♪")
ShowMessageFace("",0,0,2,68)
ShowMessage("\\n<Luka>Ah... Aaaaaah!!")
RunCommonEvent(104)
PictureDisplay(5,"ev_fairys_h5",0,0,0,0,100,100,255,0)
RunCommonEvent(105)
ShowMessageFace("",0,0,2,69)
ShowMessage("While awash in the pleasure all over my body, I explode again.")
ShowMessageFace("",0,0,2,70)
ShowMessage("While I'm feeling humiliated at being toyed with, the fairies just start to giggle.")
ShowMessage("With all of my strength consumed, I sigh and relax.")
ShowMessageFace("",0,0,2,71)
ShowMessage("The semen I shot straight into the air landed on both the fairies and the ground.")
ShowMessageFace("",0,0,2,72)
ShowMessage("As the fairies look at the semen on the ground, they start to laugh excitedly.")
ShowMessageFace("fairys_fc1",1,0,2,73)
ShowMessage("\\n<Fairy A>So the babies should come out now, right?")
ShowMessageFace("fairys_fc2",1,0,2,74)
ShowMessage("\\n<Fairy B>If we squeeze out more milk, more babies will come out!\n")
ShowMessageFace("fairys_fc3",1,0,2,75)
ShowMessage("\\n<Fairy C>Then... We need to get more milk!")
ShowMessageFace("",0,0,2,76)
ShowMessage("\\n<Luka>Stop... Uwaa!")
ShowMessageFace("",0,0,2,77)
ShowMessage("Due to their naïve misunderstanding, they start playing with me again.")
ShowMessage("Squeezing out my semen so that they can pointlessly scatter it on the ground...")
221()
PictureClear(5)
246(2)
ShowMessageFace("",0,0,2,78)
ShowMessage("Thus, I was fondled by the group of fairies again and again.")
ShowMessage("As my penis gets stimulated, they force me to come over and over.")
ShowMessageFace("",0,0,2,79)
ShowMessage("They keep playing with my penis, making me feel miserable.")
ShowMessage("They made me ejaculate so much I couldn't even stand before finally releasing me.") 
ShowMessageFace("",0,0,2,80)
ShowMessage("......")
242(2)
Wait(120)
241(bytes(0x04,0x08,0x6f,0x3a,0x0d,0x52,0x50,0x47,0x3a,0x3a,0x42,0x47,0x4d,0x08,0x3a,0x0a,0x40,0x6e,0x61,0x6d,0x65,0x49,0x22,0x0c,0x63,0x61,0x73,0x74,0x6c,0x65,0x36,0x06,0x3a,0x06,0x45,0x54,0x3a,0x0c,0x40,0x76,0x6f,0x6c,0x75,0x6d,0x65,0x69,0x69,0x3a,0x0b,0x40,0x70,0x69,0x74,0x63,0x68,0x69,0x69))
0()
