﻿
DisplayName "Goddard"



EVENT   1
 PAGE   1
  250(bytes(0x04,0x08,0x6f,0x3a,0x0c,0x52,0x50,0x47,0x3a,0x3a,0x53,0x45,0x08,0x3a,0x0a,0x40,0x6e,0x61,0x6d,0x65,0x49,0x22,0x0a,0x4f,0x70,0x65,0x6e,0x31,0x06,0x3a,0x06,0x45,0x54,0x3a,0x0b,0x40,0x70,0x69,0x74,0x63,0x68,0x69,0x69,0x3a,0x0c,0x40,0x76,0x6f,0x6c,0x75,0x6d,0x65,0x69,0x55))
  205(0,bytes(0x04,0x08,0x6f,0x3a,0x13,0x52,0x50,0x47,0x3a,0x3a,0x4d,0x6f,0x76,0x65,0x52,0x6f,0x75,0x74,0x65,0x09,0x3a,0x0c,0x40,0x72,0x65,0x70,0x65,0x61,0x74,0x46,0x3a,0x0f,0x40,0x73,0x6b,0x69,0x70,0x70,0x61,0x62,0x6c,0x65,0x46,0x3a,0x0a,0x40,0x77,0x61,0x69,0x74,0x54,0x3a,0x0a,0x40,0x6c,0x69,0x73,0x74,0x5b,0x0c,0x6f,0x3a,0x15,0x52,0x50,0x47,0x3a,0x3a,0x4d,0x6f,0x76,0x65,0x43,0x6f,0x6d,0x6d,0x61,0x6e,0x64,0x07,0x3a,0x0a,0x40,0x63,0x6f,0x64,0x65,0x69,0x16,0x3a,0x10,0x40,0x70,0x61,0x72,0x61,0x6d,0x65,0x74,0x65,0x72,0x73,0x5b,0x00,0x6f,0x3b,0x0a,0x07,0x3b,0x0b,0x69,0x14,0x3b,0x0c,0x5b,0x06,0x69,0x08,0x6f,0x3b,0x0a,0x07,0x3b,0x0b,0x69,0x17,0x3b,0x0c,0x5b,0x00,0x6f,0x3b,0x0a,0x07,0x3b,0x0b,0x69,0x14,0x3b,0x0c,0x5b,0x06,0x69,0x08,0x6f,0x3b,0x0a,0x07,0x3b,0x0b,0x69,0x18,0x3b,0x0c,0x5b,0x00,0x6f,0x3b,0x0a,0x07,0x3b,0x0b,0x69,0x2a,0x3b,0x0c,0x5b,0x00,0x6f,0x3b,0x0a,0x07,0x3b,0x0b,0x69,0x00,0x3b,0x0c,0x5b,0x00))
  205(-1,bytes(0x04,0x08,0x6f,0x3a,0x13,0x52,0x50,0x47,0x3a,0x3a,0x4d,0x6f,0x76,0x65,0x52,0x6f,0x75,0x74,0x65,0x09,0x3a,0x0c,0x40,0x72,0x65,0x70,0x65,0x61,0x74,0x46,0x3a,0x0f,0x40,0x73,0x6b,0x69,0x70,0x70,0x61,0x62,0x6c,0x65,0x54,0x3a,0x0a,0x40,0x77,0x61,0x69,0x74,0x54,0x3a,0x0a,0x40,0x6c,0x69,0x73,0x74,0x5b,0x07,0x6f,0x3a,0x15,0x52,0x50,0x47,0x3a,0x3a,0x4d,0x6f,0x76,0x65,0x43,0x6f,0x6d,0x6d,0x61,0x6e,0x64,0x07,0x3a,0x0a,0x40,0x63,0x6f,0x64,0x65,0x69,0x11,0x3a,0x10,0x40,0x70,0x61,0x72,0x61,0x6d,0x65,0x74,0x65,0x72,0x73,0x5b,0x00,0x6f,0x3b,0x0a,0x07,0x3b,0x0b,0x69,0x00,0x3b,0x0c,0x5b,0x00))
  250(bytes(0x04,0x08,0x6f,0x3a,0x0c,0x52,0x50,0x47,0x3a,0x3a,0x53,0x45,0x08,0x3a,0x0a,0x40,0x6e,0x61,0x6d,0x65,0x49,0x22,0x09,0x4d,0x6f,0x76,0x65,0x06,0x3a,0x06,0x45,0x54,0x3a,0x0b,0x40,0x70,0x69,0x74,0x63,0x68,0x69,0x69,0x3a,0x0c,0x40,0x76,0x6f,0x6c,0x75,0x6d,0x65,0x69,0x55))
  TeleportPlayer(0,50,5,16,0,0)
  0()



EVENT   2
 PAGE   1
  250(bytes(0x04,0x08,0x6f,0x3a,0x0c,0x52,0x50,0x47,0x3a,0x3a,0x53,0x45,0x08,0x3a,0x0a,0x40,0x6e,0x61,0x6d,0x65,0x49,0x22,0x0a,0x4f,0x70,0x65,0x6e,0x31,0x06,0x3a,0x06,0x45,0x54,0x3a,0x0b,0x40,0x70,0x69,0x74,0x63,0x68,0x69,0x69,0x3a,0x0c,0x40,0x76,0x6f,0x6c,0x75,0x6d,0x65,0x69,0x55))
  205(0,bytes(0x04,0x08,0x6f,0x3a,0x13,0x52,0x50,0x47,0x3a,0x3a,0x4d,0x6f,0x76,0x65,0x52,0x6f,0x75,0x74,0x65,0x09,0x3a,0x0c,0x40,0x72,0x65,0x70,0x65,0x61,0x74,0x46,0x3a,0x0f,0x40,0x73,0x6b,0x69,0x70,0x70,0x61,0x62,0x6c,0x65,0x46,0x3a,0x0a,0x40,0x77,0x61,0x69,0x74,0x54,0x3a,0x0a,0x40,0x6c,0x69,0x73,0x74,0x5b,0x0c,0x6f,0x3a,0x15,0x52,0x50,0x47,0x3a,0x3a,0x4d,0x6f,0x76,0x65,0x43,0x6f,0x6d,0x6d,0x61,0x6e,0x64,0x07,0x3a,0x0a,0x40,0x63,0x6f,0x64,0x65,0x69,0x16,0x3a,0x10,0x40,0x70,0x61,0x72,0x61,0x6d,0x65,0x74,0x65,0x72,0x73,0x5b,0x00,0x6f,0x3b,0x0a,0x07,0x3b,0x0b,0x69,0x14,0x3b,0x0c,0x5b,0x06,0x69,0x08,0x6f,0x3b,0x0a,0x07,0x3b,0x0b,0x69,0x17,0x3b,0x0c,0x5b,0x00,0x6f,0x3b,0x0a,0x07,0x3b,0x0b,0x69,0x14,0x3b,0x0c,0x5b,0x06,0x69,0x08,0x6f,0x3b,0x0a,0x07,0x3b,0x0b,0x69,0x18,0x3b,0x0c,0x5b,0x00,0x6f,0x3b,0x0a,0x07,0x3b,0x0b,0x69,0x2a,0x3b,0x0c,0x5b,0x00,0x6f,0x3b,0x0a,0x07,0x3b,0x0b,0x69,0x00,0x3b,0x0c,0x5b,0x00))
  205(-1,bytes(0x04,0x08,0x6f,0x3a,0x13,0x52,0x50,0x47,0x3a,0x3a,0x4d,0x6f,0x76,0x65,0x52,0x6f,0x75,0x74,0x65,0x09,0x3a,0x0c,0x40,0x72,0x65,0x70,0x65,0x61,0x74,0x46,0x3a,0x0f,0x40,0x73,0x6b,0x69,0x70,0x70,0x61,0x62,0x6c,0x65,0x54,0x3a,0x0a,0x40,0x77,0x61,0x69,0x74,0x54,0x3a,0x0a,0x40,0x6c,0x69,0x73,0x74,0x5b,0x07,0x6f,0x3a,0x15,0x52,0x50,0x47,0x3a,0x3a,0x4d,0x6f,0x76,0x65,0x43,0x6f,0x6d,0x6d,0x61,0x6e,0x64,0x07,0x3a,0x0a,0x40,0x63,0x6f,0x64,0x65,0x69,0x11,0x3a,0x10,0x40,0x70,0x61,0x72,0x61,0x6d,0x65,0x74,0x65,0x72,0x73,0x5b,0x00,0x6f,0x3b,0x0a,0x07,0x3b,0x0b,0x69,0x00,0x3b,0x0c,0x5b,0x00))
  250(bytes(0x04,0x08,0x6f,0x3a,0x0c,0x52,0x50,0x47,0x3a,0x3a,0x53,0x45,0x08,0x3a,0x0a,0x40,0x6e,0x61,0x6d,0x65,0x49,0x22,0x09,0x4d,0x6f,0x76,0x65,0x06,0x3a,0x06,0x45,0x54,0x3a,0x0b,0x40,0x70,0x69,0x74,0x63,0x68,0x69,0x69,0x3a,0x0c,0x40,0x76,0x6f,0x6c,0x75,0x6d,0x65,0x69,0x55))
  TeleportPlayer(0,50,39,14,0,0)
  0()



EVENT   3
 PAGE   1
  250(bytes(0x04,0x08,0x6f,0x3a,0x0c,0x52,0x50,0x47,0x3a,0x3a,0x53,0x45,0x08,0x3a,0x0a,0x40,0x6e,0x61,0x6d,0x65,0x49,0x22,0x0a,0x4f,0x70,0x65,0x6e,0x31,0x06,0x3a,0x06,0x45,0x54,0x3a,0x0b,0x40,0x70,0x69,0x74,0x63,0x68,0x69,0x69,0x3a,0x0c,0x40,0x76,0x6f,0x6c,0x75,0x6d,0x65,0x69,0x55))
  205(0,bytes(0x04,0x08,0x6f,0x3a,0x13,0x52,0x50,0x47,0x3a,0x3a,0x4d,0x6f,0x76,0x65,0x52,0x6f,0x75,0x74,0x65,0x09,0x3a,0x0c,0x40,0x72,0x65,0x70,0x65,0x61,0x74,0x46,0x3a,0x0f,0x40,0x73,0x6b,0x69,0x70,0x70,0x61,0x62,0x6c,0x65,0x46,0x3a,0x0a,0x40,0x77,0x61,0x69,0x74,0x54,0x3a,0x0a,0x40,0x6c,0x69,0x73,0x74,0x5b,0x0c,0x6f,0x3a,0x15,0x52,0x50,0x47,0x3a,0x3a,0x4d,0x6f,0x76,0x65,0x43,0x6f,0x6d,0x6d,0x61,0x6e,0x64,0x07,0x3a,0x0a,0x40,0x63,0x6f,0x64,0x65,0x69,0x16,0x3a,0x10,0x40,0x70,0x61,0x72,0x61,0x6d,0x65,0x74,0x65,0x72,0x73,0x5b,0x00,0x6f,0x3b,0x0a,0x07,0x3b,0x0b,0x69,0x14,0x3b,0x0c,0x5b,0x06,0x69,0x08,0x6f,0x3b,0x0a,0x07,0x3b,0x0b,0x69,0x17,0x3b,0x0c,0x5b,0x00,0x6f,0x3b,0x0a,0x07,0x3b,0x0b,0x69,0x14,0x3b,0x0c,0x5b,0x06,0x69,0x08,0x6f,0x3b,0x0a,0x07,0x3b,0x0b,0x69,0x18,0x3b,0x0c,0x5b,0x00,0x6f,0x3b,0x0a,0x07,0x3b,0x0b,0x69,0x2a,0x3b,0x0c,0x5b,0x00,0x6f,0x3b,0x0a,0x07,0x3b,0x0b,0x69,0x00,0x3b,0x0c,0x5b,0x00))
  205(-1,bytes(0x04,0x08,0x6f,0x3a,0x13,0x52,0x50,0x47,0x3a,0x3a,0x4d,0x6f,0x76,0x65,0x52,0x6f,0x75,0x74,0x65,0x09,0x3a,0x0c,0x40,0x72,0x65,0x70,0x65,0x61,0x74,0x46,0x3a,0x0f,0x40,0x73,0x6b,0x69,0x70,0x70,0x61,0x62,0x6c,0x65,0x54,0x3a,0x0a,0x40,0x77,0x61,0x69,0x74,0x54,0x3a,0x0a,0x40,0x6c,0x69,0x73,0x74,0x5b,0x07,0x6f,0x3a,0x15,0x52,0x50,0x47,0x3a,0x3a,0x4d,0x6f,0x76,0x65,0x43,0x6f,0x6d,0x6d,0x61,0x6e,0x64,0x07,0x3a,0x0a,0x40,0x63,0x6f,0x64,0x65,0x69,0x11,0x3a,0x10,0x40,0x70,0x61,0x72,0x61,0x6d,0x65,0x74,0x65,0x72,0x73,0x5b,0x00,0x6f,0x3b,0x0a,0x07,0x3b,0x0b,0x69,0x00,0x3b,0x0c,0x5b,0x00))
  250(bytes(0x04,0x08,0x6f,0x3a,0x0c,0x52,0x50,0x47,0x3a,0x3a,0x53,0x45,0x08,0x3a,0x0a,0x40,0x6e,0x61,0x6d,0x65,0x49,0x22,0x09,0x4d,0x6f,0x76,0x65,0x06,0x3a,0x06,0x45,0x54,0x3a,0x0b,0x40,0x70,0x69,0x74,0x63,0x68,0x69,0x69,0x3a,0x0c,0x40,0x76,0x6f,0x6c,0x75,0x6d,0x65,0x69,0x55))
  TeleportPlayer(0,50,56,15,0,0)
  0()



EVENT   4
 PAGE   1
  If(1,1063,0,12,2)
   ShowMessageFace("",0,0,2,1)
   ShowMessage("The door is locked...\nThere seems to be someone inside!")
   ShowMessageFace("mob_mahousyouzyo_fc1",0,0,2,2)
   ShowMessage("\\n<？？？>Are you a traveler?\nThis town...no, this entire region is dangerous.")
   ShowMessageFace("mob_mahousyouzyo_fc1",0,0,2,3)
   ShowMessage("\\n<？？？>You'd better get out of here as quickly as possible. This lewd air is so dense, I've been unable to go outside anymore.")
   If(0,4,0)
    ShowMessageFace("alice_fc5",0,0,2,4)
    ShowMessage("\\n<Alice>It seems the resident of this house has an understanding of magic. But there's nothing we can do to improve each other's situations at the moment...")
    0()
   EndIf()
   If(0,5,0)
    ShowMessageFace("iriasu_fc4",2,0,2,5)
    ShowMessage("\\n<Ilias>It would seem the resident of this house is knowledgeable in magic. But we're unable to improve either of our situations at the moment...")
    0()
   EndIf()
   EndEventProcessing()
   0()
  EndIf()
  If(1,1063,0,13,1)
   250(bytes(0x04,0x08,0x6f,0x3a,0x0c,0x52,0x50,0x47,0x3a,0x3a,0x53,0x45,0x08,0x3a,0x0a,0x40,0x6e,0x61,0x6d,0x65,0x49,0x22,0x0a,0x4f,0x70,0x65,0x6e,0x31,0x06,0x3a,0x06,0x45,0x54,0x3a,0x0b,0x40,0x70,0x69,0x74,0x63,0x68,0x69,0x69,0x3a,0x0c,0x40,0x76,0x6f,0x6c,0x75,0x6d,0x65,0x69,0x55))
   205(0,bytes(0x04,0x08,0x6f,0x3a,0x13,0x52,0x50,0x47,0x3a,0x3a,0x4d,0x6f,0x76,0x65,0x52,0x6f,0x75,0x74,0x65,0x09,0x3a,0x0c,0x40,0x72,0x65,0x70,0x65,0x61,0x74,0x46,0x3a,0x0f,0x40,0x73,0x6b,0x69,0x70,0x70,0x61,0x62,0x6c,0x65,0x46,0x3a,0x0a,0x40,0x77,0x61,0x69,0x74,0x54,0x3a,0x0a,0x40,0x6c,0x69,0x73,0x74,0x5b,0x0c,0x6f,0x3a,0x15,0x52,0x50,0x47,0x3a,0x3a,0x4d,0x6f,0x76,0x65,0x43,0x6f,0x6d,0x6d,0x61,0x6e,0x64,0x07,0x3a,0x0a,0x40,0x63,0x6f,0x64,0x65,0x69,0x16,0x3a,0x10,0x40,0x70,0x61,0x72,0x61,0x6d,0x65,0x74,0x65,0x72,0x73,0x5b,0x00,0x6f,0x3b,0x0a,0x07,0x3b,0x0b,0x69,0x14,0x3b,0x0c,0x5b,0x06,0x69,0x08,0x6f,0x3b,0x0a,0x07,0x3b,0x0b,0x69,0x17,0x3b,0x0c,0x5b,0x00,0x6f,0x3b,0x0a,0x07,0x3b,0x0b,0x69,0x14,0x3b,0x0c,0x5b,0x06,0x69,0x08,0x6f,0x3b,0x0a,0x07,0x3b,0x0b,0x69,0x18,0x3b,0x0c,0x5b,0x00,0x6f,0x3b,0x0a,0x07,0x3b,0x0b,0x69,0x2a,0x3b,0x0c,0x5b,0x00,0x6f,0x3b,0x0a,0x07,0x3b,0x0b,0x69,0x00,0x3b,0x0c,0x5b,0x00))
   205(-1,bytes(0x04,0x08,0x6f,0x3a,0x13,0x52,0x50,0x47,0x3a,0x3a,0x4d,0x6f,0x76,0x65,0x52,0x6f,0x75,0x74,0x65,0x09,0x3a,0x0c,0x40,0x72,0x65,0x70,0x65,0x61,0x74,0x46,0x3a,0x0f,0x40,0x73,0x6b,0x69,0x70,0x70,0x61,0x62,0x6c,0x65,0x54,0x3a,0x0a,0x40,0x77,0x61,0x69,0x74,0x54,0x3a,0x0a,0x40,0x6c,0x69,0x73,0x74,0x5b,0x07,0x6f,0x3a,0x15,0x52,0x50,0x47,0x3a,0x3a,0x4d,0x6f,0x76,0x65,0x43,0x6f,0x6d,0x6d,0x61,0x6e,0x64,0x07,0x3a,0x0a,0x40,0x63,0x6f,0x64,0x65,0x69,0x11,0x3a,0x10,0x40,0x70,0x61,0x72,0x61,0x6d,0x65,0x74,0x65,0x72,0x73,0x5b,0x00,0x6f,0x3b,0x0a,0x07,0x3b,0x0b,0x69,0x00,0x3b,0x0c,0x5b,0x00))
   250(bytes(0x04,0x08,0x6f,0x3a,0x0c,0x52,0x50,0x47,0x3a,0x3a,0x53,0x45,0x08,0x3a,0x0a,0x40,0x6e,0x61,0x6d,0x65,0x49,0x22,0x09,0x4d,0x6f,0x76,0x65,0x06,0x3a,0x06,0x45,0x54,0x3a,0x0b,0x40,0x70,0x69,0x74,0x63,0x68,0x69,0x69,0x3a,0x0c,0x40,0x76,0x6f,0x6c,0x75,0x6d,0x65,0x69,0x55))
   TeleportPlayer(0,50,5,38,0,0)
   0()
  EndIf()
  0()



EVENT   5
 PAGE   1
  250(bytes(0x04,0x08,0x6f,0x3a,0x0c,0x52,0x50,0x47,0x3a,0x3a,0x53,0x45,0x08,0x3a,0x0a,0x40,0x6e,0x61,0x6d,0x65,0x49,0x22,0x0a,0x4f,0x70,0x65,0x6e,0x31,0x06,0x3a,0x06,0x45,0x54,0x3a,0x0b,0x40,0x70,0x69,0x74,0x63,0x68,0x69,0x69,0x3a,0x0c,0x40,0x76,0x6f,0x6c,0x75,0x6d,0x65,0x69,0x55))
  205(0,bytes(0x04,0x08,0x6f,0x3a,0x13,0x52,0x50,0x47,0x3a,0x3a,0x4d,0x6f,0x76,0x65,0x52,0x6f,0x75,0x74,0x65,0x09,0x3a,0x0c,0x40,0x72,0x65,0x70,0x65,0x61,0x74,0x46,0x3a,0x0f,0x40,0x73,0x6b,0x69,0x70,0x70,0x61,0x62,0x6c,0x65,0x46,0x3a,0x0a,0x40,0x77,0x61,0x69,0x74,0x54,0x3a,0x0a,0x40,0x6c,0x69,0x73,0x74,0x5b,0x0c,0x6f,0x3a,0x15,0x52,0x50,0x47,0x3a,0x3a,0x4d,0x6f,0x76,0x65,0x43,0x6f,0x6d,0x6d,0x61,0x6e,0x64,0x07,0x3a,0x0a,0x40,0x63,0x6f,0x64,0x65,0x69,0x16,0x3a,0x10,0x40,0x70,0x61,0x72,0x61,0x6d,0x65,0x74,0x65,0x72,0x73,0x5b,0x00,0x6f,0x3b,0x0a,0x07,0x3b,0x0b,0x69,0x14,0x3b,0x0c,0x5b,0x06,0x69,0x08,0x6f,0x3b,0x0a,0x07,0x3b,0x0b,0x69,0x17,0x3b,0x0c,0x5b,0x00,0x6f,0x3b,0x0a,0x07,0x3b,0x0b,0x69,0x14,0x3b,0x0c,0x5b,0x06,0x69,0x08,0x6f,0x3b,0x0a,0x07,0x3b,0x0b,0x69,0x18,0x3b,0x0c,0x5b,0x00,0x6f,0x3b,0x0a,0x07,0x3b,0x0b,0x69,0x2a,0x3b,0x0c,0x5b,0x00,0x6f,0x3b,0x0a,0x07,0x3b,0x0b,0x69,0x00,0x3b,0x0c,0x5b,0x00))
  205(-1,bytes(0x04,0x08,0x6f,0x3a,0x13,0x52,0x50,0x47,0x3a,0x3a,0x4d,0x6f,0x76,0x65,0x52,0x6f,0x75,0x74,0x65,0x09,0x3a,0x0c,0x40,0x72,0x65,0x70,0x65,0x61,0x74,0x46,0x3a,0x0f,0x40,0x73,0x6b,0x69,0x70,0x70,0x61,0x62,0x6c,0x65,0x54,0x3a,0x0a,0x40,0x77,0x61,0x69,0x74,0x54,0x3a,0x0a,0x40,0x6c,0x69,0x73,0x74,0x5b,0x07,0x6f,0x3a,0x15,0x52,0x50,0x47,0x3a,0x3a,0x4d,0x6f,0x76,0x65,0x43,0x6f,0x6d,0x6d,0x61,0x6e,0x64,0x07,0x3a,0x0a,0x40,0x63,0x6f,0x64,0x65,0x69,0x11,0x3a,0x10,0x40,0x70,0x61,0x72,0x61,0x6d,0x65,0x74,0x65,0x72,0x73,0x5b,0x00,0x6f,0x3b,0x0a,0x07,0x3b,0x0b,0x69,0x00,0x3b,0x0c,0x5b,0x00))
  250(bytes(0x04,0x08,0x6f,0x3a,0x0c,0x52,0x50,0x47,0x3a,0x3a,0x53,0x45,0x08,0x3a,0x0a,0x40,0x6e,0x61,0x6d,0x65,0x49,0x22,0x09,0x4d,0x6f,0x76,0x65,0x06,0x3a,0x06,0x45,0x54,0x3a,0x0b,0x40,0x70,0x69,0x74,0x63,0x68,0x69,0x69,0x3a,0x0c,0x40,0x76,0x6f,0x6c,0x75,0x6d,0x65,0x69,0x55))
  TeleportPlayer(0,50,30,38,0,0)
  0()



EVENT   6
 PAGE   1
  250(bytes(0x04,0x08,0x6f,0x3a,0x0c,0x52,0x50,0x47,0x3a,0x3a,0x53,0x45,0x08,0x3a,0x0a,0x40,0x6e,0x61,0x6d,0x65,0x49,0x22,0x0a,0x4f,0x70,0x65,0x6e,0x31,0x06,0x3a,0x06,0x45,0x54,0x3a,0x0b,0x40,0x70,0x69,0x74,0x63,0x68,0x69,0x69,0x3a,0x0c,0x40,0x76,0x6f,0x6c,0x75,0x6d,0x65,0x69,0x55))
  205(0,bytes(0x04,0x08,0x6f,0x3a,0x13,0x52,0x50,0x47,0x3a,0x3a,0x4d,0x6f,0x76,0x65,0x52,0x6f,0x75,0x74,0x65,0x09,0x3a,0x0c,0x40,0x72,0x65,0x70,0x65,0x61,0x74,0x46,0x3a,0x0f,0x40,0x73,0x6b,0x69,0x70,0x70,0x61,0x62,0x6c,0x65,0x46,0x3a,0x0a,0x40,0x77,0x61,0x69,0x74,0x54,0x3a,0x0a,0x40,0x6c,0x69,0x73,0x74,0x5b,0x0c,0x6f,0x3a,0x15,0x52,0x50,0x47,0x3a,0x3a,0x4d,0x6f,0x76,0x65,0x43,0x6f,0x6d,0x6d,0x61,0x6e,0x64,0x07,0x3a,0x0a,0x40,0x63,0x6f,0x64,0x65,0x69,0x16,0x3a,0x10,0x40,0x70,0x61,0x72,0x61,0x6d,0x65,0x74,0x65,0x72,0x73,0x5b,0x00,0x6f,0x3b,0x0a,0x07,0x3b,0x0b,0x69,0x14,0x3b,0x0c,0x5b,0x06,0x69,0x08,0x6f,0x3b,0x0a,0x07,0x3b,0x0b,0x69,0x17,0x3b,0x0c,0x5b,0x00,0x6f,0x3b,0x0a,0x07,0x3b,0x0b,0x69,0x14,0x3b,0x0c,0x5b,0x06,0x69,0x08,0x6f,0x3b,0x0a,0x07,0x3b,0x0b,0x69,0x18,0x3b,0x0c,0x5b,0x00,0x6f,0x3b,0x0a,0x07,0x3b,0x0b,0x69,0x2a,0x3b,0x0c,0x5b,0x00,0x6f,0x3b,0x0a,0x07,0x3b,0x0b,0x69,0x00,0x3b,0x0c,0x5b,0x00))
  205(-1,bytes(0x04,0x08,0x6f,0x3a,0x13,0x52,0x50,0x47,0x3a,0x3a,0x4d,0x6f,0x76,0x65,0x52,0x6f,0x75,0x74,0x65,0x09,0x3a,0x0c,0x40,0x72,0x65,0x70,0x65,0x61,0x74,0x46,0x3a,0x0f,0x40,0x73,0x6b,0x69,0x70,0x70,0x61,0x62,0x6c,0x65,0x54,0x3a,0x0a,0x40,0x77,0x61,0x69,0x74,0x54,0x3a,0x0a,0x40,0x6c,0x69,0x73,0x74,0x5b,0x07,0x6f,0x3a,0x15,0x52,0x50,0x47,0x3a,0x3a,0x4d,0x6f,0x76,0x65,0x43,0x6f,0x6d,0x6d,0x61,0x6e,0x64,0x07,0x3a,0x0a,0x40,0x63,0x6f,0x64,0x65,0x69,0x11,0x3a,0x10,0x40,0x70,0x61,0x72,0x61,0x6d,0x65,0x74,0x65,0x72,0x73,0x5b,0x00,0x6f,0x3b,0x0a,0x07,0x3b,0x0b,0x69,0x00,0x3b,0x0c,0x5b,0x00))
  250(bytes(0x04,0x08,0x6f,0x3a,0x0c,0x52,0x50,0x47,0x3a,0x3a,0x53,0x45,0x08,0x3a,0x0a,0x40,0x6e,0x61,0x6d,0x65,0x49,0x22,0x09,0x4d,0x6f,0x76,0x65,0x06,0x3a,0x06,0x45,0x54,0x3a,0x0b,0x40,0x70,0x69,0x74,0x63,0x68,0x69,0x69,0x3a,0x0c,0x40,0x76,0x6f,0x6c,0x75,0x6d,0x65,0x69,0x55))
  TeleportPlayer(0,50,6,66,0,0)
  0()



EVENT   7
 PAGE   1
  250(bytes(0x04,0x08,0x6f,0x3a,0x0c,0x52,0x50,0x47,0x3a,0x3a,0x53,0x45,0x08,0x3a,0x0a,0x40,0x6e,0x61,0x6d,0x65,0x49,0x22,0x09,0x4d,0x6f,0x76,0x65,0x06,0x3a,0x06,0x45,0x54,0x3a,0x0b,0x40,0x70,0x69,0x74,0x63,0x68,0x69,0x69,0x3a,0x0c,0x40,0x76,0x6f,0x6c,0x75,0x6d,0x65,0x69,0x55))
  TeleportPlayer(0,2,221,175,2,0)
  0()



EVENT   8
 PAGE   1
  250(bytes(0x04,0x08,0x6f,0x3a,0x0c,0x52,0x50,0x47,0x3a,0x3a,0x53,0x45,0x08,0x3a,0x0a,0x40,0x6e,0x61,0x6d,0x65,0x49,0x22,0x09,0x4d,0x6f,0x76,0x65,0x06,0x3a,0x06,0x45,0x54,0x3a,0x0b,0x40,0x70,0x69,0x74,0x63,0x68,0x69,0x69,0x3a,0x0c,0x40,0x76,0x6f,0x6c,0x75,0x6d,0x65,0x69,0x55))
  TeleportPlayer(0,2,221,175,2,0)
  0()



EVENT   9
 PAGE   1
  250(bytes(0x04,0x08,0x6f,0x3a,0x0c,0x52,0x50,0x47,0x3a,0x3a,0x53,0x45,0x08,0x3a,0x0a,0x40,0x6e,0x61,0x6d,0x65,0x49,0x22,0x09,0x4d,0x6f,0x76,0x65,0x06,0x3a,0x06,0x45,0x54,0x3a,0x0b,0x40,0x70,0x69,0x74,0x63,0x68,0x69,0x69,0x3a,0x0c,0x40,0x76,0x6f,0x6c,0x75,0x6d,0x65,0x69,0x55))
  TeleportPlayer(0,2,221,175,2,0)
  0()



EVENT   10
 PAGE   1
  250(bytes(0x04,0x08,0x6f,0x3a,0x0c,0x52,0x50,0x47,0x3a,0x3a,0x53,0x45,0x08,0x3a,0x0a,0x40,0x6e,0x61,0x6d,0x65,0x49,0x22,0x09,0x4d,0x6f,0x76,0x65,0x06,0x3a,0x06,0x45,0x54,0x3a,0x0b,0x40,0x70,0x69,0x74,0x63,0x68,0x69,0x69,0x3a,0x0c,0x40,0x76,0x6f,0x6c,0x75,0x6d,0x65,0x69,0x55))
  TeleportPlayer(0,2,221,175,2,0)
  0()



EVENT   11
 PAGE   1
  250(bytes(0x04,0x08,0x6f,0x3a,0x0c,0x52,0x50,0x47,0x3a,0x3a,0x53,0x45,0x08,0x3a,0x0a,0x40,0x6e,0x61,0x6d,0x65,0x49,0x22,0x09,0x4d,0x6f,0x76,0x65,0x06,0x3a,0x06,0x45,0x54,0x3a,0x0b,0x40,0x70,0x69,0x74,0x63,0x68,0x69,0x69,0x3a,0x0c,0x40,0x76,0x6f,0x6c,0x75,0x6d,0x65,0x69,0x55))
  TeleportPlayer(0,2,221,175,2,0)
  0()



EVENT   12
 PAGE   1
  250(bytes(0x04,0x08,0x6f,0x3a,0x0c,0x52,0x50,0x47,0x3a,0x3a,0x53,0x45,0x08,0x3a,0x0a,0x40,0x6e,0x61,0x6d,0x65,0x49,0x22,0x09,0x4d,0x6f,0x76,0x65,0x06,0x3a,0x06,0x45,0x54,0x3a,0x0b,0x40,0x70,0x69,0x74,0x63,0x68,0x69,0x69,0x3a,0x0c,0x40,0x76,0x6f,0x6c,0x75,0x6d,0x65,0x69,0x55))
  TeleportPlayer(0,2,221,175,2,0)
  0()



EVENT   13
 PAGE   1
  250(bytes(0x04,0x08,0x6f,0x3a,0x0c,0x52,0x50,0x47,0x3a,0x3a,0x53,0x45,0x08,0x3a,0x0a,0x40,0x6e,0x61,0x6d,0x65,0x49,0x22,0x09,0x4d,0x6f,0x76,0x65,0x06,0x3a,0x06,0x45,0x54,0x3a,0x0b,0x40,0x70,0x69,0x74,0x63,0x68,0x69,0x69,0x3a,0x0c,0x40,0x76,0x6f,0x6c,0x75,0x6d,0x65,0x69,0x55))
  TeleportPlayer(0,2,221,175,2,0)
  0()



EVENT   14
 PAGE   1
  250(bytes(0x04,0x08,0x6f,0x3a,0x0c,0x52,0x50,0x47,0x3a,0x3a,0x53,0x45,0x08,0x3a,0x0a,0x40,0x6e,0x61,0x6d,0x65,0x49,0x22,0x09,0x4d,0x6f,0x76,0x65,0x06,0x3a,0x06,0x45,0x54,0x3a,0x0b,0x40,0x70,0x69,0x74,0x63,0x68,0x69,0x69,0x3a,0x0c,0x40,0x76,0x6f,0x6c,0x75,0x6d,0x65,0x69,0x55))
  TeleportPlayer(0,2,221,175,2,0)
  0()



EVENT   15
 PAGE   1
  250(bytes(0x04,0x08,0x6f,0x3a,0x0c,0x52,0x50,0x47,0x3a,0x3a,0x53,0x45,0x08,0x3a,0x0a,0x40,0x6e,0x61,0x6d,0x65,0x49,0x22,0x09,0x4d,0x6f,0x76,0x65,0x06,0x3a,0x06,0x45,0x54,0x3a,0x0b,0x40,0x70,0x69,0x74,0x63,0x68,0x69,0x69,0x3a,0x0c,0x40,0x76,0x6f,0x6c,0x75,0x6d,0x65,0x69,0x55))
  TeleportPlayer(0,2,221,175,2,0)
  0()



EVENT   16
 PAGE   1
  250(bytes(0x04,0x08,0x6f,0x3a,0x0c,0x52,0x50,0x47,0x3a,0x3a,0x53,0x45,0x08,0x3a,0x0a,0x40,0x6e,0x61,0x6d,0x65,0x49,0x22,0x09,0x4d,0x6f,0x76,0x65,0x06,0x3a,0x06,0x45,0x54,0x3a,0x0b,0x40,0x70,0x69,0x74,0x63,0x68,0x69,0x69,0x3a,0x0c,0x40,0x76,0x6f,0x6c,0x75,0x6d,0x65,0x69,0x55))
  TeleportPlayer(0,2,221,175,2,0)
  0()



EVENT   17
 PAGE   1
  250(bytes(0x04,0x08,0x6f,0x3a,0x0c,0x52,0x50,0x47,0x3a,0x3a,0x53,0x45,0x08,0x3a,0x0a,0x40,0x6e,0x61,0x6d,0x65,0x49,0x22,0x09,0x4d,0x6f,0x76,0x65,0x06,0x3a,0x06,0x45,0x54,0x3a,0x0b,0x40,0x70,0x69,0x74,0x63,0x68,0x69,0x69,0x3a,0x0c,0x40,0x76,0x6f,0x6c,0x75,0x6d,0x65,0x69,0x55))
  TeleportPlayer(0,2,221,175,2,0)
  0()



EVENT   18
 PAGE   1
  250(bytes(0x04,0x08,0x6f,0x3a,0x0c,0x52,0x50,0x47,0x3a,0x3a,0x53,0x45,0x08,0x3a,0x0a,0x40,0x6e,0x61,0x6d,0x65,0x49,0x22,0x09,0x4d,0x6f,0x76,0x65,0x06,0x3a,0x06,0x45,0x54,0x3a,0x0b,0x40,0x70,0x69,0x74,0x63,0x68,0x69,0x69,0x3a,0x0c,0x40,0x76,0x6f,0x6c,0x75,0x6d,0x65,0x69,0x55))
  TeleportPlayer(0,2,221,175,2,0)
  0()



EVENT   19
 PAGE   1
  250(bytes(0x04,0x08,0x6f,0x3a,0x0c,0x52,0x50,0x47,0x3a,0x3a,0x53,0x45,0x08,0x3a,0x0a,0x40,0x6e,0x61,0x6d,0x65,0x49,0x22,0x09,0x4d,0x6f,0x76,0x65,0x06,0x3a,0x06,0x45,0x54,0x3a,0x0b,0x40,0x70,0x69,0x74,0x63,0x68,0x69,0x69,0x3a,0x0c,0x40,0x76,0x6f,0x6c,0x75,0x6d,0x65,0x69,0x55))
  TeleportPlayer(0,2,221,175,2,0)
  0()



EVENT   20
 PAGE   1
  250(bytes(0x04,0x08,0x6f,0x3a,0x0c,0x52,0x50,0x47,0x3a,0x3a,0x53,0x45,0x08,0x3a,0x0a,0x40,0x6e,0x61,0x6d,0x65,0x49,0x22,0x09,0x4d,0x6f,0x76,0x65,0x06,0x3a,0x06,0x45,0x54,0x3a,0x0b,0x40,0x70,0x69,0x74,0x63,0x68,0x69,0x69,0x3a,0x0c,0x40,0x76,0x6f,0x6c,0x75,0x6d,0x65,0x69,0x55))
  TeleportPlayer(0,2,221,175,2,0)
  0()



EVENT   21
 PAGE   1
  250(bytes(0x04,0x08,0x6f,0x3a,0x0c,0x52,0x50,0x47,0x3a,0x3a,0x53,0x45,0x08,0x3a,0x0a,0x40,0x6e,0x61,0x6d,0x65,0x49,0x22,0x09,0x4d,0x6f,0x76,0x65,0x06,0x3a,0x06,0x45,0x54,0x3a,0x0b,0x40,0x70,0x69,0x74,0x63,0x68,0x69,0x69,0x3a,0x0c,0x40,0x76,0x6f,0x6c,0x75,0x6d,0x65,0x69,0x55))
  TeleportPlayer(0,2,221,175,2,0)
  0()



EVENT   22
 PAGE   1
  250(bytes(0x04,0x08,0x6f,0x3a,0x0c,0x52,0x50,0x47,0x3a,0x3a,0x53,0x45,0x08,0x3a,0x0a,0x40,0x6e,0x61,0x6d,0x65,0x49,0x22,0x09,0x4d,0x6f,0x76,0x65,0x06,0x3a,0x06,0x45,0x54,0x3a,0x0b,0x40,0x70,0x69,0x74,0x63,0x68,0x69,0x69,0x3a,0x0c,0x40,0x76,0x6f,0x6c,0x75,0x6d,0x65,0x69,0x55))
  TeleportPlayer(0,2,221,175,2,0)
  0()



EVENT   23
 PAGE   1
  250(bytes(0x04,0x08,0x6f,0x3a,0x0c,0x52,0x50,0x47,0x3a,0x3a,0x53,0x45,0x08,0x3a,0x0a,0x40,0x6e,0x61,0x6d,0x65,0x49,0x22,0x09,0x4d,0x6f,0x76,0x65,0x06,0x3a,0x06,0x45,0x54,0x3a,0x0b,0x40,0x70,0x69,0x74,0x63,0x68,0x69,0x69,0x3a,0x0c,0x40,0x76,0x6f,0x6c,0x75,0x6d,0x65,0x69,0x55))
  TeleportPlayer(0,2,221,175,2,0)
  0()



EVENT   24
 PAGE   1
  250(bytes(0x04,0x08,0x6f,0x3a,0x0c,0x52,0x50,0x47,0x3a,0x3a,0x53,0x45,0x08,0x3a,0x0a,0x40,0x6e,0x61,0x6d,0x65,0x49,0x22,0x09,0x4d,0x6f,0x76,0x65,0x06,0x3a,0x06,0x45,0x54,0x3a,0x0b,0x40,0x70,0x69,0x74,0x63,0x68,0x69,0x69,0x3a,0x0c,0x40,0x76,0x6f,0x6c,0x75,0x6d,0x65,0x69,0x55))
  TeleportPlayer(0,2,221,175,2,0)
  0()



EVENT   25
 PAGE   1
  250(bytes(0x04,0x08,0x6f,0x3a,0x0c,0x52,0x50,0x47,0x3a,0x3a,0x53,0x45,0x08,0x3a,0x0a,0x40,0x6e,0x61,0x6d,0x65,0x49,0x22,0x09,0x4d,0x6f,0x76,0x65,0x06,0x3a,0x06,0x45,0x54,0x3a,0x0b,0x40,0x70,0x69,0x74,0x63,0x68,0x69,0x69,0x3a,0x0c,0x40,0x76,0x6f,0x6c,0x75,0x6d,0x65,0x69,0x55))
  TeleportPlayer(0,2,221,175,2,0)
  0()



EVENT   26
 PAGE   1
  250(bytes(0x04,0x08,0x6f,0x3a,0x0c,0x52,0x50,0x47,0x3a,0x3a,0x53,0x45,0x08,0x3a,0x0a,0x40,0x6e,0x61,0x6d,0x65,0x49,0x22,0x09,0x4d,0x6f,0x76,0x65,0x06,0x3a,0x06,0x45,0x54,0x3a,0x0b,0x40,0x70,0x69,0x74,0x63,0x68,0x69,0x69,0x3a,0x0c,0x40,0x76,0x6f,0x6c,0x75,0x6d,0x65,0x69,0x55))
  TeleportPlayer(0,2,221,175,2,0)
  0()



EVENT   27
 PAGE   1
  250(bytes(0x04,0x08,0x6f,0x3a,0x0c,0x52,0x50,0x47,0x3a,0x3a,0x53,0x45,0x08,0x3a,0x0a,0x40,0x6e,0x61,0x6d,0x65,0x49,0x22,0x09,0x4d,0x6f,0x76,0x65,0x06,0x3a,0x06,0x45,0x54,0x3a,0x0b,0x40,0x70,0x69,0x74,0x63,0x68,0x69,0x69,0x3a,0x0c,0x40,0x76,0x6f,0x6c,0x75,0x6d,0x65,0x69,0x55))
  TeleportPlayer(0,2,221,175,2,0)
  0()



EVENT   28
 PAGE   1
  250(bytes(0x04,0x08,0x6f,0x3a,0x0c,0x52,0x50,0x47,0x3a,0x3a,0x53,0x45,0x08,0x3a,0x0a,0x40,0x6e,0x61,0x6d,0x65,0x49,0x22,0x09,0x4d,0x6f,0x76,0x65,0x06,0x3a,0x06,0x45,0x54,0x3a,0x0b,0x40,0x70,0x69,0x74,0x63,0x68,0x69,0x69,0x3a,0x0c,0x40,0x76,0x6f,0x6c,0x75,0x6d,0x65,0x69,0x55))
  TeleportPlayer(0,2,221,175,2,0)
  0()



EVENT   29
 PAGE   1
  250(bytes(0x04,0x08,0x6f,0x3a,0x0c,0x52,0x50,0x47,0x3a,0x3a,0x53,0x45,0x08,0x3a,0x0a,0x40,0x6e,0x61,0x6d,0x65,0x49,0x22,0x09,0x4d,0x6f,0x76,0x65,0x06,0x3a,0x06,0x45,0x54,0x3a,0x0b,0x40,0x70,0x69,0x74,0x63,0x68,0x69,0x69,0x3a,0x0c,0x40,0x76,0x6f,0x6c,0x75,0x6d,0x65,0x69,0x55))
  TeleportPlayer(0,2,221,175,2,0)
  0()



EVENT   30
 PAGE   1
  250(bytes(0x04,0x08,0x6f,0x3a,0x0c,0x52,0x50,0x47,0x3a,0x3a,0x53,0x45,0x08,0x3a,0x0a,0x40,0x6e,0x61,0x6d,0x65,0x49,0x22,0x09,0x4d,0x6f,0x76,0x65,0x06,0x3a,0x06,0x45,0x54,0x3a,0x0b,0x40,0x70,0x69,0x74,0x63,0x68,0x69,0x69,0x3a,0x0c,0x40,0x76,0x6f,0x6c,0x75,0x6d,0x65,0x69,0x55))
  TeleportPlayer(0,2,221,175,2,0)
  0()



EVENT   31
 PAGE   1
  250(bytes(0x04,0x08,0x6f,0x3a,0x0c,0x52,0x50,0x47,0x3a,0x3a,0x53,0x45,0x08,0x3a,0x0a,0x40,0x6e,0x61,0x6d,0x65,0x49,0x22,0x09,0x4d,0x6f,0x76,0x65,0x06,0x3a,0x06,0x45,0x54,0x3a,0x0b,0x40,0x70,0x69,0x74,0x63,0x68,0x69,0x69,0x3a,0x0c,0x40,0x76,0x6f,0x6c,0x75,0x6d,0x65,0x69,0x55))
  TeleportPlayer(0,2,221,175,2,0)
  0()



EVENT   32
 PAGE   1
  241(bytes(0x04,0x08,0x6f,0x3a,0x0d,0x52,0x50,0x47,0x3a,0x3a,0x42,0x47,0x4d,0x08,0x3a,0x0a,0x40,0x6e,0x61,0x6d,0x65,0x49,0x22,0x0a,0x6d,0x75,0x72,0x61,0x33,0x06,0x3a,0x06,0x45,0x54,0x3a,0x0c,0x40,0x76,0x6f,0x6c,0x75,0x6d,0x65,0x69,0x69,0x3a,0x0b,0x40,0x70,0x69,0x74,0x63,0x68,0x69,0x69))
  If(0,4,0)
   ShowMessageFace("alice_fc5",0,0,2,1)
   ShowMessage("\\n<Alice>All right, now that we're in Goddard, our next step is making contact with the spy at the town bar.")
   ShowMessageFace("alice_fc6",0,0,2,2)
   ShowMessage("\\n<Alice>Hmm... Is there not an lewd air permeating this entire town? I don't see how a normal human could stay sane for long here...")
   0()
  EndIf()
  If(0,5,0)
   ShowMessageFace("iriasu_fc4",0,0,2,3)
   ShowMessage("\\n<Ilias>We have arrived in Goddard.\nAccording to the plan, we should make contact with the spy at the bar.")
   ShowMessageFace("iriasu_fc4",2,0,2,4)
   ShowMessage("\\n<Ilias>Hmm... What's with this lewd air hanging over the whole town? I doubt a normal human could retain their sanity here...")
   0()
  EndIf()
  If(0,6,0)
   ShowMessageFace("sonia_fc2",2,0,2,5)
   ShowMessage("\\n<Sonya>You're right... I can feel my mind spacing out, ever so slightly.")
   0()
  EndIf()
  If(4,163,0)
   ShowMessageFace("lily_fc1",5,0,2,6)
   ShowMessage("\\n<Lily>It feels like a seduction spell...\nThe source of it is rather far from here, though.")
   0()
  EndIf()
  ShowMessageFace("ruka_fc1",0,0,2,7)
  ShowMessage("\\n<Luka>I'm getting the creeps just being here...\nWe better hurry to the bar and meet the spy.")
  ChangeVariable(1063,1063,0,0,5)
  EndEventProcessing()
  0()
 PAGE   2
  // condition: variable 1063 >= 5
  0()
 PAGE   3
  // condition: variable 1078 >= 1
  If(0,4,0)
   ShowMessageFace("alice_fc5",0,0,2,1)
   ShowMessage("\\n<Alice>Okay, we should search out whoever is in charge of the ceremony. Our best bet is probably a current magical girl.")
   0()
  EndIf()
  If(0,5,0)
   ShowMessageFace("iriasu_fc4",2,0,2,2)
   ShowMessage("\\n<Ilias>Okay, we should search out whoever is carrying out the ceremony. Our best bet is probably a current magical girl.")
   0()
  EndIf()
  If(0,6,0)
   ShowMessageFace("sonia_fc1",2,0,2,3)
   ShowMessage("\\n<Sonya>I wonder if I could be selected as a magical girl...")
   ShowMessageFace("sonia_fc4",0,0,2,4)
   ShowMessage("\\n<Sonya>...no, bad Sonya.\nThis ceremony is dangerous.")
   If(0,4,0)
    ShowMessageFace("alice_fc5",2,0,2,5)
    ShowMessage("\\n<Alice>Mother banned it for appealing to humanity's darker side. The Monster Lord's army may even send assassins to put a stop to the ceremony.")
    0()
   EndIf()
   If(0,5,0)
    ShowMessageFace("iriasu_fc4",2,0,2,6)
    ShowMessage("\\n<Ilias>I have to give that Monster Lord credit for banning a practice rooted in grudges and malice. I actually would not be surprised if assassins from the Monster Lord's army came to stop the ceremony.")
    0()
   EndIf()
   ShowMessageFace("ruka_fc1",0,0,2,7)
   ShowMessage("\\n<Luka>It's that dangerous?\nWe better do whatever it takes to stop it then!")
   0()
  EndIf()
  ChangeSelfSwitch("A",0)
  0()
 PAGE   4
  // condition: self-switch A is ON
  0()



EVENT   33
 PAGE   1
  If(1,1082,0,2,0)
   ShowMessageFace("grangold_fc2",1,0,2,1)
   ShowMessage("\\n<King of Grangold>I am the king... Your king...")
   ShowMessageFace("",0,0,2,2)
   ShowMessage("\\n<Youth>Uwaaah! It's a monster!!")
   250(bytes(0x04,0x08,0x6f,0x3a,0x0c,0x52,0x50,0x47,0x3a,0x3a,0x53,0x45,0x08,0x3a,0x0a,0x40,0x6e,0x61,0x6d,0x65,0x49,0x22,0x0f,0x6d,0x6f,0x6e,0x5f,0x65,0x73,0x63,0x61,0x70,0x65,0x06,0x3a,0x06,0x45,0x54,0x3a,0x0b,0x40,0x70,0x69,0x74,0x63,0x68,0x69,0x69,0x3a,0x0c,0x40,0x76,0x6f,0x6c,0x75,0x6d,0x65,0x69,0x69))
   221()
   ShowMessageFace("",0,0,2,3)
   ShowMessage("The youth ran away!")
   ChangeSwitch(2285,2285,0)
   222()
   ChangeVariable(1087,1087,1,0,1)
   RunCommonEvent(361)
   EndEventProcessing()
   0()
  EndIf()
  If(1,1063,0,12,2)
   ShowMessageFace("",0,0,2,4)
   ShowMessage("\\n<Youth>Eheheh... My queen...")
   If(0,6,0)
    ShowMessageFace("sonia_fc3",2,0,2,5)
    ShowMessage("\\n<Sonya>The town has a pervert by the entrance!!\nDon't tell me this is another pervert hangout like Pornof!")
    0()
   Else()
    ShowMessageFace("ruka_fc1",0,0,2,6)
    ShowMessage("\\n<Luka>What's with this guy? Some perv?")
    0()
   EndIf()
   If(0,4,0)
    ShowMessageFace("alice_fc5",2,0,2,7)
    ShowMessage("\\n<Alice>No, he's gone mad from the lewd air. It's probably the work of the queen he's talking about.")
    0()
   EndIf()
   If(0,5,0)
    ShowMessageFace("iriasu_fc4",7,0,2,8)
    ShowMessage("\\n<Ilias>No, he's gone mad from the lewd air. It's probably the work of the queen he's talking about.")
    0()
   EndIf()
   ShowMessageFace("",0,0,2,9)
   ShowMessage("\\n<Youth>I'll take you wherever you need to go... The queen's coming, too...")
   0()
  EndIf()
  If(1,1063,0,13,1)
   ShowMessageFace("",0,0,2,10)
   ShowMessage("\\n<Youth>Welcome to the stronghold town of Goddard! Where would you like to go?")
   0()
  EndIf()
  355("unlimited_choices(11, [\"Inn\",")
  655("\"Accessory Shop-Blacksmith\",\"Item Shop\",")
  655("\"Bar\",\"Church\",\"Nowhere\"])")
  If(1,11,0,0,0)
   TeleportPlayer(0,49,37,32,2,0)
   EndEventProcessing()
   0()
  EndIf()
  If(1,11,0,1,0)
   TeleportPlayer(0,49,10,14,2,0)
   EndEventProcessing()
   0()
  EndIf()
  If(1,11,0,2,0)
   TeleportPlayer(0,49,40,19,2,0)
   EndEventProcessing()
   0()
  EndIf()
  If(1,11,0,3,0)
   TeleportPlayer(0,49,28,17,2,0)
   EndEventProcessing()
   0()
  EndIf()
  If(1,11,0,4,0)
   TeleportPlayer(0,49,6,17,2,0)
   EndEventProcessing()
   0()
  EndIf()
  If(1,11,0,5,0)
   EndEventProcessing()
   0()
  EndIf()
  0()
 PAGE   2
  // condition: switch 2285 is ON
  0()



EVENT   34
 PAGE   1
  // condition: switch 1540 is ON
  // condition: variable 1063 >= 13
  241(bytes(0x04,0x08,0x6f,0x3a,0x0d,0x52,0x50,0x47,0x3a,0x3a,0x42,0x47,0x4d,0x08,0x3a,0x0a,0x40,0x6e,0x61,0x6d,0x65,0x49,0x22,0x0a,0x61,0x6d,0x69,0x72,0x61,0x06,0x3a,0x06,0x45,0x54,0x3a,0x0c,0x40,0x76,0x6f,0x6c,0x75,0x6d,0x65,0x69,0x69,0x3a,0x0b,0x40,0x70,0x69,0x74,0x63,0x68,0x69,0x69))
  If(2,"A",1)
   ChangeSelfSwitch("A",0)
   RunCommonEvent(322)
   0()
  Else()
   ShowMessageFace("amira_fc1",0,0,2,1)
   ShowMessage("\\n<Amira>You've already found me here.")
   ShowMessage("Keep searching for me elsewhere...")
   0()
  EndIf()
  241(bytes(0x04,0x08,0x6f,0x3a,0x0d,0x52,0x50,0x47,0x3a,0x3a,0x42,0x47,0x4d,0x08,0x3a,0x0a,0x40,0x6e,0x61,0x6d,0x65,0x49,0x22,0x0a,0x63,0x69,0x74,0x79,0x31,0x06,0x3a,0x06,0x45,0x54,0x3a,0x0c,0x40,0x76,0x6f,0x6c,0x75,0x6d,0x65,0x69,0x69,0x3a,0x0b,0x40,0x70,0x69,0x74,0x63,0x68,0x69,0x69))
  EndEventProcessing()
  0()
 PAGE   2
  // condition: party contains actor #540
  0()



EVENT   35
 PAGE   1
  If(1,1082,0,2,0)
   ShowMessageFace("grangold_fc2",1,0,2,1)
   ShowMessage("\\n<King of Grangold>Be at peace, for you are under the protection of the Goddess...")
   ShowMessageFace("",0,0,2,2)
   ShowMessage("\\n<Priest>Aiyeeeee! Ilias, save us!!")
   250(bytes(0x04,0x08,0x6f,0x3a,0x0c,0x52,0x50,0x47,0x3a,0x3a,0x53,0x45,0x08,0x3a,0x0a,0x40,0x6e,0x61,0x6d,0x65,0x49,0x22,0x0f,0x6d,0x6f,0x6e,0x5f,0x65,0x73,0x63,0x61,0x70,0x65,0x06,0x3a,0x06,0x45,0x54,0x3a,0x0b,0x40,0x70,0x69,0x74,0x63,0x68,0x69,0x69,0x3a,0x0c,0x40,0x76,0x6f,0x6c,0x75,0x6d,0x65,0x69,0x69))
   221()
   ChangeSwitch(2299,2299,0)
   ShowMessageFace("",0,0,2,3)
   ShowMessage("The priest ran away!")
   222()
   ChangeVariable(1087,1087,1,0,1)
   RunCommonEvent(361)
   EndEventProcessing()
   0()
  EndIf()
  If(1,1063,0,12,2)
   ShowMessageFace("",0,0,2,4)
   ShowMessage("\\n<Priest>M-my queen...\nNghhh... No, I will never abandon my faith...")
   ShowChoices(strings("Pray","Nothing"),2)
   IfPlayerPicksChoice(0,null)
    ChangeVariable(1002,1002,0,0,29)
    ShowMessageFace("",0,0,2,5)
    ShowMessage("\\n<Priest>She will guide the way...\nAhhh...my queen, I want her to guide me...")
    ShowMessageFace("",0,0,2,6)
    ShowMessage("\\n<Priest>Haaa...")
    0()
   IfPlayerPicksChoice(1,null)
    ShowMessageFace("",0,0,2,7)
    ShowMessage("\\n<Priest>My queeeen...no, Iliaaas...")
    0()
   404()
   EndEventProcessing()
   0()
  EndIf()
  If(1,1063,0,13,1)
   ShowMessageFace("",0,0,2,8)
   ShowMessage("\\n<Priest>Welcome to the church that is untouched by sunlight. How can I help you?")
   ShowChoices(strings("Pray","Nothing"),2)
   IfPlayerPicksChoice(0,null)
    ChangeVariable(1002,1002,0,0,29)
    ShowMessageFace("",0,0,2,9)
    ShowMessage("\\n<Priest>Well then, let us pray to Ilias.\n...there, you should feel a bond drawing you to this place.")
    ShowMessageFace("",0,0,2,10)
    ShowMessage("\\n<Priest>If something were to happen to you on your journey, the bond should lead you back here. May Ilias watch over you...")
    0()
   IfPlayerPicksChoice(1,null)
    ShowMessageFace("",0,0,2,11)
    ShowMessage("\\n<Priest>May Ilias watch over you...")
    0()
   404()
   EndEventProcessing()
   0()
  EndIf()
  0()
 PAGE   2
  // condition: switch 2299 is ON
  0()



EVENT   36
 PAGE   1
  If(1,1082,0,2,0)
   ShowMessageFace("grangold_fc2",1,0,2,1)
   ShowMessage("\\n<King of Grangold>That beautiful score from your mouth stirs my heart...")
   ShowMessageFace("",0,0,2,2)
   ShowMessage("\\n<Poet>Ahiii! Heeelp!")
   250(bytes(0x04,0x08,0x6f,0x3a,0x0c,0x52,0x50,0x47,0x3a,0x3a,0x53,0x45,0x08,0x3a,0x0a,0x40,0x6e,0x61,0x6d,0x65,0x49,0x22,0x0f,0x6d,0x6f,0x6e,0x5f,0x65,0x73,0x63,0x61,0x70,0x65,0x06,0x3a,0x06,0x45,0x54,0x3a,0x0b,0x40,0x70,0x69,0x74,0x63,0x68,0x69,0x69,0x3a,0x0c,0x40,0x76,0x6f,0x6c,0x75,0x6d,0x65,0x69,0x69))
   221()
   ChangeSwitch(2296,2296,0)
   ShowMessageFace("",0,0,2,3)
   ShowMessage("The poet ran away!")
   222()
   ChangeVariable(1087,1087,1,0,1)
   RunCommonEvent(361)
   EndEventProcessing()
   0()
  EndIf()
  If(1,1063,0,12,2)
   ShowMessageFace("",0,0,2,4)
   ShowMessage("\\n<Poet>Let's sing a song for the queen...\nAh, beautiful queen...")
   EndEventProcessing()
   0()
  EndIf()
  If(1,1063,0,13,1)
   ShowMessageFace("",0,0,2,5)
   ShowMessage("\\n<Poet>I wrote the feelings I had while I was under the temptation into a poem. Ah, beautiful queen... Lululu.")
   EndEventProcessing()
   0()
  EndIf()
  0()
 PAGE   2
  // condition: switch 2296 is ON
  0()



EVENT   37
 PAGE   1
  If(1,1082,0,2,0)
   ShowMessageFace("grangold_fc2",1,0,2,1)
   ShowMessage("\\n<King of Grangold>My people... Under the light that shines from Heaven...")
   ShowMessageFace("",0,0,2,2)
   ShowMessage("\\n<Man>Wh-wh-wh...whaaaaat?!")
   250(bytes(0x04,0x08,0x6f,0x3a,0x0c,0x52,0x50,0x47,0x3a,0x3a,0x53,0x45,0x08,0x3a,0x0a,0x40,0x6e,0x61,0x6d,0x65,0x49,0x22,0x0f,0x6d,0x6f,0x6e,0x5f,0x65,0x73,0x63,0x61,0x70,0x65,0x06,0x3a,0x06,0x45,0x54,0x3a,0x0b,0x40,0x70,0x69,0x74,0x63,0x68,0x69,0x69,0x3a,0x0c,0x40,0x76,0x6f,0x6c,0x75,0x6d,0x65,0x69,0x69))
   221()
   ChangeSwitch(2302,2302,0)
   ShowMessageFace("",0,0,2,3)
   ShowMessage("The man ran away!")
   222()
   ChangeVariable(1087,1087,1,0,1)
   RunCommonEvent(361)
   EndEventProcessing()
   0()
  EndIf()
  If(1,1063,0,12,2)
   ShowMessageFace("",0,0,2,4)
   ShowMessage("\\n<Man>My queeen...aaaaah...")
   If(0,4,0)
    ShowMessageFace("alice_fc6",0,0,2,5)
    ShowMessage("\\n<Alice>He's completely watered-down in this state.\nThere's no doubt all of the inhabitants have become like this...")
    0()
   EndIf()
   If(0,5,0)
    ShowMessageFace("iriasu_fc4",7,0,2,6)
    ShowMessage("\\n<Ilias>His mind is completely muddled by the lewd air. I'm certain everyone in town is in this state...")
    0()
   EndIf()
   EndEventProcessing()
   0()
  EndIf()
  If(1,1063,0,13,1)
   ShowMessageFace("",0,0,2,7)
   ShowMessage("\\n<Man>Man, that was awful.\nWhen I lost my mind, it seems I was aimlessly wandering this road.")
   ShowMessageFace("",0,0,2,8)
   ShowMessage("\\n<Man>...Well, now that I'm sane again, I'm still doing the same thing. That's just the way of the world.")
   355("actor_label_jump")
   EndEventProcessing()
   DefineLabel("241")
   ShowMessageFace("a_emp_fc1",2,0,2,9)
   ShowMessage("\\n<Priestess>That's an unpleasant thought...")
   EndEventProcessing()
   DefineLabel("242")
   ShowMessageFace("a_emp_fc1",4,0,2,10)
   ShowMessage("\\n<Priestess>Fufufu.")
   EndEventProcessing()
   0()
  EndIf()
  0()
 PAGE   2
  // condition: switch 2302 is ON
  0()



EVENT   38
 PAGE   1
  If(1,1082,0,2,0)
   ShowMessageFace("grangold_fc2",1,0,2,1)
   ShowMessage("\\n<King of Grangold>I vow... To make this land a paradise...")
   ShowMessageFace("",0,0,2,2)
   ShowMessage("\\n<Young Man>Hyaaah! The final boss is attacking!!")
   250(bytes(0x04,0x08,0x6f,0x3a,0x0c,0x52,0x50,0x47,0x3a,0x3a,0x53,0x45,0x08,0x3a,0x0a,0x40,0x6e,0x61,0x6d,0x65,0x49,0x22,0x0f,0x6d,0x6f,0x6e,0x5f,0x65,0x73,0x63,0x61,0x70,0x65,0x06,0x3a,0x06,0x45,0x54,0x3a,0x0b,0x40,0x70,0x69,0x74,0x63,0x68,0x69,0x69,0x3a,0x0c,0x40,0x76,0x6f,0x6c,0x75,0x6d,0x65,0x69,0x69))
   221()
   ChangeSwitch(2286,2286,0)
   ShowMessageFace("",0,0,2,3)
   ShowMessage("The young man ran away!")
   222()
   ChangeVariable(1087,1087,1,0,1)
   RunCommonEvent(361)
   EndEventProcessing()
   0()
  EndIf()
  If(1,1063,0,12,2)
   ShowMessageFace("",0,0,2,4)
   ShowMessage("\\n<Young Man>Ehehe... My queen...\nEhehe...ehehe...")
   If(0,4,0)
    ShowMessageFace("alice_fc6",0,0,2,5)
    ShowMessage("\\n<Alice>He's practically a zombie...")
    0()
   EndIf()
   If(0,5,0)
    ShowMessageFace("iriasu_fc4",2,0,2,6)
    ShowMessage("\\n<Ilias>He's already a living corpse...")
    0()
   EndIf()
   If(0,6,0)
    ShowMessageFace("sonia_fc2",2,0,2,7)
    ShowMessage("\\n<Sonya>Can he keep living like this...?\nWell, I guess he's been like this awhile already.")
    0()
   EndIf()
   EndEventProcessing()
   0()
  EndIf()
  If(1,1063,0,13,1)
   ShowMessageFace("",0,0,2,8)
   ShowMessage("\\n<Young Man>I grew fat while my reason was lost.\nSomehow, I had been eating many more meals than usual...")
   ShowMessageFace("",0,0,2,9)
   ShowMessage("\\n<Young Man>Everyone had lost their reason, but the economy continued as usual without any problems. Even though I don't remember anything, it's still kind of strange...")
   If(0,4,0)
    ShowMessageFace("alice_fc5",0,0,2,10)
    ShowMessage("\\n<Alice>Work was carried out while their reason was taken away... It's terrible what Tamamo's bewitching magic has done to them.")
    0()
   EndIf()
   If(0,5,0)
    ShowMessageFace("iriasu_fc4",2,0,2,11)
    ShowMessage("\\n<Ilias>While deprived of their reason, they were doing just enough work to not break down in that state. Not even an angel would be capable of pulling off a stunt like this.")
    0()
   EndIf()
   EndEventProcessing()
   0()
  EndIf()
  0()
 PAGE   2
  // condition: switch 2286 is ON
  0()



EVENT   39
 PAGE   1
  If(1,1082,0,2,0)
   ShowMessageFace("grangold_fc2",1,0,2,1)
   ShowMessage("\\n<King of Grangold>Citizens... Oh, my beloved citizens...")
   ShowMessageFace("",0,0,2,2)
   ShowMessage("\\n<Rowdy Man>H-help meee!!")
   250(bytes(0x04,0x08,0x6f,0x3a,0x0c,0x52,0x50,0x47,0x3a,0x3a,0x53,0x45,0x08,0x3a,0x0a,0x40,0x6e,0x61,0x6d,0x65,0x49,0x22,0x0f,0x6d,0x6f,0x6e,0x5f,0x65,0x73,0x63,0x61,0x70,0x65,0x06,0x3a,0x06,0x45,0x54,0x3a,0x0b,0x40,0x70,0x69,0x74,0x63,0x68,0x69,0x69,0x3a,0x0c,0x40,0x76,0x6f,0x6c,0x75,0x6d,0x65,0x69,0x69))
   221()
   ChangeSwitch(2287,2287,0)
   ShowMessageFace("",0,0,2,3)
   ShowMessage("The rowdy man ran away!")
   222()
   ChangeVariable(1087,1087,1,0,1)
   RunCommonEvent(361)
   EndEventProcessing()
   0()
  EndIf()
  If(1,1063,0,12,2)
   ShowMessageFace("",0,0,2,4)
   ShowMessage("\\n<Rowdy Man>Ahhh... She's whispering into my ear, my queeeen...")
   EndEventProcessing()
   0()
  EndIf()
  If(1,1063,0,13,1)
   ShowMessageFace("",0,0,2,5)
   ShowMessage("\\n<Rowdy Man>Most of my memories from the time I was under the temptation have disappeared, but... I remember the queen was incredibly sexy.")
   ShowMessageFace("",0,0,2,6)
   ShowMessage("\\n<Rowdy Man>It would be a man's dream to get sucked dry by her...\nAhhhh... My queeeen...")
   355("actor_label_jump")
   EndEventProcessing()
   DefineLabel("5")
   ShowMessageFace("alice_fc5",0,0,2,7)
   ShowMessage("\\n<Alice>Damn pervert.")
   EndEventProcessing()
   0()
  EndIf()
  0()
 PAGE   2
  // condition: switch 2287 is ON
  0()



EVENT   40
 PAGE   1
  If(1,1082,0,2,0)
   ShowMessageFace("grangold_fc2",1,0,2,1)
   ShowMessage("\\n<King of Grangold>Citizens of my kingdom, may your futures be filled with glory...")
   ShowMessageFace("",0,0,2,2)
   ShowMessage("\\n<Man>Uwaaah! The Monster Lord is attacking!!")
   250(bytes(0x04,0x08,0x6f,0x3a,0x0c,0x52,0x50,0x47,0x3a,0x3a,0x53,0x45,0x08,0x3a,0x0a,0x40,0x6e,0x61,0x6d,0x65,0x49,0x22,0x0f,0x6d,0x6f,0x6e,0x5f,0x65,0x73,0x63,0x61,0x70,0x65,0x06,0x3a,0x06,0x45,0x54,0x3a,0x0b,0x40,0x70,0x69,0x74,0x63,0x68,0x69,0x69,0x3a,0x0c,0x40,0x76,0x6f,0x6c,0x75,0x6d,0x65,0x69,0x69))
   221()
   ChangeSwitch(2298,2298,0)
   ShowMessageFace("",0,0,2,3)
   ShowMessage("The man ran away!")
   222()
   ChangeVariable(1087,1087,1,0,1)
   RunCommonEvent(361)
   EndEventProcessing()
   0()
  EndIf()
  If(1,1063,0,12,2)
   ShowMessageFace("",0,0,2,4)
   ShowMessage("\\n<Man>The voice of my queen...her voice...")
   EndEventProcessing()
   0()
  EndIf()
  If(1,1063,0,13,1)
   ShowMessageFace("",0,0,2,5)
   ShowMessage("\\n<Man>I'm not scared of the Monster Lord's declaration of war.\nA hero will most certainly defeat her.")
   EndEventProcessing()
   0()
  EndIf()
  0()
 PAGE   2
  // condition: switch 2298 is ON
  0()



EVENT   41
 PAGE   1
  If(1,1082,0,2,0)
   ShowMessageFace("grangold_fc2",1,0,2,1)
   ShowMessage("\\n<King of Grangold>Vow that your spear will pierce through evil...")
   ShowMessageFace("",0,0,2,2)
   ShowMessage("\\n<Soldier>E-emergency! I need reinforcements immediately!!")
   250(bytes(0x04,0x08,0x6f,0x3a,0x0c,0x52,0x50,0x47,0x3a,0x3a,0x53,0x45,0x08,0x3a,0x0a,0x40,0x6e,0x61,0x6d,0x65,0x49,0x22,0x0f,0x6d,0x6f,0x6e,0x5f,0x65,0x73,0x63,0x61,0x70,0x65,0x06,0x3a,0x06,0x45,0x54,0x3a,0x0b,0x40,0x70,0x69,0x74,0x63,0x68,0x69,0x69,0x3a,0x0c,0x40,0x76,0x6f,0x6c,0x75,0x6d,0x65,0x69,0x69))
   221()
   ChangeSwitch(2290,2290,0)
   ShowMessageFace("",0,0,2,3)
   ShowMessage("The soldier left to call for reinforcements!")
   222()
   ChangeVariable(1087,1087,1,0,1)
   RunCommonEvent(361)
   EndEventProcessing()
   0()
  EndIf()
  If(1,1063,0,12,2)
   ShowMessageFace("",0,0,2,4)
   ShowMessage("\\n<Soldier>The smell of my queen... Aaahhhhhh...")
   EndEventProcessing()
   0()
  EndIf()
  If(1,1063,0,13,1)
   ShowMessageFace("",0,0,2,5)
   ShowMessage("\\n<Soldier>Further east from the toxic swamp is Gold Coast.\nPlease beware of the dangerous sea monsters that frequently appear there.")
   ShowMessageFace("",0,0,2,6)
   ShowMessage("\\n<Soldier>I heard a legend that there is a way to the undersea temple there. I'm certain the man at the bar is well-informed about it.")
   EndEventProcessing()
   0()
  EndIf()
  0()
 PAGE   2
  // condition: switch 2290 is ON
  0()



EVENT   42
 PAGE   1
  If(1,1082,0,2,0)
   ShowMessageFace("grangold_fc2",1,0,2,1)
   ShowMessage("\\n<King of Grangold>You understand that a sword and shield is what makes a soldier...")
   ShowMessageFace("",0,0,2,2)
   ShowMessage("\\n<Soldier>M-monster attack...?! I don't stand a chance on my own!!")
   250(bytes(0x04,0x08,0x6f,0x3a,0x0c,0x52,0x50,0x47,0x3a,0x3a,0x53,0x45,0x08,0x3a,0x0a,0x40,0x6e,0x61,0x6d,0x65,0x49,0x22,0x0f,0x6d,0x6f,0x6e,0x5f,0x65,0x73,0x63,0x61,0x70,0x65,0x06,0x3a,0x06,0x45,0x54,0x3a,0x0b,0x40,0x70,0x69,0x74,0x63,0x68,0x69,0x69,0x3a,0x0c,0x40,0x76,0x6f,0x6c,0x75,0x6d,0x65,0x69,0x69))
   221()
   ChangeSwitch(2293,2293,0)
   ShowMessageFace("",0,0,2,3)
   ShowMessage("The soldier left to call for reinforcements!")
   222()
   ChangeVariable(1087,1087,1,0,1)
   RunCommonEvent(361)
   EndEventProcessing()
   0()
  EndIf()
  If(1,1063,0,12,2)
   ShowMessageFace("",0,0,2,4)
   ShowMessage("\\n<Soldier>Hail to my queen!\nHuuurrrraaaaaah!")
   EndEventProcessing()
   0()
  EndIf()
  If(1,1063,0,13,1)
   ShowMessageFace("",0,0,2,5)
   ShowMessage("\\n<Soldier>Hooray to the end of the war! Hurrah!\n...Even though I don't have any memories from during the war.")
   EndEventProcessing()
   0()
  EndIf()
  0()
 PAGE   2
  // condition: switch 2293 is ON
  0()



EVENT   43
 PAGE   1
  If(1,1063,0,12,2)
   ShowMessageFace("",0,0,2,1)
   ShowMessage("\\n<Young Girl>Look at me, look at me...\nI'm inside of a ball, roll roll...")
   EndEventProcessing()
   0()
  EndIf()
  If(1,1063,0,13,1)
   ShowMessageFace("",0,0,2,2)
   ShowMessage("\\n<Young Girl>I'll become a magical girl!\nMiraculous magic, whooosh! ♪")
   355("actor_label_jump")
   EndEventProcessing()
   DefineLabel("525")
   ShowMessageFace("sonia_fc1",0,0,2,3)
   ShowMessage("\\n<Sonya>When I was little, I always wanted to be a magical girl...")
   ShowMessageFace("ruka_fc1",0,0,2,4)
   ShowMessage("\\n<Luka>(I only have memories of you saying you'd rule the world with a club...)")
   EndEventProcessing()
   0()
  EndIf()
  0()
 PAGE   2
  // condition: variable 1087 >= 2
  0()
 PAGE   3
  // condition: switch 2303 is ON
  217()
  ShowMessageFace("grangold_fc2",1,0,2,1)
  ShowMessage("\\n<King of Grangold>Little girl, will you accept my authority again...?")
  ShowMessageFace("",0,0,2,2)
  ShowMessage("\\n<Young Girl>Kyaaah! Heeelp!")
  205(0,bytes(0x04,0x08,0x6f,0x3a,0x13,0x52,0x50,0x47,0x3a,0x3a,0x4d,0x6f,0x76,0x65,0x52,0x6f,0x75,0x74,0x65,0x09,0x3a,0x0c,0x40,0x72,0x65,0x70,0x65,0x61,0x74,0x46,0x3a,0x0f,0x40,0x73,0x6b,0x69,0x70,0x70,0x61,0x62,0x6c,0x65,0x54,0x3a,0x0a,0x40,0x77,0x61,0x69,0x74,0x54,0x3a,0x0a,0x40,0x6c,0x69,0x73,0x74,0x5b,0x0a,0x6f,0x3a,0x15,0x52,0x50,0x47,0x3a,0x3a,0x4d,0x6f,0x76,0x65,0x43,0x6f,0x6d,0x6d,0x61,0x6e,0x64,0x07,0x3a,0x0a,0x40,0x63,0x6f,0x64,0x65,0x69,0x2a,0x3a,0x10,0x40,0x70,0x61,0x72,0x61,0x6d,0x65,0x74,0x65,0x72,0x73,0x5b,0x00,0x6f,0x3b,0x0a,0x07,0x3b,0x0b,0x69,0x1f,0x3b,0x0c,0x5b,0x00,0x6f,0x3b,0x0a,0x07,0x3b,0x0b,0x69,0x11,0x3b,0x0c,0x5b,0x00,0x6f,0x3b,0x0a,0x07,0x3b,0x0b,0x69,0x16,0x3b,0x0c,0x5b,0x00,0x6f,0x3b,0x0a,0x07,0x3b,0x0b,0x69,0x00,0x3b,0x0c,0x5b,0x00))
  250(bytes(0x04,0x08,0x6f,0x3a,0x0c,0x52,0x50,0x47,0x3a,0x3a,0x53,0x45,0x08,0x3a,0x0a,0x40,0x6e,0x61,0x6d,0x65,0x49,0x22,0x0f,0x6d,0x6f,0x6e,0x5f,0x64,0x61,0x6d,0x61,0x67,0x65,0x06,0x3a,0x06,0x45,0x54,0x3a,0x0b,0x40,0x70,0x69,0x74,0x63,0x68,0x69,0x69,0x3a,0x0c,0x40,0x76,0x6f,0x6c,0x75,0x6d,0x65,0x69,0x69))
  ChangeSwitch(31,31,0)
  ShowMessageFace("",0,0,2,3)
  ShowMessage("\\n<Young Girl>Kyaaah!")
  ShowMessageFace("",0,0,2,4)
  ShowMessage("The young girl stumbled and fell down!")
  ShowMessageFace("",0,0,2,5)
  ShowMessage("\\n<Young Girl>Owww...I scraped my knee...")
  ShowMessageFace("grangold_fc2",1,0,2,6)
  ShowMessage("\\n<King of Grangold>...Are you all right?\nWinds of tranquil life, heal thy wound...")
  212(0,46,true)
  ChangeSwitch(31,31,1)
  ShowMessageFace("",0,0,2,7)
  ShowMessage("The young girl's injury was healed!")
  205(0,bytes(0x04,0x08,0x6f,0x3a,0x13,0x52,0x50,0x47,0x3a,0x3a,0x4d,0x6f,0x76,0x65,0x52,0x6f,0x75,0x74,0x65,0x09,0x3a,0x0c,0x40,0x72,0x65,0x70,0x65,0x61,0x74,0x46,0x3a,0x0f,0x40,0x73,0x6b,0x69,0x70,0x70,0x61,0x62,0x6c,0x65,0x46,0x3a,0x0a,0x40,0x77,0x61,0x69,0x74,0x54,0x3a,0x0a,0x40,0x6c,0x69,0x73,0x74,0x5b,0x07,0x6f,0x3a,0x15,0x52,0x50,0x47,0x3a,0x3a,0x4d,0x6f,0x76,0x65,0x43,0x6f,0x6d,0x6d,0x61,0x6e,0x64,0x07,0x3a,0x0a,0x40,0x63,0x6f,0x64,0x65,0x69,0x1e,0x3a,0x10,0x40,0x70,0x61,0x72,0x61,0x6d,0x65,0x74,0x65,0x72,0x73,0x5b,0x00,0x6f,0x3b,0x0a,0x07,0x3b,0x0b,0x69,0x00,0x3b,0x0c,0x5b,0x00))
  ShowMessageFace("grangold_fc2",1,0,2,8)
  ShowMessage("\\n<King of Grangold>Take care from now on...")
  ShowMessageFace("",0,0,2,9)
  ShowMessage("\\n<Young Girl>............")
  ShowMessageFace("",0,0,2,10)
  ShowMessage("\\n<Young Girl>Are you by any chance...the king?")
  ShowMessageFace("grangold_fc2",1,0,2,11)
  ShowMessage("\\n<King of Grangold>Why...do you think so?")
  ShowMessageFace("",0,0,2,12)
  ShowMessage("\\n<Young Girl>A long time ago, when I was smaller...\nThe king's parade came to this town.")
  221()
  Wait(60)
  211(0)
  TeleportPlayer(0,752,0,0,0,2)
  222()
  0()
 PAGE   4
  // condition: switch 31 is ON
  0()
 PAGE   5
  // condition: switch 2305 is ON
  241(bytes(0x04,0x08,0x6f,0x3a,0x0d,0x52,0x50,0x47,0x3a,0x3a,0x42,0x47,0x4d,0x08,0x3a,0x0a,0x40,0x6e,0x61,0x6d,0x65,0x49,0x22,0x13,0x73,0x63,0x65,0x6e,0x65,0x5f,0x6f,0x64,0x61,0x79,0x61,0x6b,0x61,0x32,0x06,0x3a,0x06,0x45,0x54,0x3a,0x0c,0x40,0x76,0x6f,0x6c,0x75,0x6d,0x65,0x69,0x69,0x3a,0x0b,0x40,0x70,0x69,0x74,0x63,0x68,0x69,0x69))
  Wait(60)
  ShowMessageFace("grangold_fc2",1,0,2,1)
  ShowMessage("\\n<King of Grangold>...Indeed, such a thing did happen back then...")
  ShowMessageFace("",0,0,2,2)
  ShowMessage("\\n<Young Girl>King... What happened to you?\nDid a bad wizard's spell transform you?")
  ShowMessageFace("grangold_fc2",1,0,2,3)
  ShowMessage("\\n<King of Grangold>Hmm, that's about right, I suppose...\nLittle girl, are you frightened by me...?")
  ShowMessageFace("",0,0,2,4)
  ShowMessage("\\n<Young Girl>At first I was surprised, but I'm not scared anymore!\nBecause you're my king!")
  ShowMessageFace("grangold_fc2",1,0,2,5)
  ShowMessage("\\n<King of Grangold>............")
  ShowMessageFace("sonia_fc1",4,0,2,6)
  ShowMessage("\\n<Sonya>I'm sure everyone will understand someday.\nThey'll see that you're still their king.")
  If(0,4,0)
   ShowMessageFace("alice_fc5",1,0,2,7)
   ShowMessage("\\n<Alice>People will probably be confused and reject you at first, but if you work hard as their king, it will be possible to overcome their reluctance.")
   0()
  EndIf()
  If(0,5,0)
   ShowMessageFace("iriasu_fc4",0,0,2,8)
   ShowMessage("\\n<Ilias>Even if you're rejected at first, they'll soon become accustomed to you. After all, no matter how much I tried to prohibit humanity from consorting with monsters, I was never able to tear them apart.")
   0()
  EndIf()
  241(bytes(0x04,0x08,0x6f,0x3a,0x0d,0x52,0x50,0x47,0x3a,0x3a,0x42,0x47,0x4d,0x08,0x3a,0x0a,0x40,0x6e,0x61,0x6d,0x65,0x49,0x22,0x14,0x73,0x63,0x65,0x6e,0x65,0x5f,0x65,0x70,0x69,0x6c,0x6f,0x67,0x75,0x65,0x32,0x06,0x3a,0x06,0x45,0x54,0x3a,0x0c,0x40,0x76,0x6f,0x6c,0x75,0x6d,0x65,0x69,0x69,0x3a,0x0b,0x40,0x70,0x69,0x74,0x63,0x68,0x69,0x69))
  ShowMessageFace("grangold_fc2",1,0,2,9)
  ShowMessage("\\n<King of Grangold>What's important is...what I will accomplish in the future. If I make my best efforts as king, my subjects will surely come to accept me.")
  ShowMessageFace("grangold_fc2",1,0,2,10)
  ShowMessage("\\n<King of Grangold>I shall waver no longer...\nFor my country, my people, and this world!")
  ShowMessageFace("",0,0,2,11)
  ShowMessage("The King of Grangold's resolve has strengthened!")
  318(0,535,0,454)
  318(0,535,0,457)
  250(bytes(0x04,0x08,0x6f,0x3a,0x0c,0x52,0x50,0x47,0x3a,0x3a,0x53,0x45,0x08,0x3a,0x0a,0x40,0x6e,0x61,0x6d,0x65,0x49,0x22,0x0a,0x49,0x74,0x65,0x6d,0x31,0x06,0x3a,0x06,0x45,0x54,0x3a,0x0b,0x40,0x70,0x69,0x74,0x63,0x68,0x69,0x69,0x3a,0x0c,0x40,0x76,0x6f,0x6c,0x75,0x6d,0x65,0x69,0x55))
  ShowMessageFace("",0,0,2,12)
  ShowMessage("King of Grangold learned \\I[100]\\C[1]Magic +40%\\C[0]!")
  ShowMessage("King of Grangold learned \\I[100]\\C[1]MP Cost 50%\\C[0]!")
  If(0,4,0)
   ShowMessageFace("alice_fc5",1,0,2,13)
   ShowMessage("\\n<Alice>...In that case, let's continue our journey.\nYou won't be able to start anew if peace never comes.")
   0()
  EndIf()
  If(0,5,0)
   ShowMessageFace("iriasu_fc4",0,0,2,14)
   ShowMessage("\\n<Ilias>...Well then, let us continue our journey.\nWe cannot start anew if peace does not come.")
   0()
  EndIf()
  ShowMessageFace("grangold_fc2",1,0,2,15)
  ShowMessage("\\n<King of Grangold>Indeed, let us go forth!")
  ShowMessageFace("grangold_fc2",1,0,2,16)
  ShowMessage("\\n<King of Grangold>...As things stand, I still need a strategy for creating a better public image. I'll discuss this with the minister of public affairs later.")
  ShowMessageFace("sonia_fc2",2,0,2,17)
  ShowMessage("\\n<Sonya>You're quite shrewd...")
  Wait(60)
  221()
  ChangeSwitch(2285,2305,1)
  ChangeVariable(1082,1082,0,0,3)
  322(535,"$Grandgoldo02_cip",0,"grangold_fc2",0)
  Wait(60)
  TeleportPlayer(0,2,221,176,2,2)
  222()
  355("gain_medal(2105)")
  EndEventProcessing()
  0()



EVENT   44
 PAGE   1
  If(1,1082,0,2,0)
   ShowMessageFace("grangold_fc2",1,0,2,1)
   ShowMessage("\\n<King of Grangold>I shall lead the way... Follow me into the light...")
   ShowMessageFace("",0,0,2,2)
   ShowMessage("\\n<Youth>Uwaaah! It's a monster!!")
   250(bytes(0x04,0x08,0x6f,0x3a,0x0c,0x52,0x50,0x47,0x3a,0x3a,0x53,0x45,0x08,0x3a,0x0a,0x40,0x6e,0x61,0x6d,0x65,0x49,0x22,0x0f,0x6d,0x6f,0x6e,0x5f,0x65,0x73,0x63,0x61,0x70,0x65,0x06,0x3a,0x06,0x45,0x54,0x3a,0x0b,0x40,0x70,0x69,0x74,0x63,0x68,0x69,0x69,0x3a,0x0c,0x40,0x76,0x6f,0x6c,0x75,0x6d,0x65,0x69,0x69))
   221()
   ChangeSwitch(2289,2289,0)
   ShowMessageFace("",0,0,2,3)
   ShowMessage("The youth ran away!")
   222()
   ChangeVariable(1087,1087,1,0,1)
   RunCommonEvent(361)
   EndEventProcessing()
   0()
  EndIf()
  If(1,1063,0,12,2)
   ShowMessageFace("",0,0,2,4)
   ShowMessage("\\n<Youth>My lovely queen...\nAh, aahhhhh...")
   If(0,6,0)
    ShowMessageFace("sonia_fc2",2,0,2,5)
    ShowMessage("\\n<Sonya>I wonder if he's okay...?")
    0()
   Else()
    ShowMessageFace("ruka_fc1",0,0,2,6)
    ShowMessage("\\n<Luka>Is he okay...?")
    0()
   EndIf()
   If(0,4,0)
    ShowMessageFace("alice_fc5",2,0,2,7)
    ShowMessage("\\n<Alice>This kind of lewd air is the type that erodes the mind over a long period of time. This does not mean the abnormalities appear immediately...")
    ShowMessageFace("alice_fc5",0,0,2,8)
    ShowMessage("\\n<Alice>Of course, it's dangerous if he continues to take it in for a long time. We need to deal with this situation quickly and cut it off at the source.")
    0()
   EndIf()
   If(0,5,0)
    ShowMessageFace("iriasu_fc4",2,0,2,9)
    ShowMessage("\\n<Ilias>This kind of lewd air is the type that erodes the mind over a long period of time. This does not mean the abnormalities appear immediately...")
    ShowMessageFace("iriasu_fc4",2,0,2,10)
    ShowMessage("\\n<Ilias>However, it's dangerous if he continues to take it in for an extended period of time. We must deal with this situation quickly and cut it off at the source.")
    0()
   EndIf()
   EndEventProcessing()
   0()
  EndIf()
  If(1,1063,0,13,1)
   ShowMessageFace("",0,0,2,11)
   ShowMessage("\\n<Youth>Why has the Monster Lord declared war...?\nFrom one thing to the next, these are terrible times, aren't they?")
   EndEventProcessing()
   0()
  EndIf()
  0()
 PAGE   2
  // condition: switch 2289 is ON
  0()



EVENT   45
 PAGE   1
  If(1,1082,0,2,0)
   ShowMessageFace("grangold_fc2",1,0,2,1)
   ShowMessage("\\n<King of Grangold>Fierce soldier... Your spear protects the people...")
   ShowMessageFace("",0,0,2,2)
   ShowMessage("\\n<Soldier>Nooooooooo!!")
   250(bytes(0x04,0x08,0x6f,0x3a,0x0c,0x52,0x50,0x47,0x3a,0x3a,0x53,0x45,0x08,0x3a,0x0a,0x40,0x6e,0x61,0x6d,0x65,0x49,0x22,0x0f,0x6d,0x6f,0x6e,0x5f,0x65,0x73,0x63,0x61,0x70,0x65,0x06,0x3a,0x06,0x45,0x54,0x3a,0x0b,0x40,0x70,0x69,0x74,0x63,0x68,0x69,0x69,0x3a,0x0c,0x40,0x76,0x6f,0x6c,0x75,0x6d,0x65,0x69,0x69))
   221()
   ChangeSwitch(2292,2292,0)
   ShowMessageFace("",0,0,2,3)
   ShowMessage("The soldier ran away!")
   222()
   ChangeVariable(1087,1087,1,0,1)
   RunCommonEvent(361)
   EndEventProcessing()
   0()
  EndIf()
  If(1,1063,0,12,2)
   ShowMessageFace("",0,0,2,4)
   ShowMessage("\\n<Soldier>Ah...ah, aahhh...")
   EndEventProcessing()
   0()
  EndIf()
  If(1,1063,0,13,1)
   ShowMessageFace("",0,0,2,5)
   ShowMessage("\\n<Soldier>This town is the closest to the border of Grand Noah. Therefore, it is protected by a strong bulwark.")
   ShowMessageFace("",0,0,2,6)
   ShowMessage("\\n<Soldier>Now that peace has been negotiated with Grand Noah...\nWe would like to deepen our relationship by making this a town of friendship.")
   EndEventProcessing()
   0()
  EndIf()
  0()
 PAGE   2
  // condition: switch 2292 is ON
  0()



EVENT   46
 PAGE   1
  ChangeSelfSwitch("A",0)
  205(45,bytes(0x04,0x08,0x6f,0x3a,0x13,0x52,0x50,0x47,0x3a,0x3a,0x4d,0x6f,0x76,0x65,0x52,0x6f,0x75,0x74,0x65,0x09,0x3a,0x0c,0x40,0x72,0x65,0x70,0x65,0x61,0x74,0x46,0x3a,0x0f,0x40,0x73,0x6b,0x69,0x70,0x70,0x61,0x62,0x6c,0x65,0x46,0x3a,0x0a,0x40,0x77,0x61,0x69,0x74,0x54,0x3a,0x0a,0x40,0x6c,0x69,0x73,0x74,0x5b,0x07,0x6f,0x3a,0x15,0x52,0x50,0x47,0x3a,0x3a,0x4d,0x6f,0x76,0x65,0x43,0x6f,0x6d,0x6d,0x61,0x6e,0x64,0x07,0x3a,0x0a,0x40,0x63,0x6f,0x64,0x65,0x69,0x17,0x3a,0x10,0x40,0x70,0x61,0x72,0x61,0x6d,0x65,0x74,0x65,0x72,0x73,0x5b,0x00,0x6f,0x3b,0x0a,0x07,0x3b,0x0b,0x69,0x00,0x3b,0x0c,0x5b,0x00))
  ShowMessageFace("",0,0,2,1)
  ShowMessage("\\n<Soldier>You guuuuys...")
  205(-1,bytes(0x04,0x08,0x6f,0x3a,0x13,0x52,0x50,0x47,0x3a,0x3a,0x4d,0x6f,0x76,0x65,0x52,0x6f,0x75,0x74,0x65,0x09,0x3a,0x0c,0x40,0x72,0x65,0x70,0x65,0x61,0x74,0x46,0x3a,0x0f,0x40,0x73,0x6b,0x69,0x70,0x70,0x61,0x62,0x6c,0x65,0x46,0x3a,0x0a,0x40,0x77,0x61,0x69,0x74,0x54,0x3a,0x0a,0x40,0x6c,0x69,0x73,0x74,0x5b,0x07,0x6f,0x3a,0x15,0x52,0x50,0x47,0x3a,0x3a,0x4d,0x6f,0x76,0x65,0x43,0x6f,0x6d,0x6d,0x61,0x6e,0x64,0x07,0x3a,0x0a,0x40,0x63,0x6f,0x64,0x65,0x69,0x16,0x3a,0x10,0x40,0x70,0x61,0x72,0x61,0x6d,0x65,0x74,0x65,0x72,0x73,0x5b,0x00,0x6f,0x3b,0x0a,0x07,0x3b,0x0b,0x69,0x00,0x3b,0x0c,0x5b,0x00))
  ShowSpeechBalloon(-1,1,true)
  ShowMessageFace("",0,0,2,2)
  ShowMessage("\\n<Soldier>For my queen in the castle...\nGreetings... Ah, hauuu...")
  205(45,bytes(0x04,0x08,0x6f,0x3a,0x13,0x52,0x50,0x47,0x3a,0x3a,0x4d,0x6f,0x76,0x65,0x52,0x6f,0x75,0x74,0x65,0x09,0x3a,0x0c,0x40,0x72,0x65,0x70,0x65,0x61,0x74,0x46,0x3a,0x0f,0x40,0x73,0x6b,0x69,0x70,0x70,0x61,0x62,0x6c,0x65,0x46,0x3a,0x0a,0x40,0x77,0x61,0x69,0x74,0x54,0x3a,0x0a,0x40,0x6c,0x69,0x73,0x74,0x5b,0x07,0x6f,0x3a,0x15,0x52,0x50,0x47,0x3a,0x3a,0x4d,0x6f,0x76,0x65,0x43,0x6f,0x6d,0x6d,0x61,0x6e,0x64,0x07,0x3a,0x0a,0x40,0x63,0x6f,0x64,0x65,0x69,0x15,0x3a,0x10,0x40,0x70,0x61,0x72,0x61,0x6d,0x65,0x74,0x65,0x72,0x73,0x5b,0x00,0x6f,0x3b,0x0a,0x07,0x3b,0x0b,0x69,0x00,0x3b,0x0c,0x5b,0x00))
  ShowMessageFace("",0,0,2,3)
  ShowMessage("\\n<Soldier>U...uu....")
  If(0,4,0)
   ShowMessageFace("alice_fc5",2,0,2,4)
   ShowMessage("\\n<Alice>This is an unusual situation...\nIronically, this plays well into our infiltration strategy.")
   0()
  EndIf()
  If(0,5,0)
   ShowMessageFace("iriasu_fc4",0,0,2,5)
   ShowMessage("\\n<Ilias>This is an unusual situation...\nIronically, this works favorably for our infiltration strategy.")
   0()
  EndIf()
  If(0,6,0)
   ShowMessageFace("sonia_fc2",3,0,2,6)
   ShowMessage("\\n<Sonya>Nobody seems to be suspicious of us.\nNormally, you can't walk around enemy territory this easily...")
   0()
  Else()
   ShowMessageFace("ruka_fc1",0,0,2,7)
   ShowMessage("\\n<Luka>No one seems to think we're suspicious...")
   0()
  EndIf()
  0()
 PAGE   2
  // condition: self-switch A is ON
  0()
 PAGE   3
  // condition: variable 1063 >= 6
  0()



EVENT   47
 PAGE   1
  If(1,1082,0,2,0)
   ShowMessageFace("grangold_fc2",1,0,2,1)
   ShowMessage("\\n<King of Grangold>My people... May the blessings of heaven be everlasting...")
   ShowMessageFace("",0,0,2,2)
   ShowMessage("\\n<Old Woman>Wawawa, please help meee!")
   250(bytes(0x04,0x08,0x6f,0x3a,0x0c,0x52,0x50,0x47,0x3a,0x3a,0x53,0x45,0x08,0x3a,0x0a,0x40,0x6e,0x61,0x6d,0x65,0x49,0x22,0x0f,0x6d,0x6f,0x6e,0x5f,0x65,0x73,0x63,0x61,0x70,0x65,0x06,0x3a,0x06,0x45,0x54,0x3a,0x0b,0x40,0x70,0x69,0x74,0x63,0x68,0x69,0x69,0x3a,0x0c,0x40,0x76,0x6f,0x6c,0x75,0x6d,0x65,0x69,0x69))
   221()
   ChangeSwitch(2304,2304,0)
   ShowMessageFace("",0,0,2,3)
   ShowMessage("The old woman ran away!")
   222()
   ChangeVariable(1087,1087,1,0,1)
   RunCommonEvent(361)
   EndEventProcessing()
   0()
  EndIf()
  If(1,1063,0,12,2)
   ShowMessageFace("",0,0,2,4)
   ShowMessage("\\n<Old Woman>It seems the effects of the aura are weaker towards old people like myself, but...")
   ShowMessageFace("",0,0,2,5)
   ShowMessage("\\n<Old Woman>Even so, I can't take much more...\nYou folks, please save this country...")
   EndEventProcessing()
   0()
  EndIf()
  If(1,1063,0,13,1)
   ShowMessageFace("",0,0,2,6)
   ShowMessage("\\n<Old Woman>I remember seeing you even when my reason was fading.\nYou did it... You've saved this country...")
   EndEventProcessing()
   0()
  EndIf()
  0()
 PAGE   2
  // condition: switch 2304 is ON
  0()



EVENT   48
 PAGE   1
  If(1,1082,0,2,0)
   ShowMessageFace("grangold_fc2",1,0,2,1)
   ShowMessage("\\n<King of Grangold>Children are treasures, children are the future... Oh, my beloved people...")
   ShowMessageFace("",0,0,2,2)
   ShowMessage("\\n<Young Boy>Mommy! Mommyyyyy!!")
   250(bytes(0x04,0x08,0x6f,0x3a,0x0c,0x52,0x50,0x47,0x3a,0x3a,0x53,0x45,0x08,0x3a,0x0a,0x40,0x6e,0x61,0x6d,0x65,0x49,0x22,0x0f,0x6d,0x6f,0x6e,0x5f,0x65,0x73,0x63,0x61,0x70,0x65,0x06,0x3a,0x06,0x45,0x54,0x3a,0x0b,0x40,0x70,0x69,0x74,0x63,0x68,0x69,0x69,0x3a,0x0c,0x40,0x76,0x6f,0x6c,0x75,0x6d,0x65,0x69,0x69))
   221()
   ChangeSwitch(2300,2300,0)
   ShowMessageFace("",0,0,2,3)
   ShowMessage("The young boy ran away!")
   222()
   ChangeVariable(1087,1087,1,0,1)
   RunCommonEvent(361)
   EndEventProcessing()
   0()
  EndIf()
  If(1,1063,0,12,2)
   ShowMessageFace("",0,0,2,4)
   ShowMessage("\\n<Young Boy>Whenever I think about the queen...\nMy wiener grows big...")
   ShowMessageFace("",0,0,2,5)
   ShowMessage("\\n<Young Boy>Nnn... Hauuuu...")
   355("actor_label_jump")
   EndEventProcessing()
   DefineLabel("118")
   ShowMessageFace("meia_fc1",2,0,2,6)
   ShowMessage("\\n<Meia>Ara...ara, arara...")
   EndEventProcessing()
   0()
  EndIf()
  If(1,1063,0,13,1)
   ShowMessageFace("",0,0,2,7)
   ShowMessage("\\n<Young Boy>There really are magical girls here!\nMagical Mari-chan is a genuine magical girl!")
   EndEventProcessing()
   0()
  EndIf()
  0()
 PAGE   2
  // condition: switch 2300 is ON
  0()



EVENT   49
 PAGE   1
  If(1,1082,0,2,0)
   ShowMessageFace("grangold_fc2",1,0,2,1)
   ShowMessage("\\n<King of Grangold>Wrongdoer... May you head towards the shining light of virtue...")
   ShowMessageFace("",0,0,2,2)
   ShowMessage("\\n<Rowdy Man>D-don't kill me! Don't kill meeee!!")
   250(bytes(0x04,0x08,0x6f,0x3a,0x0c,0x52,0x50,0x47,0x3a,0x3a,0x53,0x45,0x08,0x3a,0x0a,0x40,0x6e,0x61,0x6d,0x65,0x49,0x22,0x0f,0x6d,0x6f,0x6e,0x5f,0x65,0x73,0x63,0x61,0x70,0x65,0x06,0x3a,0x06,0x45,0x54,0x3a,0x0b,0x40,0x70,0x69,0x74,0x63,0x68,0x69,0x69,0x3a,0x0c,0x40,0x76,0x6f,0x6c,0x75,0x6d,0x65,0x69,0x69))
   221()
   ChangeSwitch(2297,2297,0)
   ShowMessageFace("",0,0,2,3)
   ShowMessage("The rowdy man ran away!")
   222()
   ChangeVariable(1087,1087,1,0,1)
   RunCommonEvent(361)
   EndEventProcessing()
   0()
  EndIf()
  If(1,1063,0,12,2)
   ShowMessageFace("",0,0,2,4)
   ShowMessage("\\n<Rowdy Man>If it's for my queen...\nI'll throw it all away...")
   EndEventProcessing()
   0()
  EndIf()
  If(1,1063,0,13,1)
   ShowMessageFace("",0,0,2,5)
   ShowMessage("\\n<Rowdy Man>Rumor is the hero Luka... He came to this town while we were all lusting. Damn it, it would have been great if I had gotten his autograph!")
   EndEventProcessing()
   0()
  EndIf()
  0()
 PAGE   2
  // condition: switch 2297 is ON
  0()



EVENT   50
 PAGE   1
  If(1,1082,0,2,0)
   ShowMessageFace("grangold_fc2",1,0,2,1)
   ShowMessage("\\n<King of Grangold>Feeble woman, you shall receive the blessings of my kingdom...")
   ShowMessageFace("",0,0,2,2)
   ShowMessage("\\n<Young Woman>H-help me... Help me...")
   250(bytes(0x04,0x08,0x6f,0x3a,0x0c,0x52,0x50,0x47,0x3a,0x3a,0x53,0x45,0x08,0x3a,0x0a,0x40,0x6e,0x61,0x6d,0x65,0x49,0x22,0x0f,0x6d,0x6f,0x6e,0x5f,0x65,0x73,0x63,0x61,0x70,0x65,0x06,0x3a,0x06,0x45,0x54,0x3a,0x0b,0x40,0x70,0x69,0x74,0x63,0x68,0x69,0x69,0x3a,0x0c,0x40,0x76,0x6f,0x6c,0x75,0x6d,0x65,0x69,0x69))
   221()
   ChangeSwitch(2295,2295,0)
   ShowMessageFace("",0,0,2,3)
   ShowMessage("The young woman ran away!")
   222()
   ChangeVariable(1087,1087,1,0,1)
   RunCommonEvent(361)
   EndEventProcessing()
   0()
  EndIf()
  If(1,1063,0,12,2)
   ShowMessageFace("",0,0,2,4)
   ShowMessage("\\n<Young Woman>My queen... Ahh, my queen...\nI want to be at your side...")
   EndEventProcessing()
   0()
  EndIf()
  If(1,1063,0,13,1)
   ShowMessageFace("",0,0,2,5)
   ShowMessage("\\n<Young Woman>The center of the Gold Region is dotted with various villages.\nI've heard stories that a lot of monsters inhabit them.")
   EndEventProcessing()
   0()
  EndIf()
  0()
 PAGE   2
  // condition: switch 2295 is ON
  0()



EVENT   51
 PAGE   1
  If(1,1082,0,2,0)
   ShowMessageFace("grangold_fc2",1,0,2,1)
   ShowMessage("\\n<King of Grangold>My soldier... May your strength protect our people...")
   ShowMessageFace("",0,0,2,2)
   ShowMessage("\\n<Soldier>I can't win this alone! I-I need to call for reinforcements!!")
   250(bytes(0x04,0x08,0x6f,0x3a,0x0c,0x52,0x50,0x47,0x3a,0x3a,0x53,0x45,0x08,0x3a,0x0a,0x40,0x6e,0x61,0x6d,0x65,0x49,0x22,0x0f,0x6d,0x6f,0x6e,0x5f,0x65,0x73,0x63,0x61,0x70,0x65,0x06,0x3a,0x06,0x45,0x54,0x3a,0x0b,0x40,0x70,0x69,0x74,0x63,0x68,0x69,0x69,0x3a,0x0c,0x40,0x76,0x6f,0x6c,0x75,0x6d,0x65,0x69,0x69))
   221()
   ChangeSwitch(2291,2291,0)
   ShowMessageFace("",0,0,2,3)
   ShowMessage("The soldier left to call for reinforcements!")
   222()
   ChangeVariable(1087,1087,1,0,1)
   RunCommonEvent(361)
   EndEventProcessing()
   0()
  EndIf()
  If(1,1063,0,12,2)
   ShowMessageFace("",0,0,2,4)
   ShowMessage("\\n<Soldier>Hafuuuu...\nM-my queeeeen...")
   EndEventProcessing()
   0()
  EndIf()
  If(1,1063,0,13,1)
   ShowMessageFace("",0,0,2,5)
   ShowMessage("\\n<Soldier>Many monsters used to live in this town before...\nThey appear to have left in the aftermath of the great war.")
   ShowMessageFace("",0,0,2,6)
   ShowMessage("\\n<Soldier>I hope the harpies and lamias come back soon because at this rate, the men around here are going to lose it...")
   355("actor_label_jump")
   EndEventProcessing()
   DefineLabel("83")
   ShowMessageFace("hapy_a_fc1",0,0,2,7)
   ShowMessage("\\n<Reina>How about coming to Harpy Village?\nIf you want, I'll give you a warm welcome right now. ♪")
   EndEventProcessing()
   DefineLabel("87")
   ShowMessageFace("name2_fc2",1,0,2,8)
   ShowMessage("\\n<Melty>Would it be okay if we took some people to our tower...?")
   EndEventProcessing()
   0()
  EndIf()
  0()
 PAGE   2
  // condition: switch 2291 is ON
  0()



EVENT   52
 PAGE   1
  If(1,1082,0,2,0)
   ShowMessageFace("grangold_fc2",1,0,2,1)
   ShowMessage("\\n<King of Grangold>I wish you many more years to come, respected elder...")
   ShowMessageFace("",0,0,2,2)
   ShowMessage("\\n<Old Man>Please have mercy, at least spare my life...!")
   250(bytes(0x04,0x08,0x6f,0x3a,0x0c,0x52,0x50,0x47,0x3a,0x3a,0x53,0x45,0x08,0x3a,0x0a,0x40,0x6e,0x61,0x6d,0x65,0x49,0x22,0x0f,0x6d,0x6f,0x6e,0x5f,0x65,0x73,0x63,0x61,0x70,0x65,0x06,0x3a,0x06,0x45,0x54,0x3a,0x0b,0x40,0x70,0x69,0x74,0x63,0x68,0x69,0x69,0x3a,0x0c,0x40,0x76,0x6f,0x6c,0x75,0x6d,0x65,0x69,0x69))
   221()
   ChangeSwitch(2294,2294,0)
   ShowMessageFace("",0,0,2,3)
   ShowMessage("The old man ran away!")
   222()
   ChangeVariable(1087,1087,1,0,1)
   RunCommonEvent(361)
   EndEventProcessing()
   0()
  EndIf()
  If(1,1063,0,12,2)
   ShowMessageFace("",0,0,2,4)
   ShowMessage("\\n<Old Man>This feeling of being deeply in love...\nIt's as if I've returned to the days of my youth...")
   EndEventProcessing()
   0()
  EndIf()
  If(1,1063,0,13,1)
   ShowMessageFace("",0,0,2,5)
   ShowMessage("\\n<Old Man>When my mind was shaken by the lewd air, I seem to have remembered the feeling of falling in love... Whenever I think of her, my heart is always pounding.")
   355("actor_label_jump")
   EndEventProcessing()
   DefineLabel("155")
   ShowMessageFace("saki_fc1",0,0,2,6)
   ShowMessage("\\n<Saki>Never forget how to love! ♪")
   EndEventProcessing()
   0()
  EndIf()
  0()
 PAGE   2
  // condition: switch 2294 is ON
  0()



EVENT   53
 PAGE   1
  If(1,1082,0,2,0)
   ShowMessageFace("grangold_fc2",1,0,2,1)
   ShowMessage("\\n<King of Grangold>It's like peering into a bottomless well...")
   ShowMessageFace("",0,0,2,2)
   ShowMessage("\\n<Young Girl>Kyaaaaahhh!!")
   250(bytes(0x04,0x08,0x6f,0x3a,0x0c,0x52,0x50,0x47,0x3a,0x3a,0x53,0x45,0x08,0x3a,0x0a,0x40,0x6e,0x61,0x6d,0x65,0x49,0x22,0x0f,0x6d,0x6f,0x6e,0x5f,0x65,0x73,0x63,0x61,0x70,0x65,0x06,0x3a,0x06,0x45,0x54,0x3a,0x0b,0x40,0x70,0x69,0x74,0x63,0x68,0x69,0x69,0x3a,0x0c,0x40,0x76,0x6f,0x6c,0x75,0x6d,0x65,0x69,0x69))
   221()
   ChangeSwitch(2288,2288,0)
   ShowMessageFace("",0,0,2,3)
   ShowMessage("The young girl ran away!")
   222()
   ChangeVariable(1087,1087,1,0,1)
   RunCommonEvent(361)
   EndEventProcessing()
   0()
  EndIf()
  If(1,1063,0,12,2)
   ShowMessageFace("",0,0,2,4)
   ShowMessage("\\n<Young Girl>Ahhh... My queeeeen...")
   EndEventProcessing()
   0()
  EndIf()
  If(1,1063,0,13,1)
   ShowMessageFace("",0,0,2,5)
   ShowMessage("\\n<Young Girl>There appears to be a legend about a witch in the toxic swamp to the east. Magicians competed against each other there, vying for power...")
   ShowMessageFace("",0,0,2,6)
   ShowMessage("\\n<Young Girl>If you want to know more, please ask Magical Mari-chan.\nShe lives in the west of this town, inside the house with the strange trees and flowers growing outside.")
   EndEventProcessing()
   0()
  EndIf()
  0()
 PAGE   2
  // condition: switch 2288 is ON
  0()



EVENT   54
 PAGE   1
  If(1,1082,0,2,0)
   ShowMessageFace("grangold_fc2",1,0,2,1)
   ShowMessage("\\n<King of Grangold>This wall is not a toilet... You must observe proper decorum.")
   ShowMessageFace("",0,0,2,2)
   ShowMessage("\\n<Youth>Hyaaah! I'll never pee outdoors again!!")
   250(bytes(0x04,0x08,0x6f,0x3a,0x0c,0x52,0x50,0x47,0x3a,0x3a,0x53,0x45,0x08,0x3a,0x0a,0x40,0x6e,0x61,0x6d,0x65,0x49,0x22,0x0f,0x6d,0x6f,0x6e,0x5f,0x65,0x73,0x63,0x61,0x70,0x65,0x06,0x3a,0x06,0x45,0x54,0x3a,0x0b,0x40,0x70,0x69,0x74,0x63,0x68,0x69,0x69,0x3a,0x0c,0x40,0x76,0x6f,0x6c,0x75,0x6d,0x65,0x69,0x69))
   221()
   ChangeSwitch(2301,2301,0)
   ShowMessageFace("",0,0,2,3)
   ShowMessage("The youth ran away!")
   222()
   ChangeVariable(1087,1087,1,0,1)
   RunCommonEvent(361)
   EndEventProcessing()
   0()
  EndIf()
  If(1,1063,0,12,2)
   ShowMessageFace("",0,0,2,4)
   ShowMessage("\\n<Youth>Haa, haa, haa... Uuu!")
   If(0,6,0)
    ShowMessageFace("sonia_fc1",6,0,2,5)
    ShowMessage("\\n<Sonya>Disgusting...")
    If(0,4,0)
     ShowMessageFace("alice_fc5",2,0,2,6)
     ShowMessage("\\n<Alice>He seems to be filled with sexual desire due to the effects of the lewd air. This isn't his will, so don't blame him...")
     0()
    EndIf()
    If(0,5,0)
     ShowMessageFace("iriasu_fc4",2,0,2,7)
     ShowMessage("\\n<Ilias>Because of the lewd air, he has become filled with sexual desire... Was this human male defective before?")
     0()
    EndIf()
    0()
   EndIf()
   EndEventProcessing()
   0()
  EndIf()
  If(1,1063,0,13,1)
   ShowMessageFace("",0,0,2,8)
   ShowMessage("\\n<Youth>Peeing outdoors feels so immoral...*trembling*")
   If(0,6,0)
    ShowMessageFace("sonia_fc1",6,0,2,9)
    ShowMessage("\\n<Sonya>Disgusting...")
    If(0,4,0)
     ShowMessageFace("alice_fc5",5,0,2,10)
     ShowMessage("\\n<Alice>What wretched behavior...")
     0()
    EndIf()
    If(0,5,0)
     ShowMessageFace("iriasu_fc4",2,0,2,11)
     ShowMessage("\\n<Ilias>This human male is still defective.")
     0()
    EndIf()
    0()
   EndIf()
   EndEventProcessing()
   0()
  EndIf()
  0()
 PAGE   2
  // condition: switch 2301 is ON
  0()



EVENT   55
 PAGE   1
  // condition: variable 1082 >= 2
  // condition: party contains actor #535
  ChangeSelfSwitch("A",0)
  If(0,4,0)
   ShowMessageFace("alice_fc5",0,0,2,1)
   ShowMessage("\\n<Alice>We've arrived at Goddard.\nNow then, I wonder if the people will accept the King of Grangold as he is...")
   0()
  EndIf()
  If(0,5,0)
   ShowMessageFace("iriasu_fc4",2,0,2,2)
   ShowMessage("\\n<Ilias>We have arrived at Goddard.\nNow then, I wonder if the people will accept the King of Grangold as he is...")
   0()
  EndIf()
  PictureDisplay(5,"80_grangold_st11b",0,0,0,0,100,100,0,0)
  PictureMove(5,null,0,0,0,0,100,100,255,0,30,true)
  ShowMessageFace("grangold_fc2",0,0,2,3)
  ShowMessage("\\n<King of Grangold>I-I'm getting nervous...")
  ShowMessageFace("sonia_fc2",2,0,2,4)
  ShowMessage("\\n<Sonya>...I mean, I'd be frightened of having no face for starters. Having a blank face isn't good, is it?")
  ShowMessageFace("sonia_fc1",2,0,2,5)
  ShowMessage("\\n<Sonya>...A great idea just came to mind! ♪\nKing, please don't move for a bit!")
  ShowMessageFace("",0,0,2,6)
  ShowMessage("Sonya takes out a black marker!")
  ShowMessageFace("grangold_fc2",0,0,2,7)
  ShowMessage("\\n<King of Grangold>............")
  ShowMessageFace("sonia_fc1",2,0,2,8)
  ShowMessage("\\n<Sonya>This way, you'll have a nice, friendly face...\n*squeek* *squeek* *squeeeek*♪")
  322(535,"$Grandgoldo02_cip",0,"grangold_fc2",1)
  PictureDisplay(5,"80_grangold_st12b",0,0,0,0,100,100,255,0)
  ShowMessageFace("grangold_fc2",1,0,2,9)
  ShowMessage("\\n<King of Grangold>............")
  ShowMessageFace("sonia_fc1",3,0,2,10)
  ShowMessage("\\n<Sonya>Looking good!")
  If(0,4,0)
   ShowMessageFace("alice_fc5",6,0,2,11)
   ShowMessage("\\n<Alice>That's not \"good\" at all!")
   0()
  EndIf()
  If(0,5,0)
   ShowMessageFace("iriasu_fc4",5,0,2,12)
   ShowMessage("\\n<Ilias>That's not \"good\" at all!")
   0()
  EndIf()
  If(4,181,0)
   ShowMessageFace("gaistvine_fc1",1,0,2,13)
   ShowMessage("\\n<Lisa>It's very avant-garde...")
   0()
  EndIf()
  ShowMessageFace("grangold_fc2",1,0,2,14)
  ShowMessage("\\n<King of Grangold>...Well then, let's see how the people respond.")
  If(12,"exist_party_persona_id?(391)")
   ShowMessageFace("mefist_fc2",0,0,2,15)
   ShowMessage("\\n<Mephisto>It would be best to only talk to the people outdoors. If you set foot in a house or shop, it might cause a disturbance.")
   0()
  Else()
   ShowMessageFace("mefist_fc1",0,0,2,16)
   ShowMessage("\\n<Mephisto>It would be best to only talk to the people outdoors. If you set foot in a house or shop, it might cause a disturbance.")
   0()
  EndIf()
  ShowMessageFace("sonia_fc1",2,0,2,17)
  ShowMessage("\\n<Sonya>Don't worry, I'm sure everyone will accept you.\nCome on, let's talk to people!")
  PictureClear(5)
  ChangeSelfSwitch("A",0)
  0()
 PAGE   2
  // condition: self-switch A is ON
  0()

EVENT   56
 PAGE   1
  250(bytes(0x04,0x08,0x6f,0x3a,0x0c,0x52,0x50,0x47,0x3a,0x3a,0x53,0x45,0x08,0x3a,0x0a,0x40,0x6e,0x61,0x6d,0x65,0x49,0x22,0x0a,0x49,0x74,0x65,0x6d,0x31,0x06,0x3a,0x06,0x45,0x54,0x3a,0x0b,0x40,0x70,0x69,0x74,0x63,0x68,0x69,0x69,0x3a,0x0c,0x40,0x76,0x6f,0x6c,0x75,0x6d,0x65,0x69,0x55))
  ChangeSelfSwitch("A",0)
  ChangeInventory_Item(218,0,0,1)
  0()
 PAGE   2
  // condition: self-switch A is ON
  0()



EVENT   57
 PAGE   1
  250(bytes(0x04,0x08,0x6f,0x3a,0x0c,0x52,0x50,0x47,0x3a,0x3a,0x53,0x45,0x08,0x3a,0x0a,0x40,0x6e,0x61,0x6d,0x65,0x49,0x22,0x0a,0x49,0x74,0x65,0x6d,0x31,0x06,0x3a,0x06,0x45,0x54,0x3a,0x0b,0x40,0x70,0x69,0x74,0x63,0x68,0x69,0x69,0x3a,0x0c,0x40,0x76,0x6f,0x6c,0x75,0x6d,0x65,0x69,0x55))
  ChangeSelfSwitch("A",0)
  ChangeInventory_Item(8,0,0,1)
  0()
 PAGE   2
  // condition: self-switch A is ON
  0()



EVENT   58
 PAGE   1
  250(bytes(0x04,0x08,0x6f,0x3a,0x0c,0x52,0x50,0x47,0x3a,0x3a,0x53,0x45,0x08,0x3a,0x0a,0x40,0x6e,0x61,0x6d,0x65,0x49,0x22,0x0a,0x49,0x74,0x65,0x6d,0x31,0x06,0x3a,0x06,0x45,0x54,0x3a,0x0b,0x40,0x70,0x69,0x74,0x63,0x68,0x69,0x69,0x3a,0x0c,0x40,0x76,0x6f,0x6c,0x75,0x6d,0x65,0x69,0x55))
  ChangeSelfSwitch("A",0)
  ChangeInventory_Item(221,0,0,1)
  0()
 PAGE   2
  // condition: self-switch A is ON
  0()



EVENT   59
 PAGE   1
  250(bytes(0x04,0x08,0x6f,0x3a,0x0c,0x52,0x50,0x47,0x3a,0x3a,0x53,0x45,0x08,0x3a,0x0a,0x40,0x6e,0x61,0x6d,0x65,0x49,0x22,0x0a,0x49,0x74,0x65,0x6d,0x31,0x06,0x3a,0x06,0x45,0x54,0x3a,0x0b,0x40,0x70,0x69,0x74,0x63,0x68,0x69,0x69,0x3a,0x0c,0x40,0x76,0x6f,0x6c,0x75,0x6d,0x65,0x69,0x55))
  ChangeSelfSwitch("A",0)
  ChangeInventory_Item(2,0,0,1)
  0()
 PAGE   2
  // condition: self-switch A is ON
  0()



EVENT   60
 PAGE   1
  250(bytes(0x04,0x08,0x6f,0x3a,0x0c,0x52,0x50,0x47,0x3a,0x3a,0x53,0x45,0x08,0x3a,0x0a,0x40,0x6e,0x61,0x6d,0x65,0x49,0x22,0x0a,0x49,0x74,0x65,0x6d,0x31,0x06,0x3a,0x06,0x45,0x54,0x3a,0x0b,0x40,0x70,0x69,0x74,0x63,0x68,0x69,0x69,0x3a,0x0c,0x40,0x76,0x6f,0x6c,0x75,0x6d,0x65,0x69,0x55))
  ChangeSelfSwitch("A",0)
  ChangeInventory_Item(430,0,0,1)
  0()
 PAGE   2
  // condition: self-switch A is ON
  0()



EVENT   61
 PAGE   1
  250(bytes(0x04,0x08,0x6f,0x3a,0x0c,0x52,0x50,0x47,0x3a,0x3a,0x53,0x45,0x08,0x3a,0x0a,0x40,0x6e,0x61,0x6d,0x65,0x49,0x22,0x0a,0x49,0x74,0x65,0x6d,0x31,0x06,0x3a,0x06,0x45,0x54,0x3a,0x0b,0x40,0x70,0x69,0x74,0x63,0x68,0x69,0x69,0x3a,0x0c,0x40,0x76,0x6f,0x6c,0x75,0x6d,0x65,0x69,0x55))
  ChangeSelfSwitch("A",0)
  ChangeInventory_Item(80,0,0,1)
  0()
 PAGE   2
  // condition: self-switch A is ON
  0()



EVENT   62
 PAGE   1
  250(bytes(0x04,0x08,0x6f,0x3a,0x0c,0x52,0x50,0x47,0x3a,0x3a,0x53,0x45,0x08,0x3a,0x0a,0x40,0x6e,0x61,0x6d,0x65,0x49,0x22,0x0a,0x49,0x74,0x65,0x6d,0x31,0x06,0x3a,0x06,0x45,0x54,0x3a,0x0b,0x40,0x70,0x69,0x74,0x63,0x68,0x69,0x69,0x3a,0x0c,0x40,0x76,0x6f,0x6c,0x75,0x6d,0x65,0x69,0x55))
  ChangeSelfSwitch("A",0)
  ChangeInventory_Item(12,0,0,1)
  0()
 PAGE   2
  // condition: self-switch A is ON
  0()



EVENT   63
 PAGE   1
  250(bytes(0x04,0x08,0x6f,0x3a,0x0c,0x52,0x50,0x47,0x3a,0x3a,0x53,0x45,0x08,0x3a,0x0a,0x40,0x6e,0x61,0x6d,0x65,0x49,0x22,0x0a,0x49,0x74,0x65,0x6d,0x31,0x06,0x3a,0x06,0x45,0x54,0x3a,0x0b,0x40,0x70,0x69,0x74,0x63,0x68,0x69,0x69,0x3a,0x0c,0x40,0x76,0x6f,0x6c,0x75,0x6d,0x65,0x69,0x55))
  ChangeSelfSwitch("A",0)
  ChangeInventory_Item(2,0,0,1)
  0()
 PAGE   2
  // condition: self-switch A is ON
  0()



EVENT   64
 PAGE   1
  241(bytes(0x04,0x08,0x6f,0x3a,0x0d,0x52,0x50,0x47,0x3a,0x3a,0x42,0x47,0x4d,0x08,0x3a,0x0a,0x40,0x6e,0x61,0x6d,0x65,0x49,0x22,0x0a,0x6d,0x75,0x72,0x61,0x33,0x06,0x3a,0x06,0x45,0x54,0x3a,0x0c,0x40,0x76,0x6f,0x6c,0x75,0x6d,0x65,0x69,0x69,0x3a,0x0b,0x40,0x70,0x69,0x74,0x63,0x68,0x69,0x69))
  TemporaryRemoveEvent()
  0()
 PAGE   2
  // condition: variable 1063 >= 13
  0()


